%!PS-Adobe-3.0 EPSF-3.0
%%Creator: MATLAB, The MathWorks, Inc. Version 7.11.0.584 (R2010b). Operating System: Linux 3.2.0-53-generic-pae #81-Ubuntu SMP Thu Aug 22 21:23:47 UTC 2013 i686.
%%Title: /media/work/CoursesAtColumbia/NumericalMethodsOfPDE/Homeworks/hw1/matlabFiles/untitled.eps
%%CreationDate: 09/18/2013  10:47:13
%%DocumentNeededFonts: Helvetica
%%DocumentProcessColors: Cyan Magenta Yellow Black
%%LanguageLevel: 2
%%Pages: 1
%%BoundingBox:    81   227   529   564
%%EndComments

%%BeginProlog
% MathWorks dictionary
/MathWorks 160 dict begin
% definition operators
/bdef {bind def} bind def
/ldef {load def} bind def
/xdef {exch def} bdef
/xstore {exch store} bdef
% operator abbreviations
/c  /clip ldef
/cc /concat ldef
/cp /closepath ldef
/gr /grestore ldef
/gs /gsave ldef
/mt /moveto ldef
/np /newpath ldef
/cm /currentmatrix ldef
/sm /setmatrix ldef
/rm /rmoveto ldef
/rl /rlineto ldef
/s {show newpath} bdef
/sc {setcmykcolor} bdef
/sr /setrgbcolor ldef
/sg /setgray ldef
/w /setlinewidth ldef
/j /setlinejoin ldef
/cap /setlinecap ldef
/rc {rectclip} bdef
/rf {rectfill} bdef
% page state control
/pgsv () def
/bpage {/pgsv save def} bdef
/epage {pgsv restore} bdef
/bplot /gsave ldef
/eplot {stroke grestore} bdef
% orientation switch
/portraitMode 0 def /landscapeMode 1 def /rotateMode 2 def
% coordinate system mappings
/dpi2point 0 def
% font control
/FontSize 0 def
/FMS {/FontSize xstore findfont [FontSize 0 0 FontSize neg 0 0]
  makefont setfont} bdef
/reencode {exch dup where {pop load} {pop StandardEncoding} ifelse
  exch dup 3 1 roll findfont dup length dict begin
  { 1 index /FID ne {def}{pop pop} ifelse } forall
  /Encoding exch def currentdict end definefont pop} bdef
/isroman {findfont /CharStrings get /Agrave known} bdef
/FMSR {3 1 roll 1 index dup isroman {reencode} {pop pop} ifelse
  exch FMS} bdef
/csm {1 dpi2point div -1 dpi2point div scale neg translate
 dup landscapeMode eq {pop -90 rotate}
  {rotateMode eq {90 rotate} if} ifelse} bdef
% line types: solid, dotted, dashed, dotdash
/SO { [] 0 setdash } bdef
/DO { [.5 dpi2point mul 4 dpi2point mul] 0 setdash } bdef
/DA { [6 dpi2point mul] 0 setdash } bdef
/DD { [.5 dpi2point mul 4 dpi2point mul 6 dpi2point mul 4
  dpi2point mul] 0 setdash } bdef
% macros for lines and objects
/L {lineto stroke} bdef
/MP {3 1 roll moveto 1 sub {rlineto} repeat} bdef
/AP {{rlineto} repeat} bdef
/PDlw -1 def
/W {/PDlw currentlinewidth def setlinewidth} def
/PP {closepath eofill} bdef
/DP {closepath stroke} bdef
/MR {4 -2 roll moveto dup  0 exch rlineto exch 0 rlineto
  neg 0 exch rlineto closepath} bdef
/FR {MR stroke} bdef
/PR {MR fill} bdef
/L1i {{currentfile picstr readhexstring pop} image} bdef
/tMatrix matrix def
/MakeOval {newpath tMatrix currentmatrix pop translate scale
0 0 1 0 360 arc tMatrix setmatrix} bdef
/FO {MakeOval stroke} bdef
/PO {MakeOval fill} bdef
/PD {currentlinewidth 2 div 0 360 arc fill
   PDlw -1 eq not {PDlw w /PDlw -1 def} if} def
/FA {newpath tMatrix currentmatrix pop translate scale
  0 0 1 5 -2 roll arc tMatrix setmatrix stroke} bdef
/PA {newpath tMatrix currentmatrix pop	translate 0 0 moveto scale
  0 0 1 5 -2 roll arc closepath tMatrix setmatrix fill} bdef
/FAn {newpath tMatrix currentmatrix pop translate scale
  0 0 1 5 -2 roll arcn tMatrix setmatrix stroke} bdef
/PAn {newpath tMatrix currentmatrix pop translate 0 0 moveto scale
  0 0 1 5 -2 roll arcn closepath tMatrix setmatrix fill} bdef
/vradius 0 def /hradius 0 def /lry 0 def
/lrx 0 def /uly 0 def /ulx 0 def /rad 0 def
/MRR {/vradius xdef /hradius xdef /lry xdef /lrx xdef /uly xdef
  /ulx xdef newpath tMatrix currentmatrix pop ulx hradius add uly
  vradius add translate hradius vradius scale 0 0 1 180 270 arc 
  tMatrix setmatrix lrx hradius sub uly vradius add translate
  hradius vradius scale 0 0 1 270 360 arc tMatrix setmatrix
  lrx hradius sub lry vradius sub translate hradius vradius scale
  0 0 1 0 90 arc tMatrix setmatrix ulx hradius add lry vradius sub
  translate hradius vradius scale 0 0 1 90 180 arc tMatrix setmatrix
  closepath} bdef
/FRR {MRR stroke } bdef
/PRR {MRR fill } bdef
/MlrRR {/lry xdef /lrx xdef /uly xdef /ulx xdef /rad lry uly sub 2 div def
  newpath tMatrix currentmatrix pop ulx rad add uly rad add translate
  rad rad scale 0 0 1 90 270 arc tMatrix setmatrix lrx rad sub lry rad
  sub translate rad rad scale 0 0 1 270 90 arc tMatrix setmatrix
  closepath} bdef
/FlrRR {MlrRR stroke } bdef
/PlrRR {MlrRR fill } bdef
/MtbRR {/lry xdef /lrx xdef /uly xdef /ulx xdef /rad lrx ulx sub 2 div def
  newpath tMatrix currentmatrix pop ulx rad add uly rad add translate
  rad rad scale 0 0 1 180 360 arc tMatrix setmatrix lrx rad sub lry rad
  sub translate rad rad scale 0 0 1 0 180 arc tMatrix setmatrix
  closepath} bdef
/FtbRR {MtbRR stroke } bdef
/PtbRR {MtbRR fill } bdef
/stri 6 array def /dtri 6 array def
/smat 6 array def /dmat 6 array def
/tmat1 6 array def /tmat2 6 array def /dif 3 array def
/asub {/ind2 exch def /ind1 exch def dup dup
  ind1 get exch ind2 get sub exch } bdef
/tri_to_matrix {
  2 0 asub 3 1 asub 4 0 asub 5 1 asub
  dup 0 get exch 1 get 7 -1 roll astore } bdef
/compute_transform {
  dmat dtri tri_to_matrix tmat1 invertmatrix 
  smat stri tri_to_matrix tmat2 concatmatrix } bdef
/ds {stri astore pop} bdef
/dt {dtri astore pop} bdef
/db {2 copy /cols xdef /rows xdef mul dup 3 mul string
  currentfile 
  3 index 0 eq {/ASCIIHexDecode filter}
  {/ASCII85Decode filter 3 index 2 eq {/RunLengthDecode filter} if }
  ifelse exch readstring pop
  dup 0 3 index getinterval /rbmap xdef
  dup 2 index dup getinterval /gbmap xdef
  1 index dup 2 mul exch getinterval /bbmap xdef pop pop}bdef
/it {gs np dtri aload pop moveto lineto lineto cp c
  cols rows 8 compute_transform 
  rbmap gbmap bbmap true 3 colorimage gr}bdef
/il {newpath moveto lineto stroke}bdef
currentdict end def
%%EndProlog

%%BeginSetup
MathWorks begin

0 cap

end
%%EndSetup

%%Page: 1 1
%%BeginPageSetup
%%PageBoundingBox:    81   227   529   564
MathWorks begin
bpage
%%EndPageSetup

%%BeginObject: obj1
bplot

/dpi2point 12 def
portraitMode 0972 6768 csm

    0     0  5376  4033 rc
85 dict begin %Colortable dictionary
/c0 { 0.000000 0.000000 0.000000 sr} bdef
/c1 { 1.000000 1.000000 1.000000 sr} bdef
/c2 { 0.900000 0.000000 0.000000 sr} bdef
/c3 { 0.000000 0.820000 0.000000 sr} bdef
/c4 { 0.000000 0.000000 0.800000 sr} bdef
/c5 { 0.910000 0.820000 0.320000 sr} bdef
/c6 { 1.000000 0.260000 0.820000 sr} bdef
/c7 { 0.000000 0.820000 0.820000 sr} bdef
c0
1 j
1 sg
   0    0 5377 4034 rf
6 w
0 3287 4166 0 0 -3287 699 3589 4 MP
PP
-4166 0 0 3287 4166 0 0 -3287 699 3589 5 MP stroke
4 w
DO
SO
6 w
0 sg
 699 3589 mt 4865 3589 L
 699  302 mt 4865  302 L
 699 3589 mt  699  302 L
4865 3589 mt 4865  302 L
 699 3589 mt 4865 3589 L
 699 3589 mt  699  302 L
 699 3589 mt  699 3568 L
 699  302 mt  699  322 L
 699 3589 mt  699 3547 L
 699  302 mt  699  343 L
%%IncludeResource: font Helvetica
/Helvetica /ISOLatin1Encoding 120 FMSR

 611 3771 mt 
(10) s
%%IncludeResource: font Helvetica
/Helvetica /ISOLatin1Encoding 80 FMSR

 744 3697 mt 
(0) s
1117 3589 mt 1117 3568 L
1117  302 mt 1117  322 L
1361 3589 mt 1361 3568 L
1361  302 mt 1361  322 L
1535 3589 mt 1535 3568 L
1535  302 mt 1535  322 L
1669 3589 mt 1669 3568 L
1669  302 mt 1669  322 L
1779 3589 mt 1779 3568 L
1779  302 mt 1779  322 L
1872 3589 mt 1872 3568 L
1872  302 mt 1872  322 L
1953 3589 mt 1953 3568 L
1953  302 mt 1953  322 L
2024 3589 mt 2024 3568 L
2024  302 mt 2024  322 L
2087 3589 mt 2087 3568 L
2087  302 mt 2087  322 L
2087 3589 mt 2087 3547 L
2087  302 mt 2087  343 L
%%IncludeResource: font Helvetica
/Helvetica /ISOLatin1Encoding 120 FMSR

1999 3771 mt 
(10) s
%%IncludeResource: font Helvetica
/Helvetica /ISOLatin1Encoding 80 FMSR

2132 3697 mt 
(1) s
2505 3589 mt 2505 3568 L
2505  302 mt 2505  322 L
2750 3589 mt 2750 3568 L
2750  302 mt 2750  322 L
2923 3589 mt 2923 3568 L
2923  302 mt 2923  322 L
3058 3589 mt 3058 3568 L
3058  302 mt 3058  322 L
3168 3589 mt 3168 3568 L
3168  302 mt 3168  322 L
3261 3589 mt 3261 3568 L
3261  302 mt 3261  322 L
3341 3589 mt 3341 3568 L
3341  302 mt 3341  322 L
3412 3589 mt 3412 3568 L
3412  302 mt 3412  322 L
3476 3589 mt 3476 3568 L
3476  302 mt 3476  322 L
3476 3589 mt 3476 3547 L
3476  302 mt 3476  343 L
%%IncludeResource: font Helvetica
/Helvetica /ISOLatin1Encoding 120 FMSR

3388 3771 mt 
(10) s
%%IncludeResource: font Helvetica
/Helvetica /ISOLatin1Encoding 80 FMSR

3521 3697 mt 
(2) s
3894 3589 mt 3894 3568 L
3894  302 mt 3894  322 L
4138 3589 mt 4138 3568 L
4138  302 mt 4138  322 L
4312 3589 mt 4312 3568 L
4312  302 mt 4312  322 L
4446 3589 mt 4446 3568 L
4446  302 mt 4446  322 L
4556 3589 mt 4556 3568 L
4556  302 mt 4556  322 L
4649 3589 mt 4649 3568 L
4649  302 mt 4649  322 L
4730 3589 mt 4730 3568 L
4730  302 mt 4730  322 L
4801 3589 mt 4801 3568 L
4801  302 mt 4801  322 L
4865 3589 mt 4865 3568 L
4865  302 mt 4865  322 L
4865 3589 mt 4865 3547 L
4865  302 mt 4865  343 L
%%IncludeResource: font Helvetica
/Helvetica /ISOLatin1Encoding 120 FMSR

4777 3771 mt 
(10) s
%%IncludeResource: font Helvetica
/Helvetica /ISOLatin1Encoding 80 FMSR

4910 3697 mt 
(3) s
 699 3589 mt  740 3589 L
4865 3589 mt 4823 3589 L
%%IncludeResource: font Helvetica
/Helvetica /ISOLatin1Encoding 120 FMSR

 461 3633 mt 
(-16) s
 699 3119 mt  740 3119 L
4865 3119 mt 4823 3119 L
 461 3163 mt 
(-14) s
 699 2649 mt  740 2649 L
4865 2649 mt 4823 2649 L
 461 2693 mt 
(-12) s
 699 2180 mt  740 2180 L
4865 2180 mt 4823 2180 L
 461 2224 mt 
(-10) s
 699 1710 mt  740 1710 L
4865 1710 mt 4823 1710 L
 528 1754 mt 
(-8) s
 699 1241 mt  740 1241 L
4865 1241 mt 4823 1241 L
 528 1285 mt 
(-6) s
 699  771 mt  740  771 L
4865  771 mt 4823  771 L
 528  815 mt 
(-4) s
 699  302 mt  740  302 L
4865  302 mt 4823  302 L
 528  346 mt 
(-2) s
 699 3589 mt 4865 3589 L
 699  302 mt 4865  302 L
 699 3589 mt  699  302 L
4865 3589 mt 4865  302 L
gs 699 302 4167 3288 rc
/c8 { 0.000000 0.000000 1.000000 sr} bdef
c8
2 -70 2 0 2 0 3 0 2 70 2 -70 3 0 2 70 
2 -70 2 70 3 -70 2 70 2 0 3 0 2 -70 2 70 
3 -70 2 70 3 0 2 0 2 -70 3 70 2 0 3 0 
2 42 2 -42 3 -70 2 112 3 -42 2 0 3 42 2 -42 
3 0 2 42 3 0 3 -42 2 42 3 0 2 0 3 -42 
3 42 2 0 3 0 2 29 3 -29 3 29 2 0 3 -29 
3 29 3 23 2 -52 3 0 3 29 3 0 2 23 3 0 
3 0 3 -23 3 0 2 23 3 18 3 -18 3 18 3 -18 
3 34 3 -16 3 0 3 0 3 16 3 -16 3 16 3 0 
3 0 3 0 3 14 3 12 3 -12 3 0 3 12 3 0 
3 0 4 10 3 0 3 10 3 0 3 -10 4 19 3 8 
3 -8 4 0 3 8 3 8 4 -8 3 15 3 0 4 6 
3 0 4 0 3 6 4 6 3 0 4 6 3 5 4 0 
4 10 3 -5 4 14 4 0 3 0 4 4 4 8 4 3 
3 0 4 7 4 0 4 10 4 0 4 6 4 3 4 3 
4 2 4 8 4 3 4 2 4 9 4 0 4 6 4 6 
5 0 4 10 4 1 4 2 5 8 4 5 4 1 5 7 
4 2 5 8 4 3 5 6 5 2 4 5 5 5 5 5 
4 7 5 2 5 6 5 5 5 5 5 4 5 5 5 6 
5 6 5 3 5 7 5 5 5 5 6 5 5 6 5 5 
6 6 5 5 6 6 6 6 5 5 6 6 6 6 5 5 
6 7 6 6 6 6 6 6 6 6 6 7 7 6 6 6 
6 6 7 7 6 7 7 6 6 7 7 7 7 6 7 8 
7 7 7 7 7 7 7 7 7 7 8 8 7 7 7 8 
8 8 8 8 8 8 8 8 8 8 8 8 8 8 8 9 
9 9 9 8 8 9 9 9 9 9 9 9 10 10 9 9 
10 10 9 10 10 10 10 10 10 11 11 10 10 11 11 11 
11 11 11 11 12 12 11 11 12 12 12 13 13 12 12 13 
13 13 13 13 13 14 14 13 14 15 15 14 14 15 15 15 
16 16 16 16 16 17 17 17 17 17 18 18 18 18 19 20 
19 19 20 21 21 21 22 21 22 23 23 23 24 25 26 25 
26 27 27 27 29 29 30 31 32 32 33 34 36 36 37 38 
41 40 43 44 46 46 51 51 54 55 61 61 67 67 75 76 
87 87 100 100 121 121 152 150 203 199 308 294 1361 383 271 MP stroke
2 0 2 0 4501 3535 3 MP stroke
3 70 4509 3465 2 MP stroke
2 0 2 0 4516 3535 3 MP stroke
2 0 2 0 2 0 3 0 4524 3535 5 MP stroke
2 0 2 0 4537 3535 3 MP stroke
2 0 2 0 4545 3535 3 MP stroke
2 0 4553 3535 2 MP stroke
gr

c8
0 sg
1411  153 mt 
(Relative error in the 2-norm r) s
%%IncludeResource: font Helvetica
/Helvetica /ISOLatin1Encoding 96 FMSR

2974  213 mt 
(N\(L2\)) s
%%IncludeResource: font Helvetica
/Helvetica /ISOLatin1Encoding 120 FMSR

3214  153 mt 
( as a function of N) s
2551 3914 mt 
(N=2M-1) s
 325 2202 mt  -90 rotate
(log\(r) s
90 rotate
%%IncludeResource: font Helvetica
/Helvetica /ISOLatin1Encoding 96 FMSR

 385 1962 mt  -90 rotate
(N\(L2\)) s
90 rotate
%%IncludeResource: font Helvetica
/Helvetica /ISOLatin1Encoding 120 FMSR

 325 1722 mt  -90 rotate
(\)) s
90 rotate

end %%Color Dict

eplot
%%EndObject

epage
end

showpage

%%Trailer
%%EOF
