\relax 
\@writefile{lof}{\contentsline {figure}{\numberline {1}{\ignorespaces The result shown by paraview of the solution to simple poisson problem}}{4}}
\@writefile{lof}{\contentsline {figure}{\numberline {2}{\ignorespaces The result shown by paraview of the solution to manufactured solution poisson problem}}{4}}
\@writefile{lof}{\contentsline {figure}{\numberline {3}{\ignorespaces The convergence plot of this problem}}{4}}
\@writefile{lof}{\contentsline {figure}{\numberline {4}{\ignorespaces The items to be changed in the TerraFERMA file}}{5}}
\@writefile{lol}{\contentsline {lstlisting}{./mms/run\textunderscore convergence.py}{5}}
\@writefile{lol}{\contentsline {lstlisting}{./pb2bi/run\textunderscore convergence.py}{5}}
\@writefile{lof}{\contentsline {figure}{\numberline {5}{\ignorespaces The result shown by paraview of the solution to rectangle field poisson problem}}{5}}
\@writefile{lof}{\contentsline {figure}{\numberline {6}{\ignorespaces The convergence plot of the rectangle field problem}}{6}}
\@writefile{lof}{\contentsline {figure}{\numberline {7}{\ignorespaces The convergence plot using P2 elements}}{6}}
\@writefile{lof}{\contentsline {figure}{\numberline {8}{\ignorespaces The value of residual in TerraFERMA}}{7}}
\@writefile{lof}{\contentsline {figure}{\numberline {9}{\ignorespaces Solution in paraview}}{7}}
\@writefile{lof}{\contentsline {figure}{\numberline {10}{\ignorespaces Convergence plot of the problem}}{8}}
\@writefile{lof}{\contentsline {figure}{\numberline {11}{\ignorespaces Convergence vs. number of iteration (1)}}{8}}
\@writefile{lof}{\contentsline {figure}{\numberline {12}{\ignorespaces Convergence vs. number of iteration (2)}}{9}}
\@writefile{lof}{\contentsline {figure}{\numberline {13}{\ignorespaces The convergence plot of different solvers (1)}}{9}}
\@writefile{lof}{\contentsline {figure}{\numberline {14}{\ignorespaces The convergence plot of different solvers (2)}}{10}}
\@writefile{lof}{\contentsline {figure}{\numberline {15}{\ignorespaces Solver time / degree of freedom as a function of problem size (1)}}{10}}
\@writefile{lof}{\contentsline {figure}{\numberline {16}{\ignorespaces Solver time / degree of freedom as a function of problem size (1)}}{11}}
