\relax 
\@writefile{toc}{\contentsline {section}{\numberline {1}Introduction}{1}}
\@writefile{lof}{\contentsline {figure}{\numberline {1}{\ignorespaces Schematic of dielectirc sensor}}{1}}
\@writefile{lof}{\contentsline {figure}{\numberline {2}{\ignorespaces Schematic of simplified geometry}}{2}}
\@writefile{toc}{\contentsline {section}{\numberline {2}Mathematical Model of the Problem}{2}}
\@writefile{toc}{\contentsline {section}{\numberline {3}Choice of Numerical Method}{5}}
\@writefile{toc}{\contentsline {section}{\numberline {4}Results}{6}}
\@writefile{lof}{\contentsline {figure}{\numberline {3}{\ignorespaces The glucose distribution and velocity field at time 200s}}{6}}
\@writefile{lof}{\contentsline {figure}{\numberline {4}{\ignorespaces Relative error in 2-Norm}}{7}}
\@writefile{lof}{\contentsline {figure}{\numberline {5}{\ignorespaces Relative error in Inf-Norm}}{7}}
\@writefile{lof}{\contentsline {figure}{\numberline {6}{\ignorespaces Mean glucose concentration vs. real time}}{8}}
\@writefile{lof}{\contentsline {figure}{\numberline {7}{\ignorespaces Relative error in 2-Norm}}{8}}
\@writefile{lof}{\contentsline {figure}{\numberline {8}{\ignorespaces Relative error in Inf-Norm}}{9}}
\@writefile{lof}{\contentsline {figure}{\numberline {9}{\ignorespaces Mean glucose concentration vs. real time}}{9}}
\@writefile{lof}{\contentsline {figure}{\numberline {10}{\ignorespaces Simulation result of the problem with small $\mathrm  So$ number}}{10}}
\@writefile{toc}{\contentsline {section}{\numberline {5}Further Discussion}{10}}
\@writefile{toc}{\contentsline {section}{\numberline {6}Conclusion and future work}{11}}
