\relax 
\@writefile{lof}{\contentsline {figure}{\numberline {1}{\ignorespaces Error against $h$}}{1}}
\@writefile{lol}{\contentsline {lstlisting}{./PythonFiles/hw3pb1.py}{2}}
\@writefile{lof}{\contentsline {figure}{\numberline {2}{\ignorespaces The distribution of error along x-axis}}{4}}
\@writefile{lof}{\contentsline {figure}{\numberline {3}{\ignorespaces Error against $h$}}{5}}
\@writefile{lol}{\contentsline {lstlisting}{./PythonFiles/hw3pb2b.py}{6}}
\@writefile{lof}{\contentsline {figure}{\numberline {4}{\ignorespaces Error against spacing on a non-square domain}}{8}}
\@writefile{lol}{\contentsline {lstlisting}{./PythonFiles/hw3pb2ci.py}{8}}
\@writefile{lol}{\contentsline {lstlisting}{./PythonFiles/hw3pb2ci.py}{8}}
\@writefile{lol}{\contentsline {lstlisting}{./PythonFiles/hw3pb2ci.py}{8}}
\@writefile{lof}{\contentsline {figure}{\numberline {5}{\ignorespaces Error against spacing when $\Delta x \not =\Delta y$}}{9}}
\@writefile{lol}{\contentsline {lstlisting}{./PythonFiles/hw3pb2cii.py}{9}}
\@writefile{lol}{\contentsline {lstlisting}{./PythonFiles/hw3pb2cii.py}{9}}
