cl1 = 0.1;
Point(1) = {0., 0., 0, cl1};
Point(2) = {0., 1.1, 0, cl1};
Point(3) = {0., 1.2, 0, cl1};
Point(4) = {0., 5., 0, cl1};
Point(5) = {5., 5., 0, cl1};
Point(6) = {5., 1.2, 0, cl1};
Point(7) = {5., 1.1, 0, cl1};
Point(8) = {5., 0., 0, cl1};
Line(1) = {1, 2};
Line(2) = {2, 3};
Line(3) = {3, 4};
Line(4) = {4, 5};
Line(5) = {5, 6};
Line(6) = {6, 7};
Line(7) = {7, 8};
Line(8) = {8, 1};
Line(9) = {3, 6};
Line(10) = {2, 7};
Physical Line(1) = {1};
Physical Line(2) = {2};
Physical Line(3) = {3};
Physical Line(4) = {4};
Physical Line(5) = {5};
Physical Line(6) = {6};
Physical Line(7) = {7};
Physical Line(8) = {8};
Physical Line(9) = {9};
Physical Line(10) = {10};
Line Loop(1) = {3, 4, 5, -9};
Line Loop(2) = {2, 9, 6, -10};
Line Loop(3) = {1, 10, 7, 8};
Plane Surface(1) = {1};
Plane Surface(2) = {2};
Plane Surface(3) = {3};
Physical Surface(1) = {1};
Physical Surface(2) = {2};
Physical Surface(3) = {3};
