cl1 = 0.1;
Point(1) = {0., 0., 0, cl1};
Point(2) = {0., 1.1, 0, cl1};
Point(3) = {0., 5., 0, cl1};
Point(4) = {5., 5., 0, cl1};
Point(5) = {5., 1.1, 0, cl1};
Point(6) = {5., 0., 0, cl1};
Line(1) = {1, 2};
Line(2) = {2, 3};
Line(3) = {3, 4};
Line(4) = {4, 5};
Line(5) = {5, 6};
Line(6) = {6, 1};
Line(7) = {2, 5};
Line(8) = {5, 2};
Physical Line(1) = {1};
Physical Line(2) = {2};
Physical Line(3) = {3};
Physical Line(4) = {4};
Physical Line(5) = {5};
Physical Line(6) = {6};
Physical Line(7) = {7};
Physical Line(8) = {8};
Line Loop(9) = {2, 3, 4, 8};
Line Loop(10) = {1, 7, 5, 6};
Plane Surface(11) = {9};
Plane Surface(12) = {10};
Physical Surface(1) = {11};
Physical Surface(2) = {12};
