%!PS-Adobe-3.0 EPSF-3.0
%%Title: ../figures/pb1d.eps
%%Creator: matplotlib version 1.2.1, http://matplotlib.org/
%%CreationDate: Thu Nov 14 15:50:06 2013
%%Orientation: portrait
%%BoundingBox: 18 180 594 612
%%EndComments
%%BeginProlog
/mpldict 8 dict def
mpldict begin
/m { moveto } bind def
/l { lineto } bind def
/r { rlineto } bind def
/c { curveto } bind def
/cl { closepath } bind def
/box {
m
1 index 0 r
0 exch r
neg 0 r
cl
} bind def
/clipbox {
box
clip
newpath
} bind def
%!PS-Adobe-3.0 Resource-Font
%%Title: DejaVu Sans
%%Copyright: Copyright (c) 2003 by Bitstream, Inc. All Rights Reserved. Copyright (c) 2006 by Tavmjong Bah. All Rights Reserved. DejaVu changes are in public domain 
%%Creator: Converted from TrueType to type 3 by PPR
25 dict begin
/_d{bind def}bind def
/_m{moveto}_d
/_l{lineto}_d
/_cl{closepath eofill}_d
/_c{curveto}_d
/_sc{7 -1 roll{setcachedevice}{pop pop pop pop pop pop}ifelse}_d
/_e{exec}_d
/FontName /DejaVuSans def
/PaintType 0 def
/FontMatrix[.001 0 0 .001 0 0]def
/FontBBox[-1021 -415 1681 1167]def
/FontType 3 def
/Encoding [ /zero /one /five /T /a /d /e /i /l /o /p /r /z /minus ] def
/FontInfo 10 dict dup begin
/FamilyName (DejaVu Sans) def
/FullName (DejaVu Sans) def
/Notice (Copyright (c) 2003 by Bitstream, Inc. All Rights Reserved. Copyright (c) 2006 by Tavmjong Bah. All Rights Reserved. DejaVu changes are in public domain ) def
/Weight (Book) def
/Version (Version 2.33) def
/ItalicAngle 0.0 def
/isFixedPitch false def
/UnderlinePosition -130 def
/UnderlineThickness 90 def
end readonly def
/CharStrings 14 dict dup begin
/zero{636 0 66 -13 570 742 _sc
318 664 _m
267 664 229 639 203 589 _c
177 539 165 464 165 364 _c
165 264 177 189 203 139 _c
229 89 267 64 318 64 _c
369 64 407 89 433 139 _c
458 189 471 264 471 364 _c
471 464 458 539 433 589 _c
407 639 369 664 318 664 _c
318 742 _m
399 742 461 709 505 645 _c
548 580 570 486 570 364 _c
570 241 548 147 505 83 _c
461 19 399 -13 318 -13 _c
236 -13 173 19 130 83 _c
87 147 66 241 66 364 _c
66 486 87 580 130 645 _c
173 709 236 742 318 742 _c
_cl}_d
/one{636 0 110 0 544 729 _sc
124 83 _m
285 83 _l
285 639 _l
110 604 _l
110 694 _l
284 729 _l
383 729 _l
383 83 _l
544 83 _l
544 0 _l
124 0 _l
124 83 _l
_cl}_d
/five{{636 0 77 -13 549 729 _sc
108 729 _m
495 729 _l
495 646 _l
198 646 _l
198 467 _l
212 472 227 476 241 478 _c
255 480 270 482 284 482 _c
365 482 429 459 477 415 _c
525 370 549 310 549 234 _c
549 155 524 94 475 51 _c
426 8 357 -13 269 -13 _c
238 -13 207 -10 175 -6 _c
143 -1 111 6 77 17 _c
77 116 _l
106 100 136 88 168 80 _c
199 72 232 69 267 69 _c
}_e{323 69 368 83 401 113 _c
433 143 450 183 450 234 _c
450 284 433 324 401 354 _c
368 384 323 399 267 399 _c
241 399 214 396 188 390 _c
162 384 135 375 108 363 _c
108 729 _l
_cl}_e}_d
/T{611 0 -2 0 614 729 _sc
-2 729 _m
614 729 _l
614 646 _l
355 646 _l
355 0 _l
256 0 _l
256 646 _l
-2 646 _l
-2 729 _l
_cl}_d
/a{{613 0 60 -13 522 560 _sc
343 275 _m
270 275 220 266 192 250 _c
164 233 150 205 150 165 _c
150 133 160 107 181 89 _c
202 70 231 61 267 61 _c
317 61 357 78 387 114 _c
417 149 432 196 432 255 _c
432 275 _l
343 275 _l
522 312 _m
522 0 _l
432 0 _l
432 83 _l
411 49 385 25 355 10 _c
325 -5 287 -13 243 -13 _c
187 -13 142 2 109 33 _c
76 64 60 106 60 159 _c
}_e{60 220 80 266 122 298 _c
163 329 224 345 306 345 _c
432 345 _l
432 354 _l
432 395 418 427 391 450 _c
364 472 326 484 277 484 _c
245 484 215 480 185 472 _c
155 464 127 453 100 439 _c
100 522 _l
132 534 164 544 195 550 _c
226 556 256 560 286 560 _c
365 560 424 539 463 498 _c
502 457 522 395 522 312 _c
_cl}_e}_d
/d{{635 0 55 -13 544 760 _sc
454 464 _m
454 760 _l
544 760 _l
544 0 _l
454 0 _l
454 82 _l
435 49 411 25 382 10 _c
353 -5 319 -13 279 -13 _c
213 -13 159 13 117 65 _c
75 117 55 187 55 273 _c
55 359 75 428 117 481 _c
159 533 213 560 279 560 _c
319 560 353 552 382 536 _c
411 520 435 496 454 464 _c
148 273 _m
148 207 161 155 188 117 _c
215 79 253 61 301 61 _c
}_e{348 61 385 79 413 117 _c
440 155 454 207 454 273 _c
454 339 440 390 413 428 _c
385 466 348 485 301 485 _c
253 485 215 466 188 428 _c
161 390 148 339 148 273 _c
_cl}_e}_d
/e{{615 0 55 -13 562 560 _sc
562 296 _m
562 252 _l
149 252 _l
153 190 171 142 205 110 _c
238 78 284 62 344 62 _c
378 62 412 66 444 74 _c
476 82 509 95 541 113 _c
541 28 _l
509 14 476 3 442 -3 _c
408 -9 373 -13 339 -13 _c
251 -13 182 12 131 62 _c
80 112 55 181 55 268 _c
55 357 79 428 127 481 _c
175 533 241 560 323 560 _c
397 560 455 536 498 489 _c
}_e{540 441 562 377 562 296 _c
472 322 _m
471 371 457 410 431 440 _c
404 469 368 484 324 484 _c
274 484 234 469 204 441 _c
174 413 156 373 152 322 _c
472 322 _l
_cl}_e}_d
/i{278 0 94 0 184 760 _sc
94 547 _m
184 547 _l
184 0 _l
94 0 _l
94 547 _l
94 760 _m
184 760 _l
184 646 _l
94 646 _l
94 760 _l
_cl}_d
/l{278 0 94 0 184 760 _sc
94 760 _m
184 760 _l
184 0 _l
94 0 _l
94 760 _l
_cl}_d
/o{612 0 55 -13 557 560 _sc
306 484 _m
258 484 220 465 192 427 _c
164 389 150 338 150 273 _c
150 207 163 156 191 118 _c
219 80 257 62 306 62 _c
354 62 392 80 420 118 _c
448 156 462 207 462 273 _c
462 337 448 389 420 427 _c
392 465 354 484 306 484 _c
306 560 _m
384 560 445 534 490 484 _c
534 433 557 363 557 273 _c
557 183 534 113 490 63 _c
445 12 384 -13 306 -13 _c
227 -13 165 12 121 63 _c
77 113 55 183 55 273 _c
55 363 77 433 121 484 _c
165 534 227 560 306 560 _c
_cl}_d
/p{{635 0 91 -207 580 560 _sc
181 82 _m
181 -207 _l
91 -207 _l
91 547 _l
181 547 _l
181 464 _l
199 496 223 520 252 536 _c
281 552 316 560 356 560 _c
422 560 476 533 518 481 _c
559 428 580 359 580 273 _c
580 187 559 117 518 65 _c
476 13 422 -13 356 -13 _c
316 -13 281 -5 252 10 _c
223 25 199 49 181 82 _c
487 273 _m
487 339 473 390 446 428 _c
418 466 381 485 334 485 _c
}_e{286 485 249 466 222 428 _c
194 390 181 339 181 273 _c
181 207 194 155 222 117 _c
249 79 286 61 334 61 _c
381 61 418 79 446 117 _c
473 155 487 207 487 273 _c
_cl}_e}_d
/r{411 0 91 0 411 560 _sc
411 463 _m
401 469 390 473 378 476 _c
366 478 353 480 339 480 _c
288 480 249 463 222 430 _c
194 397 181 350 181 288 _c
181 0 _l
91 0 _l
91 547 _l
181 547 _l
181 462 _l
199 495 224 520 254 536 _c
284 552 321 560 365 560 _c
371 560 378 559 386 559 _c
393 558 401 557 411 555 _c
411 463 _l
_cl}_d
/z{525 0 43 0 482 547 _sc
55 547 _m
482 547 _l
482 465 _l
144 72 _l
482 72 _l
482 0 _l
43 0 _l
43 82 _l
381 475 _l
55 475 _l
55 547 _l
_cl}_d
/minus{838 0 106 272 732 355 _sc
106 355 _m
732 355 _l
732 272 _l
106 272 _l
106 355 _l
_cl}_d
end readonly def

/BuildGlyph
 {exch begin
 CharStrings exch
 2 copy known not{pop /.notdef}if
 true 3 1 roll get exec
 end}_d

/BuildChar {
 1 index /Encoding get exch get
 1 index /BuildGlyph get exec
}_d

FontName currentdict end definefont pop
end
%%EndProlog
mpldict begin
18 180 translate
576 432 0 0 clipbox
gsave
0 0 m
576 0 l
576 432 l
0 432 l
cl
1.000 setgray
fill
grestore
gsave
72 43.2 m
429.12 43.2 l
429.12 388.8 l
72 388.8 l
cl
1.000 setgray
fill
grestore
/p0_0 {
newpath
translate
72 43.2 m
75.6073 43.2 l
79.2145 43.2 l
82.8218 43.2 l
86.4291 43.2 l
90.0364 43.2 l
93.6436 43.2 l
97.2509 43.2 l
100.858 43.2 l
104.465 43.2 l
108.073 43.2 l
111.68 43.2 l
115.287 43.2 l
118.895 43.2 l
122.502 43.2 l
126.109 43.2 l
129.716 43.2 l
133.324 43.2 l
136.931 43.2 l
140.538 43.2 l
144.145 43.2 l
147.753 43.2 l
151.36 43.2 l
154.967 43.2 l
158.575 43.2 l
162.182 43.2 l
165.789 43.2 l
169.396 43.2 l
173.004 43.2 l
176.611 43.2 l
180.218 43.2 l
183.825 43.2 l
187.433 43.2 l
191.04 43.2 l
194.647 43.2 l
198.255 43.2 l
201.862 43.2 l
205.469 43.2 l
209.076 43.2 l
212.684 43.2 l
216.291 43.2 l
219.898 43.2 l
223.505 43.2 l
227.113 43.2 l
230.72 43.2 l
234.327 43.2 l
237.935 43.2 l
241.542 43.2 l
245.149 43.2 l
248.756 43.2 l
250.557 43.2 l
250.557 46.6909 l
250.557 50.1818 l
250.557 53.6727 l
250.557 57.1636 l
250.557 60.6545 l
250.556 64.1455 l
250.556 67.6364 l
250.556 71.1273 l
250.556 74.6182 l
250.556 78.1091 l
250.556 81.6 l
250.555 85.0909 l
250.555 88.5818 l
250.555 92.0727 l
250.554 95.5636 l
250.554 99.0545 l
250.554 102.545 l
250.553 106.036 l
250.553 109.527 l
250.553 113.018 l
250.552 116.509 l
250.552 120 l
250.551 123.491 l
250.55 126.982 l
250.55 130.473 l
250.549 133.964 l
250.548 137.455 l
250.547 140.945 l
250.546 144.436 l
250.544 147.927 l
250.543 151.418 l
250.541 154.909 l
250.539 158.4 l
250.537 161.891 l
250.534 165.382 l
250.531 168.873 l
250.528 172.364 l
250.524 175.855 l
250.519 179.345 l
250.514 182.836 l
250.507 186.327 l
250.5 189.818 l
250.492 193.309 l
250.482 196.8 l
250.472 200.291 l
250.462 203.782 l
250.453 207.273 l
250.446 210.764 l
250.442 214.255 l
250.442 217.745 l
250.446 221.236 l
250.453 224.727 l
250.462 228.218 l
250.472 231.709 l
250.482 235.2 l
250.492 238.691 l
250.5 242.182 l
250.507 245.673 l
250.514 249.164 l
250.519 252.655 l
250.524 256.145 l
250.528 259.636 l
250.531 263.127 l
250.534 266.618 l
250.537 270.109 l
250.539 273.6 l
250.541 277.091 l
250.543 280.582 l
250.544 284.073 l
250.546 287.564 l
250.547 291.055 l
250.548 294.545 l
250.549 298.036 l
250.55 301.527 l
250.55 305.018 l
250.551 308.509 l
250.552 312 l
250.552 315.491 l
250.553 318.982 l
250.553 322.473 l
250.553 325.964 l
250.554 329.455 l
250.554 332.945 l
250.554 336.436 l
250.555 339.927 l
250.555 343.418 l
250.555 346.909 l
250.556 350.4 l
250.556 353.891 l
250.556 357.382 l
250.556 360.873 l
250.556 364.364 l
250.556 367.855 l
250.557 371.345 l
250.557 374.836 l
250.557 378.327 l
250.557 381.818 l
250.557 385.309 l
250.557 388.8 l
248.756 388.8 l
245.149 388.8 l
241.542 388.8 l
237.935 388.8 l
234.327 388.8 l
230.72 388.8 l
227.113 388.8 l
223.505 388.8 l
219.898 388.8 l
216.291 388.8 l
212.684 388.8 l
209.076 388.8 l
205.469 388.8 l
201.862 388.8 l
198.255 388.8 l
194.647 388.8 l
191.04 388.8 l
187.433 388.8 l
183.825 388.8 l
180.218 388.8 l
176.611 388.8 l
173.004 388.8 l
169.396 388.8 l
165.789 388.8 l
162.182 388.8 l
158.575 388.8 l
154.967 388.8 l
151.36 388.8 l
147.753 388.8 l
144.145 388.8 l
140.538 388.8 l
136.931 388.8 l
133.324 388.8 l
129.716 388.8 l
126.109 388.8 l
122.502 388.8 l
118.895 388.8 l
115.287 388.8 l
111.68 388.8 l
108.073 388.8 l
104.465 388.8 l
100.858 388.8 l
97.2509 388.8 l
93.6436 388.8 l
90.0364 388.8 l
86.4291 388.8 l
82.8218 388.8 l
79.2145 388.8 l
75.6073 388.8 l
72 388.8 l
72 385.309 l
72 381.818 l
72 378.327 l
72 374.836 l
72 371.345 l
72 367.855 l
72 364.364 l
72 360.873 l
72 357.382 l
72 353.891 l
72 350.4 l
72 346.909 l
72 343.418 l
72 339.927 l
72 336.436 l
72 332.945 l
72 329.455 l
72 325.964 l
72 322.473 l
72 318.982 l
72 315.491 l
72 312 l
72 308.509 l
72 305.018 l
72 301.527 l
72 298.036 l
72 294.545 l
72 291.055 l
72 287.564 l
72 284.073 l
72 280.582 l
72 277.091 l
72 273.6 l
72 270.109 l
72 266.618 l
72 263.127 l
72 259.636 l
72 256.145 l
72 252.655 l
72 249.164 l
72 245.673 l
72 242.182 l
72 238.691 l
72 235.2 l
72 231.709 l
72 228.218 l
72 224.727 l
72 221.236 l
72 217.745 l
72 214.255 l
72 210.764 l
72 207.273 l
72 203.782 l
72 200.291 l
72 196.8 l
72 193.309 l
72 189.818 l
72 186.327 l
72 182.836 l
72 179.345 l
72 175.855 l
72 172.364 l
72 168.873 l
72 165.382 l
72 161.891 l
72 158.4 l
72 154.909 l
72 151.418 l
72 147.927 l
72 144.436 l
72 140.945 l
72 137.455 l
72 133.964 l
72 130.473 l
72 126.982 l
72 123.491 l
72 120 l
72 116.509 l
72 113.018 l
72 109.527 l
72 106.036 l
72 102.545 l
72 99.0545 l
72 95.5636 l
72 92.0727 l
72 88.5818 l
72 85.0909 l
72 81.6 l
72 78.1091 l
72 74.6182 l
72 71.1273 l
72 67.6364 l
72 64.1455 l
72 60.6545 l
72 57.1636 l
72 53.6727 l
72 50.1818 l
72 46.6909 l
72 43.2 l
} bind def
gsave
357.1 345.6 72 43.2 clipbox
0 0 p0_0
0.490 1.000 0.478 setrgbcolor
fill
grestore
0.500 setlinewidth
1 setlinejoin
0 setlinecap
[1 3] 0 setdash
0.000 setgray
gsave
357.1 345.6 72 43.2 clipbox
113.206 43.2 m
113.206 388.8 l
stroke
grestore
[] 0 setdash
gsave
/o {
gsave
newpath
translate
0.5 setlinewidth
1 setlinejoin
0 setlinecap
0 0 m
0 4 l
gsave
0.000 setgray
fill
grestore
stroke
grestore
} bind def
113.206 43.2 o
grestore
gsave
/o {
gsave
newpath
translate
0.5 setlinewidth
1 setlinejoin
0 setlinecap
0 0 m
0 -4 l
gsave
0.000 setgray
fill
grestore
stroke
grestore
} bind def
113.206 388.8 o
grestore
/DejaVuSans findfont
12.000 scalefont
setfont
gsave
101.565529 30.121875 translate
0.000000 rotate
0.000000 0.171875 m /minus glyphshow
10.054688 0.171875 m /one glyphshow
17.689453 0.171875 m /zero glyphshow
grestore
[1 3] 0 setdash
gsave
357.1 345.6 72 43.2 clipbox
181.883 43.2 m
181.883 388.8 l
stroke
grestore
[] 0 setdash
gsave
/o {
gsave
newpath
translate
0.5 setlinewidth
1 setlinejoin
0 setlinecap
0 0 m
0 4 l
gsave
0.000 setgray
fill
grestore
stroke
grestore
} bind def
181.883 43.2 o
grestore
gsave
/o {
gsave
newpath
translate
0.5 setlinewidth
1 setlinejoin
0 setlinecap
0 0 m
0 -4 l
gsave
0.000 setgray
fill
grestore
stroke
grestore
} bind def
181.883 388.8 o
grestore
gsave
174.187764 30.278125 translate
0.000000 rotate
0.000000 0.171875 m /minus glyphshow
10.054688 0.171875 m /five glyphshow
grestore
[1 3] 0 setdash
gsave
357.1 345.6 72 43.2 clipbox
250.56 43.2 m
250.56 388.8 l
stroke
grestore
[] 0 setdash
gsave
/o {
gsave
newpath
translate
0.5 setlinewidth
1 setlinejoin
0 setlinecap
0 0 m
0 4 l
gsave
0.000 setgray
fill
grestore
stroke
grestore
} bind def
250.56 43.2 o
grestore
gsave
/o {
gsave
newpath
translate
0.5 setlinewidth
1 setlinejoin
0 setlinecap
0 0 m
0 -4 l
gsave
0.000 setgray
fill
grestore
stroke
grestore
} bind def
250.56 388.8 o
grestore
gsave
247.536563 30.121875 translate
0.000000 rotate
0.000000 0.171875 m /zero glyphshow
grestore
[1 3] 0 setdash
gsave
357.1 345.6 72 43.2 clipbox
319.237 43.2 m
319.237 388.8 l
stroke
grestore
[] 0 setdash
gsave
/o {
gsave
newpath
translate
0.5 setlinewidth
1 setlinejoin
0 setlinecap
0 0 m
0 4 l
gsave
0.000 setgray
fill
grestore
stroke
grestore
} bind def
319.237 43.2 o
grestore
gsave
/o {
gsave
newpath
translate
0.5 setlinewidth
1 setlinejoin
0 setlinecap
0 0 m
0 -4 l
gsave
0.000 setgray
fill
grestore
stroke
grestore
} bind def
319.237 388.8 o
grestore
gsave
316.400986 30.278125 translate
0.000000 rotate
0.000000 0.171875 m /five glyphshow
grestore
[1 3] 0 setdash
gsave
357.1 345.6 72 43.2 clipbox
387.914 43.2 m
387.914 388.8 l
stroke
grestore
[] 0 setdash
gsave
/o {
gsave
newpath
translate
0.5 setlinewidth
1 setlinejoin
0 setlinecap
0 0 m
0 4 l
gsave
0.000 setgray
fill
grestore
stroke
grestore
} bind def
387.914 43.2 o
grestore
gsave
/o {
gsave
newpath
translate
0.5 setlinewidth
1 setlinejoin
0 setlinecap
0 0 m
0 -4 l
gsave
0.000 setgray
fill
grestore
stroke
grestore
} bind def
387.914 388.8 o
grestore
gsave
381.327909 30.121875 translate
0.000000 rotate
0.000000 0.171875 m /one glyphshow
7.634766 0.171875 m /zero glyphshow
grestore
[1 3] 0 setdash
gsave
357.1 345.6 72 43.2 clipbox
72 83.0769 m
429.12 83.0769 l
stroke
grestore
[] 0 setdash
gsave
/o {
gsave
newpath
translate
0.5 setlinewidth
1 setlinejoin
0 setlinecap
0 0 m
4 0 l
gsave
0.000 setgray
fill
grestore
stroke
grestore
} bind def
72 83.0769 o
grestore
gsave
/o {
gsave
newpath
translate
0.5 setlinewidth
1 setlinejoin
0 setlinecap
0 0 m
-4 0 l
gsave
0.000 setgray
fill
grestore
stroke
grestore
} bind def
429.12 83.0769 o
grestore
gsave
44.718750 78.537861 translate
0.000000 rotate
0.000000 0.171875 m /minus glyphshow
10.054688 0.171875 m /one glyphshow
17.689453 0.171875 m /zero glyphshow
grestore
[1 3] 0 setdash
gsave
357.1 345.6 72 43.2 clipbox
72 149.538 m
429.12 149.538 l
stroke
grestore
[] 0 setdash
gsave
/o {
gsave
newpath
translate
0.5 setlinewidth
1 setlinejoin
0 setlinecap
0 0 m
4 0 l
gsave
0.000 setgray
fill
grestore
stroke
grestore
} bind def
72 149.538 o
grestore
gsave
/o {
gsave
newpath
translate
0.5 setlinewidth
1 setlinejoin
0 setlinecap
0 0 m
-4 0 l
gsave
0.000 setgray
fill
grestore
stroke
grestore
} bind def
429.12 149.538 o
grestore
gsave
52.609375 145.077524 translate
0.000000 rotate
0.000000 0.171875 m /minus glyphshow
10.054688 0.171875 m /five glyphshow
grestore
[1 3] 0 setdash
gsave
357.1 345.6 72 43.2 clipbox
72 216 m
429.12 216 l
stroke
grestore
[] 0 setdash
gsave
/o {
gsave
newpath
translate
0.5 setlinewidth
1 setlinejoin
0 setlinecap
0 0 m
4 0 l
gsave
0.000 setgray
fill
grestore
stroke
grestore
} bind def
72 216 o
grestore
gsave
/o {
gsave
newpath
translate
0.5 setlinewidth
1 setlinejoin
0 setlinecap
0 0 m
-4 0 l
gsave
0.000 setgray
fill
grestore
stroke
grestore
} bind def
429.12 216 o
grestore
gsave
61.953125 211.460938 translate
0.000000 rotate
0.000000 0.171875 m /zero glyphshow
grestore
[1 3] 0 setdash
gsave
357.1 345.6 72 43.2 clipbox
72 282.462 m
429.12 282.462 l
stroke
grestore
[] 0 setdash
gsave
/o {
gsave
newpath
translate
0.5 setlinewidth
1 setlinejoin
0 setlinecap
0 0 m
4 0 l
gsave
0.000 setgray
fill
grestore
stroke
grestore
} bind def
72 282.462 o
grestore
gsave
/o {
gsave
newpath
translate
0.5 setlinewidth
1 setlinejoin
0 setlinecap
0 0 m
-4 0 l
gsave
0.000 setgray
fill
grestore
stroke
grestore
} bind def
429.12 282.462 o
grestore
gsave
62.328125 278.000601 translate
0.000000 rotate
0.000000 0.171875 m /five glyphshow
grestore
[1 3] 0 setdash
gsave
357.1 345.6 72 43.2 clipbox
72 348.923 m
429.12 348.923 l
stroke
grestore
[] 0 setdash
gsave
/o {
gsave
newpath
translate
0.5 setlinewidth
1 setlinejoin
0 setlinecap
0 0 m
4 0 l
gsave
0.000 setgray
fill
grestore
stroke
grestore
} bind def
72 348.923 o
grestore
gsave
/o {
gsave
newpath
translate
0.5 setlinewidth
1 setlinejoin
0 setlinecap
0 0 m
-4 0 l
gsave
0.000 setgray
fill
grestore
stroke
grestore
} bind def
429.12 348.923 o
grestore
gsave
54.828125 344.384014 translate
0.000000 rotate
0.000000 0.171875 m /one glyphshow
7.634766 0.171875 m /zero glyphshow
grestore
1.000 setlinewidth
2 setlinecap
gsave
72 388.8 m
429.12 388.8 l
stroke
grestore
gsave
429.12 43.2 m
429.12 388.8 l
stroke
grestore
gsave
72 43.2 m
429.12 43.2 l
stroke
grestore
gsave
72 43.2 m
72 388.8 l
stroke
grestore
/DejaVuSans findfont
14.400 scalefont
setfont
gsave
210.403750 390.893750 translate
0.000000 rotate
0.000000 2.906250 m /T glyphshow
6.665359 2.906250 m /r glyphshow
12.581818 2.906250 m /a glyphshow
21.400284 2.906250 m /p glyphshow
30.534958 2.906250 m /e glyphshow
39.388565 2.906250 m /z glyphshow
46.942230 2.906250 m /o glyphshow
55.746643 2.906250 m /i glyphshow
59.744812 2.906250 m /d glyphshow
68.879486 2.906250 m /a glyphshow
77.697952 2.906250 m /l glyphshow
grestore
0.010 setlinewidth
1.000 setgray
gsave
17.28 345.6 451.4 43.2 clipbox
451.44 43.2 m
451.44 388.8 l
451.44 43.2 l
451.44 388.8 l
468.72 388.8 l
468.72 43.2 l
468.72 388.8 l
468.72 43.2 l
cl
gsave
fill
grestore
stroke
grestore
/p1_0 {
newpath
translate
451.44 43.2 m
468.72 43.2 l
468.72 388.8 l
451.44 388.8 l
451.44 43.2 l
} bind def
gsave
17.28 345.6 451.4 43.2 clipbox
0 0 p1_0
0.490 1.000 0.478 setrgbcolor
fill
grestore
1.000 setlinewidth
0.000 setgray
gsave
451.44 43.2 m
451.44 388.8 l
451.44 43.2 l
451.44 388.8 l
468.72 388.8 l
468.72 43.2 l
468.72 388.8 l
468.72 43.2 l
451.44 43.2 l
stroke
grestore
0.500 setlinewidth
0 setlinecap
gsave
/o {
gsave
newpath
translate
0.5 setlinewidth
1 setlinejoin
0 setlinecap
0 0 m
-4 0 l
gsave
0.000 setgray
fill
grestore
stroke
grestore
} bind def
468.72 43.2 o
grestore
/DejaVuSans findfont
12.000 scalefont
setfont
gsave
472.720000 38.660937 translate
0.000000 rotate
0.000000 0.171875 m /zero glyphshow
grestore
gsave
/o {
gsave
newpath
translate
0.5 setlinewidth
1 setlinejoin
0 setlinecap
0 0 m
-4 0 l
gsave
0.000 setgray
fill
grestore
stroke
grestore
} bind def
468.72 388.8 o
grestore
gsave
472.720000 384.425000 translate
0.000000 rotate
0.000000 0.000000 m /one glyphshow
grestore

end
showpage
