%!PS-Adobe-3.0 EPSF-3.0
%%Title: ../figures/pb1f.eps
%%Creator: matplotlib version 1.2.1, http://matplotlib.org/
%%CreationDate: Fri Nov 15 11:27:51 2013
%%Orientation: portrait
%%BoundingBox: 18 180 594 612
%%EndComments
%%BeginProlog
/mpldict 8 dict def
mpldict begin
/m { moveto } bind def
/l { lineto } bind def
/r { rlineto } bind def
/c { curveto } bind def
/cl { closepath } bind def
/box {
m
1 index 0 r
0 exch r
neg 0 r
cl
} bind def
/clipbox {
box
clip
newpath
} bind def
%!PS-Adobe-3.0 Resource-Font
%%Title: DejaVu Sans
%%Copyright: Copyright (c) 2003 by Bitstream, Inc. All Rights Reserved. Copyright (c) 2006 by Tavmjong Bah. All Rights Reserved. DejaVu changes are in public domain 
%%Creator: Converted from TrueType to type 3 by PPR
25 dict begin
/_d{bind def}bind def
/_m{moveto}_d
/_l{lineto}_d
/_cl{closepath eofill}_d
/_c{curveto}_d
/_sc{7 -1 roll{setcachedevice}{pop pop pop pop pop pop}ifelse}_d
/_e{exec}_d
/FontName /DejaVuSans def
/PaintType 0 def
/FontMatrix[.001 0 0 .001 0 0]def
/FontBBox[-1021 -415 1681 1167]def
/FontType 3 def
/Encoding [ /hyphen /zero /one /two /five /B /D /F /R /T /minus ] def
/FontInfo 10 dict dup begin
/FamilyName (DejaVu Sans) def
/FullName (DejaVu Sans) def
/Notice (Copyright (c) 2003 by Bitstream, Inc. All Rights Reserved. Copyright (c) 2006 by Tavmjong Bah. All Rights Reserved. DejaVu changes are in public domain ) def
/Weight (Book) def
/Version (Version 2.33) def
/ItalicAngle 0.0 def
/isFixedPitch false def
/UnderlinePosition -130 def
/UnderlineThickness 90 def
end readonly def
/CharStrings 11 dict dup begin
/hyphen{361 0 49 234 312 314 _sc
49 314 _m
312 314 _l
312 234 _l
49 234 _l
49 314 _l
_cl}_d
/zero{636 0 66 -13 570 742 _sc
318 664 _m
267 664 229 639 203 589 _c
177 539 165 464 165 364 _c
165 264 177 189 203 139 _c
229 89 267 64 318 64 _c
369 64 407 89 433 139 _c
458 189 471 264 471 364 _c
471 464 458 539 433 589 _c
407 639 369 664 318 664 _c
318 742 _m
399 742 461 709 505 645 _c
548 580 570 486 570 364 _c
570 241 548 147 505 83 _c
461 19 399 -13 318 -13 _c
236 -13 173 19 130 83 _c
87 147 66 241 66 364 _c
66 486 87 580 130 645 _c
173 709 236 742 318 742 _c
_cl}_d
/one{636 0 110 0 544 729 _sc
124 83 _m
285 83 _l
285 639 _l
110 604 _l
110 694 _l
284 729 _l
383 729 _l
383 83 _l
544 83 _l
544 0 _l
124 0 _l
124 83 _l
_cl}_d
/two{{636 0 73 0 536 742 _sc
192 83 _m
536 83 _l
536 0 _l
73 0 _l
73 83 _l
110 121 161 173 226 239 _c
290 304 331 346 348 365 _c
380 400 402 430 414 455 _c
426 479 433 504 433 528 _c
433 566 419 598 392 622 _c
365 646 330 659 286 659 _c
255 659 222 653 188 643 _c
154 632 117 616 78 594 _c
78 694 _l
118 710 155 722 189 730 _c
223 738 255 742 284 742 _c
}_e{359 742 419 723 464 685 _c
509 647 532 597 532 534 _c
532 504 526 475 515 449 _c
504 422 484 390 454 354 _c
446 344 420 317 376 272 _c
332 227 271 164 192 83 _c
_cl}_e}_d
/five{{636 0 77 -13 549 729 _sc
108 729 _m
495 729 _l
495 646 _l
198 646 _l
198 467 _l
212 472 227 476 241 478 _c
255 480 270 482 284 482 _c
365 482 429 459 477 415 _c
525 370 549 310 549 234 _c
549 155 524 94 475 51 _c
426 8 357 -13 269 -13 _c
238 -13 207 -10 175 -6 _c
143 -1 111 6 77 17 _c
77 116 _l
106 100 136 88 168 80 _c
199 72 232 69 267 69 _c
}_e{323 69 368 83 401 113 _c
433 143 450 183 450 234 _c
450 284 433 324 401 354 _c
368 384 323 399 267 399 _c
241 399 214 396 188 390 _c
162 384 135 375 108 363 _c
108 729 _l
_cl}_e}_d
/B{{686 0 98 0 615 729 _sc
197 348 _m
197 81 _l
355 81 _l
408 81 447 92 473 114 _c
498 136 511 169 511 215 _c
511 260 498 293 473 315 _c
447 337 408 348 355 348 _c
197 348 _l
197 648 _m
197 428 _l
343 428 _l
391 428 426 437 450 455 _c
474 473 486 500 486 538 _c
486 574 474 602 450 620 _c
426 638 391 648 343 648 _c
197 648 _l
98 729 _m
350 729 _l
}_e{425 729 483 713 524 682 _c
564 650 585 606 585 549 _c
585 504 574 468 553 442 _c
532 416 502 399 462 393 _c
510 382 548 360 575 327 _c
601 294 615 253 615 204 _c
615 138 592 88 548 53 _c
504 17 441 0 360 0 _c
98 0 _l
98 729 _l
_cl}_e}_d
/D{770 0 98 0 711 729 _sc
197 648 _m
197 81 _l
316 81 _l
416 81 490 103 537 149 _c
583 195 607 267 607 365 _c
607 463 583 534 537 580 _c
490 625 416 648 316 648 _c
197 648 _l
98 729 _m
301 729 _l
442 729 546 699 612 641 _c
678 582 711 490 711 365 _c
711 239 677 147 611 88 _c
545 29 441 0 301 0 _c
98 0 _l
98 729 _l
_cl}_d
/F{575 0 98 0 517 729 _sc
98 729 _m
517 729 _l
517 646 _l
197 646 _l
197 431 _l
486 431 _l
486 348 _l
197 348 _l
197 0 _l
98 0 _l
98 729 _l
_cl}_d
/R{{695 0 98 0 666 729 _sc
444 342 _m
465 334 486 319 506 296 _c
526 272 546 240 566 199 _c
666 0 _l
560 0 _l
467 187 _l
443 235 419 268 397 284 _c
374 300 343 308 304 308 _c
197 308 _l
197 0 _l
98 0 _l
98 729 _l
321 729 _l
404 729 466 711 507 677 _c
548 642 569 589 569 519 _c
569 473 558 434 537 404 _c
515 374 484 353 444 342 _c
197 648 _m
197 389 _l
321 389 _l
}_e{368 389 404 400 428 422 _c
452 444 465 476 465 519 _c
465 561 452 593 428 615 _c
404 637 368 648 321 648 _c
197 648 _l
_cl}_e}_d
/T{611 0 -2 0 614 729 _sc
-2 729 _m
614 729 _l
614 646 _l
355 646 _l
355 0 _l
256 0 _l
256 646 _l
-2 646 _l
-2 729 _l
_cl}_d
/minus{838 0 106 272 732 355 _sc
106 355 _m
732 355 _l
732 272 _l
106 272 _l
106 355 _l
_cl}_d
end readonly def

/BuildGlyph
 {exch begin
 CharStrings exch
 2 copy known not{pop /.notdef}if
 true 3 1 roll get exec
 end}_d

/BuildChar {
 1 index /Encoding get exch get
 1 index /BuildGlyph get exec
}_d

FontName currentdict end definefont pop
end
%%EndProlog
mpldict begin
18 180 translate
576 432 0 0 clipbox
gsave
0 0 m
576 0 l
576 432 l
0 432 l
cl
1.000 setgray
fill
grestore
gsave
72 43.2 m
429.12 43.2 l
429.12 388.8 l
72 388.8 l
cl
1.000 setgray
fill
grestore
/p0_0 {
newpath
translate
72 43.2 m
75.6073 43.2 l
79.2145 43.2 l
82.8218 43.2 l
86.4291 43.2 l
90.0364 43.2 l
93.6436 43.2 l
97.2509 43.2 l
100.858 43.2 l
104.465 43.2 l
108.073 43.2 l
111.68 43.2 l
115.287 43.2 l
118.895 43.2 l
122.502 43.2 l
126.109 43.2 l
129.716 43.2 l
133.324 43.2 l
136.931 43.2 l
140.538 43.2 l
144.145 43.2 l
147.753 43.2 l
151.36 43.2 l
154.967 43.2 l
158.575 43.2 l
162.182 43.2 l
165.789 43.2 l
169.396 43.2 l
173.004 43.2 l
176.611 43.2 l
180.218 43.2 l
183.825 43.2 l
187.433 43.2 l
191.04 43.2 l
194.647 43.2 l
198.255 43.2 l
201.862 43.2 l
205.469 43.2 l
209.076 43.2 l
212.684 43.2 l
216.291 43.2 l
219.898 43.2 l
223.505 43.2 l
227.113 43.2 l
230.72 43.2 l
234.327 43.2 l
237.935 43.2 l
241.542 43.2 l
245.149 43.2 l
248.756 43.2 l
252.364 43.2 l
255.971 43.2 l
259.578 43.2 l
263.185 43.2 l
266.793 43.2 l
270.4 43.2 l
274.007 43.2 l
277.615 43.2 l
281.222 43.2 l
284.829 43.2 l
288.436 43.2 l
292.044 43.2 l
295.651 43.2 l
299.258 43.2 l
302.865 43.2 l
306.473 43.2 l
310.08 43.2 l
313.687 43.2 l
317.295 43.2 l
320.902 43.2 l
324.509 43.2 l
328.116 43.2 l
331.724 43.2 l
335.331 43.2 l
338.938 43.2 l
342.545 43.2 l
346.153 43.2 l
349.76 43.2 l
353.367 43.2 l
356.975 43.2 l
360.582 43.2 l
364.189 43.2 l
367.796 43.2 l
371.404 43.2 l
375.011 43.2 l
378.618 43.2 l
382.225 43.2 l
385.833 43.2 l
389.44 43.2 l
393.047 43.2 l
396.655 43.2 l
400.262 43.2 l
403.869 43.2 l
407.476 43.2 l
411.084 43.2 l
414.691 43.2 l
418.298 43.2 l
421.905 43.2 l
425.513 43.2 l
429.12 43.2 l
429.12 46.6909 l
429.12 50.1818 l
429.12 53.6727 l
429.12 57.1636 l
429.12 60.6545 l
429.12 64.1455 l
429.12 67.6364 l
429.12 71.1273 l
429.12 74.6182 l
429.12 78.1091 l
429.12 81.6 l
429.12 85.0909 l
429.12 88.5818 l
429.12 92.0727 l
429.12 95.5636 l
429.12 99.0545 l
429.12 102.545 l
429.12 106.036 l
429.12 109.527 l
429.12 113.018 l
429.12 116.509 l
429.12 120 l
429.12 123.491 l
429.12 126.982 l
429.12 130.473 l
429.12 133.964 l
429.12 137.455 l
429.12 140.945 l
429.12 144.436 l
429.12 147.927 l
429.12 151.418 l
429.12 154.909 l
429.12 158.4 l
429.12 161.891 l
429.12 165.382 l
429.12 168.873 l
429.12 172.364 l
429.12 175.855 l
429.12 179.345 l
429.12 182.836 l
429.12 186.327 l
429.12 189.818 l
429.12 193.309 l
429.12 196.8 l
429.12 200.291 l
429.12 203.782 l
429.12 207.273 l
429.12 210.764 l
429.12 214.255 l
429.12 217.745 l
429.12 221.236 l
429.12 224.727 l
429.12 228.218 l
429.12 231.709 l
429.12 235.2 l
429.12 238.691 l
429.12 242.182 l
429.12 245.673 l
429.12 249.164 l
429.12 252.655 l
429.12 256.145 l
429.12 259.636 l
429.12 263.127 l
429.12 266.618 l
429.12 270.109 l
429.12 273.6 l
429.12 277.091 l
429.12 280.582 l
429.12 284.073 l
429.12 287.564 l
429.12 291.055 l
429.12 294.545 l
429.12 298.036 l
429.12 301.527 l
429.12 305.018 l
429.12 308.509 l
429.12 312 l
429.12 315.491 l
429.12 318.982 l
429.12 322.473 l
429.12 325.964 l
429.12 329.455 l
429.12 332.945 l
429.12 336.436 l
429.12 339.927 l
429.12 343.418 l
429.12 346.909 l
429.12 350.4 l
429.12 353.891 l
429.12 357.382 l
429.12 360.873 l
429.12 364.364 l
429.12 367.855 l
429.12 371.345 l
429.12 374.836 l
429.12 378.327 l
429.12 381.818 l
429.12 385.309 l
429.12 388.8 l
425.513 388.8 l
421.905 388.8 l
418.298 388.8 l
414.691 388.8 l
411.084 388.8 l
407.476 388.8 l
403.869 388.8 l
400.262 388.8 l
396.655 388.8 l
393.047 388.8 l
389.44 388.8 l
385.833 388.8 l
382.225 388.8 l
378.618 388.8 l
375.011 388.8 l
371.404 388.8 l
367.796 388.8 l
364.189 388.8 l
360.582 388.8 l
356.975 388.8 l
353.367 388.8 l
349.76 388.8 l
346.153 388.8 l
342.545 388.8 l
338.938 388.8 l
335.331 388.8 l
331.724 388.8 l
328.116 388.8 l
324.509 388.8 l
320.902 388.8 l
317.295 388.8 l
313.687 388.8 l
310.08 388.8 l
306.473 388.8 l
302.865 388.8 l
299.258 388.8 l
295.651 388.8 l
292.044 388.8 l
288.436 388.8 l
284.829 388.8 l
281.222 388.8 l
277.615 388.8 l
274.007 388.8 l
270.4 388.8 l
266.793 388.8 l
263.185 388.8 l
259.578 388.8 l
255.971 388.8 l
252.364 388.8 l
248.756 388.8 l
245.149 388.8 l
241.542 388.8 l
237.935 388.8 l
234.327 388.8 l
230.72 388.8 l
227.113 388.8 l
223.505 388.8 l
219.898 388.8 l
216.291 388.8 l
212.684 388.8 l
209.076 388.8 l
205.469 388.8 l
201.862 388.8 l
198.255 388.8 l
194.647 388.8 l
191.04 388.8 l
187.433 388.8 l
183.825 388.8 l
180.218 388.8 l
176.611 388.8 l
173.004 388.8 l
169.396 388.8 l
165.789 388.8 l
162.182 388.8 l
158.575 388.8 l
154.967 388.8 l
151.36 388.8 l
147.753 388.8 l
144.145 388.8 l
140.538 388.8 l
136.931 388.8 l
133.324 388.8 l
129.716 388.8 l
126.109 388.8 l
122.502 388.8 l
118.895 388.8 l
115.287 388.8 l
111.68 388.8 l
108.073 388.8 l
104.465 388.8 l
100.858 388.8 l
97.2509 388.8 l
93.6436 388.8 l
90.0364 388.8 l
86.4291 388.8 l
82.8218 388.8 l
79.2145 388.8 l
75.6073 388.8 l
72 388.8 l
72 385.309 l
72 381.818 l
72 378.327 l
72 374.836 l
72 371.345 l
72 367.855 l
72 364.364 l
72 360.873 l
72 357.382 l
72 353.891 l
72 350.4 l
72 346.909 l
72 343.418 l
72 339.927 l
72 336.436 l
72 332.945 l
72 329.455 l
72 325.964 l
72 322.473 l
72 318.982 l
72 315.491 l
72 312 l
72 308.509 l
72 305.018 l
72 301.527 l
72 298.036 l
72 294.545 l
72 291.055 l
72 287.564 l
72 284.073 l
72 280.582 l
72 277.091 l
72 273.6 l
72 270.109 l
72 266.618 l
72 263.127 l
72 259.636 l
72 256.145 l
72 252.655 l
72 249.164 l
72 245.673 l
72 242.182 l
72 238.691 l
72 235.2 l
72 231.709 l
72 228.218 l
72 224.727 l
72 221.236 l
72 217.745 l
72 214.255 l
72 210.764 l
72 207.273 l
72 203.782 l
72 200.291 l
72 196.8 l
72 193.309 l
72 189.818 l
72 186.327 l
72 182.836 l
72 179.345 l
72 175.855 l
72 172.364 l
72 168.873 l
72 165.382 l
72 161.891 l
72 158.4 l
72 154.909 l
72 151.418 l
72 147.927 l
72 144.436 l
72 140.945 l
72 137.455 l
72 133.964 l
72 130.473 l
72 126.982 l
72 123.491 l
72 120 l
72 116.509 l
72 113.018 l
72 109.527 l
72 106.036 l
72 102.545 l
72 99.0545 l
72 95.5636 l
72 92.0727 l
72 88.5818 l
72 85.0909 l
72 81.6 l
72 78.1091 l
72 74.6182 l
72 71.1273 l
72 67.6364 l
72 64.1455 l
72 60.6545 l
72 57.1636 l
72 53.6727 l
72 50.1818 l
72 46.6909 l
72 43.2 l
324.509 123.482 m
324.122 123.491 l
320.902 123.554 l
317.295 123.774 l
313.687 124.149 l
310.08 124.688 l
306.473 125.405 l
302.865 126.32 l
300.742 126.982 l
299.258 127.409 l
295.651 128.661 l
292.044 130.185 l
291.454 130.473 l
288.436 131.87 l
284.829 133.883 l
284.701 133.964 l
281.222 136.094 l
279.332 137.455 l
277.615 138.67 l
274.846 140.945 l
274.007 141.635 l
271.034 144.436 l
270.4 145.047 l
267.75 147.927 l
266.793 149.021 l
264.9 151.418 l
263.185 153.782 l
262.434 154.909 l
260.289 158.4 l
259.578 159.682 l
258.422 161.891 l
256.829 165.382 l
255.971 167.576 l
255.476 168.873 l
254.297 172.364 l
253.349 175.855 l
252.604 179.345 l
252.364 180.717 l
251.975 182.836 l
251.465 186.327 l
251.089 189.818 l
250.825 193.309 l
250.649 196.8 l
250.542 200.291 l
250.482 203.782 l
250.454 207.273 l
250.444 210.764 l
250.442 214.255 l
250.442 217.745 l
250.444 221.236 l
250.454 224.727 l
250.482 228.218 l
250.542 231.709 l
250.649 235.2 l
250.825 238.691 l
251.089 242.182 l
251.465 245.673 l
251.975 249.164 l
252.364 251.283 l
252.604 252.655 l
253.349 256.145 l
254.297 259.636 l
255.476 263.127 l
255.971 264.424 l
256.829 266.618 l
258.422 270.109 l
259.578 272.318 l
260.289 273.6 l
262.434 277.091 l
263.185 278.218 l
264.9 280.582 l
266.793 282.979 l
267.75 284.073 l
270.4 286.953 l
271.034 287.564 l
274.007 290.365 l
274.846 291.055 l
277.615 293.33 l
279.332 294.545 l
281.222 295.906 l
284.701 298.036 l
284.829 298.117 l
288.436 300.13 l
291.454 301.527 l
292.044 301.815 l
295.651 303.339 l
299.258 304.591 l
300.742 305.018 l
302.865 305.68 l
306.473 306.595 l
310.08 307.312 l
313.687 307.851 l
317.295 308.226 l
320.902 308.446 l
324.122 308.509 l
324.509 308.518 l
324.885 308.509 l
328.116 308.442 l
331.724 308.22 l
335.331 307.849 l
338.938 307.322 l
342.545 306.633 l
346.153 305.773 l
348.792 305.018 l
349.76 304.751 l
353.367 303.599 l
356.975 302.242 l
358.658 301.527 l
360.582 300.72 l
364.189 299.009 l
366.029 298.036 l
367.796 297.097 l
371.404 294.964 l
372.059 294.545 l
375.011 292.621 l
377.204 291.055 l
378.618 290.012 l
381.692 287.564 l
382.225 287.12 l
385.669 284.073 l
385.833 283.919 l
389.232 280.582 l
389.44 280.364 l
392.448 277.091 l
393.047 276.387 l
395.359 273.6 l
396.655 271.895 l
397.991 270.109 l
400.262 266.756 l
400.355 266.618 l
402.542 263.127 l
403.869 260.741 l
404.49 259.636 l
406.268 256.145 l
407.476 253.447 l
407.84 252.655 l
409.28 249.164 l
410.523 245.673 l
411.084 243.861 l
411.625 242.182 l
412.596 238.691 l
413.406 235.2 l
414.064 231.709 l
414.58 228.218 l
414.691 227.207 l
414.983 224.727 l
415.255 221.236 l
415.39 217.745 l
415.39 214.255 l
415.255 210.764 l
414.983 207.273 l
414.691 204.793 l
414.58 203.782 l
414.064 200.291 l
413.406 196.8 l
412.596 193.309 l
411.625 189.818 l
411.084 188.139 l
410.523 186.327 l
409.28 182.836 l
407.84 179.345 l
407.476 178.553 l
406.268 175.855 l
404.49 172.364 l
403.869 171.259 l
402.542 168.873 l
400.355 165.382 l
400.262 165.244 l
397.991 161.891 l
396.655 160.105 l
395.359 158.4 l
393.047 155.613 l
392.448 154.909 l
389.44 151.636 l
389.232 151.418 l
385.833 148.081 l
385.669 147.927 l
382.225 144.88 l
381.692 144.436 l
378.618 141.988 l
377.204 140.945 l
375.011 139.379 l
372.059 137.455 l
371.404 137.036 l
367.796 134.903 l
366.029 133.964 l
364.189 132.991 l
360.582 131.28 l
358.658 130.473 l
356.975 129.758 l
353.367 128.401 l
349.76 127.249 l
348.792 126.982 l
346.153 126.227 l
342.545 125.367 l
338.938 124.678 l
335.331 124.151 l
331.724 123.78 l
328.116 123.558 l
324.885 123.491 l
324.509 123.482 l
} bind def
gsave
357.1 345.6 72 43.2 clipbox
0 0 p0_0
0.490 1.000 0.478 setrgbcolor
fill
grestore
0.500 setlinewidth
1 setlinejoin
0 setlinecap
[1 3] 0 setdash
0.000 setgray
gsave
357.1 345.6 72 43.2 clipbox
113.206 43.2 m
113.206 388.8 l
stroke
grestore
[] 0 setdash
gsave
/o {
gsave
newpath
translate
0.5 setlinewidth
1 setlinejoin
0 setlinecap
0 0 m
0 4 l
gsave
0.000 setgray
fill
grestore
stroke
grestore
} bind def
113.206 43.2 o
grestore
gsave
/o {
gsave
newpath
translate
0.5 setlinewidth
1 setlinejoin
0 setlinecap
0 0 m
0 -4 l
gsave
0.000 setgray
fill
grestore
stroke
grestore
} bind def
113.206 388.8 o
grestore
/DejaVuSans findfont
12.000 scalefont
setfont
gsave
101.565529 30.121875 translate
0.000000 rotate
0.000000 0.171875 m /minus glyphshow
10.054688 0.171875 m /one glyphshow
17.689453 0.171875 m /zero glyphshow
grestore
[1 3] 0 setdash
gsave
357.1 345.6 72 43.2 clipbox
181.883 43.2 m
181.883 388.8 l
stroke
grestore
[] 0 setdash
gsave
/o {
gsave
newpath
translate
0.5 setlinewidth
1 setlinejoin
0 setlinecap
0 0 m
0 4 l
gsave
0.000 setgray
fill
grestore
stroke
grestore
} bind def
181.883 43.2 o
grestore
gsave
/o {
gsave
newpath
translate
0.5 setlinewidth
1 setlinejoin
0 setlinecap
0 0 m
0 -4 l
gsave
0.000 setgray
fill
grestore
stroke
grestore
} bind def
181.883 388.8 o
grestore
gsave
174.187764 30.278125 translate
0.000000 rotate
0.000000 0.171875 m /minus glyphshow
10.054688 0.171875 m /five glyphshow
grestore
[1 3] 0 setdash
gsave
357.1 345.6 72 43.2 clipbox
250.56 43.2 m
250.56 388.8 l
stroke
grestore
[] 0 setdash
gsave
/o {
gsave
newpath
translate
0.5 setlinewidth
1 setlinejoin
0 setlinecap
0 0 m
0 4 l
gsave
0.000 setgray
fill
grestore
stroke
grestore
} bind def
250.56 43.2 o
grestore
gsave
/o {
gsave
newpath
translate
0.5 setlinewidth
1 setlinejoin
0 setlinecap
0 0 m
0 -4 l
gsave
0.000 setgray
fill
grestore
stroke
grestore
} bind def
250.56 388.8 o
grestore
gsave
247.536563 30.121875 translate
0.000000 rotate
0.000000 0.171875 m /zero glyphshow
grestore
[1 3] 0 setdash
gsave
357.1 345.6 72 43.2 clipbox
319.237 43.2 m
319.237 388.8 l
stroke
grestore
[] 0 setdash
gsave
/o {
gsave
newpath
translate
0.5 setlinewidth
1 setlinejoin
0 setlinecap
0 0 m
0 4 l
gsave
0.000 setgray
fill
grestore
stroke
grestore
} bind def
319.237 43.2 o
grestore
gsave
/o {
gsave
newpath
translate
0.5 setlinewidth
1 setlinejoin
0 setlinecap
0 0 m
0 -4 l
gsave
0.000 setgray
fill
grestore
stroke
grestore
} bind def
319.237 388.8 o
grestore
gsave
316.400986 30.278125 translate
0.000000 rotate
0.000000 0.171875 m /five glyphshow
grestore
[1 3] 0 setdash
gsave
357.1 345.6 72 43.2 clipbox
387.914 43.2 m
387.914 388.8 l
stroke
grestore
[] 0 setdash
gsave
/o {
gsave
newpath
translate
0.5 setlinewidth
1 setlinejoin
0 setlinecap
0 0 m
0 4 l
gsave
0.000 setgray
fill
grestore
stroke
grestore
} bind def
387.914 43.2 o
grestore
gsave
/o {
gsave
newpath
translate
0.5 setlinewidth
1 setlinejoin
0 setlinecap
0 0 m
0 -4 l
gsave
0.000 setgray
fill
grestore
stroke
grestore
} bind def
387.914 388.8 o
grestore
gsave
381.327909 30.121875 translate
0.000000 rotate
0.000000 0.171875 m /one glyphshow
7.634766 0.171875 m /zero glyphshow
grestore
[1 3] 0 setdash
gsave
357.1 345.6 72 43.2 clipbox
72 83.0769 m
429.12 83.0769 l
stroke
grestore
[] 0 setdash
gsave
/o {
gsave
newpath
translate
0.5 setlinewidth
1 setlinejoin
0 setlinecap
0 0 m
4 0 l
gsave
0.000 setgray
fill
grestore
stroke
grestore
} bind def
72 83.0769 o
grestore
gsave
/o {
gsave
newpath
translate
0.5 setlinewidth
1 setlinejoin
0 setlinecap
0 0 m
-4 0 l
gsave
0.000 setgray
fill
grestore
stroke
grestore
} bind def
429.12 83.0769 o
grestore
gsave
44.718750 78.537861 translate
0.000000 rotate
0.000000 0.171875 m /minus glyphshow
10.054688 0.171875 m /one glyphshow
17.689453 0.171875 m /zero glyphshow
grestore
[1 3] 0 setdash
gsave
357.1 345.6 72 43.2 clipbox
72 149.538 m
429.12 149.538 l
stroke
grestore
[] 0 setdash
gsave
/o {
gsave
newpath
translate
0.5 setlinewidth
1 setlinejoin
0 setlinecap
0 0 m
4 0 l
gsave
0.000 setgray
fill
grestore
stroke
grestore
} bind def
72 149.538 o
grestore
gsave
/o {
gsave
newpath
translate
0.5 setlinewidth
1 setlinejoin
0 setlinecap
0 0 m
-4 0 l
gsave
0.000 setgray
fill
grestore
stroke
grestore
} bind def
429.12 149.538 o
grestore
gsave
52.609375 145.077524 translate
0.000000 rotate
0.000000 0.171875 m /minus glyphshow
10.054688 0.171875 m /five glyphshow
grestore
[1 3] 0 setdash
gsave
357.1 345.6 72 43.2 clipbox
72 216 m
429.12 216 l
stroke
grestore
[] 0 setdash
gsave
/o {
gsave
newpath
translate
0.5 setlinewidth
1 setlinejoin
0 setlinecap
0 0 m
4 0 l
gsave
0.000 setgray
fill
grestore
stroke
grestore
} bind def
72 216 o
grestore
gsave
/o {
gsave
newpath
translate
0.5 setlinewidth
1 setlinejoin
0 setlinecap
0 0 m
-4 0 l
gsave
0.000 setgray
fill
grestore
stroke
grestore
} bind def
429.12 216 o
grestore
gsave
61.953125 211.460938 translate
0.000000 rotate
0.000000 0.171875 m /zero glyphshow
grestore
[1 3] 0 setdash
gsave
357.1 345.6 72 43.2 clipbox
72 282.462 m
429.12 282.462 l
stroke
grestore
[] 0 setdash
gsave
/o {
gsave
newpath
translate
0.5 setlinewidth
1 setlinejoin
0 setlinecap
0 0 m
4 0 l
gsave
0.000 setgray
fill
grestore
stroke
grestore
} bind def
72 282.462 o
grestore
gsave
/o {
gsave
newpath
translate
0.5 setlinewidth
1 setlinejoin
0 setlinecap
0 0 m
-4 0 l
gsave
0.000 setgray
fill
grestore
stroke
grestore
} bind def
429.12 282.462 o
grestore
gsave
62.328125 278.000601 translate
0.000000 rotate
0.000000 0.171875 m /five glyphshow
grestore
[1 3] 0 setdash
gsave
357.1 345.6 72 43.2 clipbox
72 348.923 m
429.12 348.923 l
stroke
grestore
[] 0 setdash
gsave
/o {
gsave
newpath
translate
0.5 setlinewidth
1 setlinejoin
0 setlinecap
0 0 m
4 0 l
gsave
0.000 setgray
fill
grestore
stroke
grestore
} bind def
72 348.923 o
grestore
gsave
/o {
gsave
newpath
translate
0.5 setlinewidth
1 setlinejoin
0 setlinecap
0 0 m
-4 0 l
gsave
0.000 setgray
fill
grestore
stroke
grestore
} bind def
429.12 348.923 o
grestore
gsave
54.828125 344.384014 translate
0.000000 rotate
0.000000 0.171875 m /one glyphshow
7.634766 0.171875 m /zero glyphshow
grestore
1.000 setlinewidth
2 setlinecap
gsave
72 388.8 m
429.12 388.8 l
stroke
grestore
gsave
429.12 43.2 m
429.12 388.8 l
stroke
grestore
gsave
72 43.2 m
429.12 43.2 l
stroke
grestore
gsave
72 43.2 m
72 388.8 l
stroke
grestore
/DejaVuSans findfont
14.400 scalefont
setfont
gsave
220.677188 393.800000 translate
0.000000 rotate
0.000000 0.000000 m /T glyphshow
8.790359 0.000000 m /R glyphshow
18.164307 0.000000 m /hyphen glyphshow
22.857010 0.000000 m /B glyphshow
32.729477 0.000000 m /D glyphshow
43.810532 0.000000 m /F glyphshow
52.087952 0.000000 m /two glyphshow
grestore
0.010 setlinewidth
1.000 setgray
gsave
17.28 345.6 451.4 43.2 clipbox
451.44 43.2 m
451.44 388.8 l
451.44 43.2 l
451.44 388.8 l
468.72 388.8 l
468.72 43.2 l
468.72 388.8 l
468.72 43.2 l
cl
gsave
fill
grestore
stroke
grestore
/p1_0 {
newpath
translate
451.44 43.2 m
468.72 43.2 l
468.72 388.8 l
451.44 388.8 l
451.44 43.2 l
} bind def
gsave
17.28 345.6 451.4 43.2 clipbox
0 0 p1_0
0.490 1.000 0.478 setrgbcolor
fill
grestore
1.000 setlinewidth
0.000 setgray
gsave
451.44 43.2 m
451.44 388.8 l
451.44 43.2 l
451.44 388.8 l
468.72 388.8 l
468.72 43.2 l
468.72 388.8 l
468.72 43.2 l
451.44 43.2 l
stroke
grestore
0.500 setlinewidth
0 setlinecap
gsave
/o {
gsave
newpath
translate
0.5 setlinewidth
1 setlinejoin
0 setlinecap
0 0 m
-4 0 l
gsave
0.000 setgray
fill
grestore
stroke
grestore
} bind def
468.72 43.2 o
grestore
/DejaVuSans findfont
12.000 scalefont
setfont
gsave
472.720000 38.660937 translate
0.000000 rotate
0.000000 0.171875 m /zero glyphshow
grestore
gsave
/o {
gsave
newpath
translate
0.5 setlinewidth
1 setlinejoin
0 setlinecap
0 0 m
-4 0 l
gsave
0.000 setgray
fill
grestore
stroke
grestore
} bind def
468.72 388.8 o
grestore
gsave
472.720000 384.425000 translate
0.000000 rotate
0.000000 0.000000 m /one glyphshow
grestore

end
showpage
