\relax 
\@writefile{lof}{\contentsline {figure}{\numberline {1}{\ignorespaces The A-stability region of forward Euler scheme}}{1}}
\@writefile{lof}{\contentsline {figure}{\numberline {2}{\ignorespaces The A-stability region of backward Euler scheme}}{2}}
\@writefile{lof}{\contentsline {figure}{\numberline {3}{\ignorespaces The A-stability region of mid-point scheme}}{3}}
\@writefile{lof}{\contentsline {figure}{\numberline {4}{\ignorespaces The A-stability region of trapezoidal scheme}}{4}}
\@writefile{lof}{\contentsline {figure}{\numberline {5}{\ignorespaces The A-stability region of RK4 scheme}}{5}}
\@writefile{lof}{\contentsline {figure}{\numberline {6}{\ignorespaces The A-stability region of TR-BDF2 scheme}}{6}}
\@writefile{lol}{\contentsline {lstlisting}{./pythonFiles/forwardEuler.py}{7}}
\@writefile{lol}{\contentsline {lstlisting}{./pythonFiles/forwardEulerConverge.py}{7}}
\@writefile{lof}{\contentsline {figure}{\numberline {7}{\ignorespaces The convergence plot of relative error $r(t)$ vs number of steps}}{8}}
\@writefile{lof}{\contentsline {figure}{\numberline {8}{\ignorespaces The convergence plot of relative error $r(t)$ vs number of steps}}{9}}
\@writefile{lof}{\contentsline {figure}{\numberline {9}{\ignorespaces The convergence plot of relative error $r(t)$ vs number of steps}}{9}}
\@writefile{lol}{\contentsline {lstlisting}{./pythonFiles/stupidode.py}{9}}
\@writefile{lof}{\contentsline {figure}{\numberline {10}{\ignorespaces The trajectory of the particle in Dormand Prince 56 BDF scheme}}{11}}
\@writefile{lof}{\contentsline {figure}{\numberline {11}{\ignorespaces The trajectory of the particle in Vode BDF scheme}}{11}}
