\relax 
\@writefile{lof}{\contentsline {figure}{\numberline {1}{\ignorespaces L1-norm error against number of iterations, $dt=2.5\times 10^{-5}$}}{2}}
\@writefile{lof}{\contentsline {figure}{\numberline {2}{\ignorespaces L1-norm error against number of iterations, $dt=1\times 10^{-6}$}}{2}}
\@writefile{lof}{\contentsline {figure}{\numberline {3}{\ignorespaces L1-norm error against number of iterations, TRBDF-2 scheme, $dt=2\times 10^{-4}$}}{3}}
\@writefile{lof}{\contentsline {figure}{\numberline {4}{\ignorespaces L1-norm error against number of iterations, BDF-1 scheme, $dt=2\times 10^{-4}$}}{3}}
\@writefile{lof}{\contentsline {figure}{\numberline {5}{\ignorespaces L1-norm error against number of iterations, BDF-1 scheme, $dt=1\times 10^{-6}$}}{4}}
\@writefile{lof}{\contentsline {figure}{\numberline {6}{\ignorespaces L1-norm error against number of iterations, Crank-Nicolson scheme, $dt=2\times 10^{-4}$}}{4}}
\@writefile{lof}{\contentsline {figure}{\numberline {7}{\ignorespaces L1-norm error against number of iterations, Crank-Nicolson scheme, $dt=8\times 10^{-5}$}}{5}}
