%!PS-Adobe-3.0 EPSF-3.0
%%Title: poisson_ksp_convergence1.eps
%%Creator: matplotlib version 1.2.1, http://matplotlib.org/
%%CreationDate: Thu Nov  7 23:23:07 2013
%%Orientation: portrait
%%BoundingBox: 18 180 594 612
%%EndComments
%%BeginProlog
/mpldict 8 dict def
mpldict begin
/m { moveto } bind def
/l { lineto } bind def
/r { rlineto } bind def
/c { curveto } bind def
/cl { closepath } bind def
/box {
m
1 index 0 r
0 exch r
neg 0 r
cl
} bind def
/clipbox {
box
clip
newpath
} bind def
%!PS-Adobe-3.0 Resource-Font
%%Title: DejaVu Sans
%%Copyright: Copyright (c) 2003 by Bitstream, Inc. All Rights Reserved. Copyright (c) 2006 by Tavmjong Bah. All Rights Reserved. DejaVu changes are in public domain 
%%Creator: Converted from TrueType to type 3 by PPR
25 dict begin
/_d{bind def}bind def
/_m{moveto}_d
/_l{lineto}_d
/_cl{closepath eofill}_d
/_c{curveto}_d
/_sc{7 -1 roll{setcachedevice}{pop pop pop pop pop pop}ifelse}_d
/_e{exec}_d
/FontName /DejaVuSans def
/PaintType 0 def
/FontMatrix[.001 0 0 .001 0 0]def
/FontBBox[-1021 -415 1681 1167]def
/FontType 3 def
/Encoding [ /space /parenleft /parenright /comma /hyphen /zero /one /two /three /four /five /six /seven /eight /nine /equal /C /K /M /N /P /S /U /underscore /a /c /d /e /f /g /h /i /k /l /m /n /o /p /r /s /t /u /v /bar ] def
/FontInfo 10 dict dup begin
/FamilyName (DejaVu Sans) def
/FullName (DejaVu Sans) def
/Notice (Copyright (c) 2003 by Bitstream, Inc. All Rights Reserved. Copyright (c) 2006 by Tavmjong Bah. All Rights Reserved. DejaVu changes are in public domain ) def
/Weight (Book) def
/Version (Version 2.33) def
/ItalicAngle 0.0 def
/isFixedPitch false def
/UnderlinePosition -130 def
/UnderlineThickness 90 def
end readonly def
/CharStrings 44 dict dup begin
/space{318 0 0 0 0 0 _sc
}_d
/parenleft{390 0 86 -131 310 759 _sc
310 759 _m
266 683 234 609 213 536 _c
191 463 181 389 181 314 _c
181 238 191 164 213 91 _c
234 17 266 -56 310 -131 _c
232 -131 _l
183 -54 146 20 122 94 _c
98 168 86 241 86 314 _c
86 386 98 459 122 533 _c
146 607 182 682 232 759 _c
310 759 _l
_cl}_d
/parenright{390 0 80 -131 304 759 _sc
80 759 _m
158 759 _l
206 682 243 607 267 533 _c
291 459 304 386 304 314 _c
304 241 291 168 267 94 _c
243 20 206 -54 158 -131 _c
80 -131 _l
123 -56 155 17 177 91 _c
198 164 209 238 209 314 _c
209 389 198 463 177 536 _c
155 609 123 683 80 759 _c
_cl}_d
/comma{318 0 77 -115 220 124 _sc
117 124 _m
220 124 _l
220 40 _l
140 -115 _l
77 -115 _l
117 40 _l
117 124 _l
_cl}_d
/hyphen{361 0 49 234 312 314 _sc
49 314 _m
312 314 _l
312 234 _l
49 234 _l
49 314 _l
_cl}_d
/zero{636 0 66 -13 570 742 _sc
318 664 _m
267 664 229 639 203 589 _c
177 539 165 464 165 364 _c
165 264 177 189 203 139 _c
229 89 267 64 318 64 _c
369 64 407 89 433 139 _c
458 189 471 264 471 364 _c
471 464 458 539 433 589 _c
407 639 369 664 318 664 _c
318 742 _m
399 742 461 709 505 645 _c
548 580 570 486 570 364 _c
570 241 548 147 505 83 _c
461 19 399 -13 318 -13 _c
236 -13 173 19 130 83 _c
87 147 66 241 66 364 _c
66 486 87 580 130 645 _c
173 709 236 742 318 742 _c
_cl}_d
/one{636 0 110 0 544 729 _sc
124 83 _m
285 83 _l
285 639 _l
110 604 _l
110 694 _l
284 729 _l
383 729 _l
383 83 _l
544 83 _l
544 0 _l
124 0 _l
124 83 _l
_cl}_d
/two{{636 0 73 0 536 742 _sc
192 83 _m
536 83 _l
536 0 _l
73 0 _l
73 83 _l
110 121 161 173 226 239 _c
290 304 331 346 348 365 _c
380 400 402 430 414 455 _c
426 479 433 504 433 528 _c
433 566 419 598 392 622 _c
365 646 330 659 286 659 _c
255 659 222 653 188 643 _c
154 632 117 616 78 594 _c
78 694 _l
118 710 155 722 189 730 _c
223 738 255 742 284 742 _c
}_e{359 742 419 723 464 685 _c
509 647 532 597 532 534 _c
532 504 526 475 515 449 _c
504 422 484 390 454 354 _c
446 344 420 317 376 272 _c
332 227 271 164 192 83 _c
_cl}_e}_d
/three{{636 0 76 -13 556 742 _sc
406 393 _m
453 383 490 362 516 330 _c
542 298 556 258 556 212 _c
556 140 531 84 482 45 _c
432 6 362 -13 271 -13 _c
240 -13 208 -10 176 -4 _c
144 1 110 10 76 22 _c
76 117 _l
103 101 133 89 166 81 _c
198 73 232 69 268 69 _c
330 69 377 81 409 105 _c
441 129 458 165 458 212 _c
458 254 443 288 413 312 _c
383 336 341 349 287 349 _c
}_e{202 349 _l
202 430 _l
291 430 _l
339 430 376 439 402 459 _c
428 478 441 506 441 543 _c
441 580 427 609 401 629 _c
374 649 336 659 287 659 _c
260 659 231 656 200 650 _c
169 644 135 635 98 623 _c
98 711 _l
135 721 170 729 203 734 _c
235 739 266 742 296 742 _c
370 742 429 725 473 691 _c
517 657 539 611 539 553 _c
539 513 527 479 504 451 _c
481 423 448 403 406 393 _c
_cl}_e}_d
/four{636 0 49 0 580 729 _sc
378 643 _m
129 254 _l
378 254 _l
378 643 _l
352 729 _m
476 729 _l
476 254 _l
580 254 _l
580 172 _l
476 172 _l
476 0 _l
378 0 _l
378 172 _l
49 172 _l
49 267 _l
352 729 _l
_cl}_d
/five{{636 0 77 -13 549 729 _sc
108 729 _m
495 729 _l
495 646 _l
198 646 _l
198 467 _l
212 472 227 476 241 478 _c
255 480 270 482 284 482 _c
365 482 429 459 477 415 _c
525 370 549 310 549 234 _c
549 155 524 94 475 51 _c
426 8 357 -13 269 -13 _c
238 -13 207 -10 175 -6 _c
143 -1 111 6 77 17 _c
77 116 _l
106 100 136 88 168 80 _c
199 72 232 69 267 69 _c
}_e{323 69 368 83 401 113 _c
433 143 450 183 450 234 _c
450 284 433 324 401 354 _c
368 384 323 399 267 399 _c
241 399 214 396 188 390 _c
162 384 135 375 108 363 _c
108 729 _l
_cl}_e}_d
/six{{636 0 70 -13 573 742 _sc
330 404 _m
286 404 251 388 225 358 _c
199 328 186 286 186 234 _c
186 181 199 139 225 109 _c
251 79 286 64 330 64 _c
374 64 409 79 435 109 _c
461 139 474 181 474 234 _c
474 286 461 328 435 358 _c
409 388 374 404 330 404 _c
526 713 _m
526 623 _l
501 635 476 644 451 650 _c
425 656 400 659 376 659 _c
310 659 260 637 226 593 _c
}_e{192 549 172 482 168 394 _c
187 422 211 444 240 459 _c
269 474 301 482 336 482 _c
409 482 467 459 509 415 _c
551 371 573 310 573 234 _c
573 159 550 99 506 54 _c
462 9 403 -13 330 -13 _c
246 -13 181 19 137 83 _c
92 147 70 241 70 364 _c
70 479 97 571 152 639 _c
206 707 280 742 372 742 _c
396 742 421 739 447 735 _c
472 730 498 723 526 713 _c
_cl}_e}_d
/seven{636 0 82 0 551 729 _sc
82 729 _m
551 729 _l
551 687 _l
286 0 _l
183 0 _l
432 646 _l
82 646 _l
82 729 _l
_cl}_d
/eight{{636 0 68 -13 568 742 _sc
318 346 _m
271 346 234 333 207 308 _c
180 283 167 249 167 205 _c
167 161 180 126 207 101 _c
234 76 271 64 318 64 _c
364 64 401 76 428 102 _c
455 127 469 161 469 205 _c
469 249 455 283 429 308 _c
402 333 365 346 318 346 _c
219 388 _m
177 398 144 418 120 447 _c
96 476 85 511 85 553 _c
85 611 105 657 147 691 _c
188 725 245 742 318 742 _c
}_e{390 742 447 725 489 691 _c
530 657 551 611 551 553 _c
551 511 539 476 515 447 _c
491 418 459 398 417 388 _c
464 377 501 355 528 323 _c
554 291 568 251 568 205 _c
568 134 546 80 503 43 _c
459 5 398 -13 318 -13 _c
237 -13 175 5 132 43 _c
89 80 68 134 68 205 _c
68 251 81 291 108 323 _c
134 355 171 377 219 388 _c
183 544 _m
183 506 194 476 218 455 _c
}_e{242 434 275 424 318 424 _c
360 424 393 434 417 455 _c
441 476 453 506 453 544 _c
453 582 441 611 417 632 _c
393 653 360 664 318 664 _c
275 664 242 653 218 632 _c
194 611 183 582 183 544 _c
_cl}_e}_d
/nine{{636 0 63 -13 566 742 _sc
110 15 _m
110 105 _l
134 93 159 84 185 78 _c
210 72 235 69 260 69 _c
324 69 374 90 408 134 _c
442 178 462 244 468 334 _c
448 306 424 284 396 269 _c
367 254 335 247 300 247 _c
226 247 168 269 126 313 _c
84 357 63 417 63 494 _c
63 568 85 628 129 674 _c
173 719 232 742 306 742 _c
390 742 455 709 499 645 _c
543 580 566 486 566 364 _c
}_e{566 248 538 157 484 89 _c
429 21 356 -13 264 -13 _c
239 -13 214 -10 189 -6 _c
163 -2 137 5 110 15 _c
306 324 _m
350 324 385 339 411 369 _c
437 399 450 441 450 494 _c
450 546 437 588 411 618 _c
385 648 350 664 306 664 _c
262 664 227 648 201 618 _c
175 588 162 546 162 494 _c
162 441 175 399 201 369 _c
227 339 262 324 306 324 _c
_cl}_e}_d
/equal{838 0 106 172 732 454 _sc
106 454 _m
732 454 _l
732 372 _l
106 372 _l
106 454 _l
106 255 _m
732 255 _l
732 172 _l
106 172 _l
106 255 _l
_cl}_d
/C{{698 0 56 -13 644 742 _sc
644 673 _m
644 569 _l
610 599 575 622 537 638 _c
499 653 460 661 418 661 _c
334 661 270 635 226 584 _c
182 533 160 460 160 364 _c
160 268 182 194 226 143 _c
270 92 334 67 418 67 _c
460 67 499 74 537 90 _c
575 105 610 128 644 159 _c
644 56 _l
609 32 572 15 534 4 _c
496 -7 455 -13 412 -13 _c
302 -13 215 20 151 87 _c
}_e{87 154 56 246 56 364 _c
56 481 87 573 151 641 _c
215 708 302 742 412 742 _c
456 742 497 736 535 725 _c
573 713 610 696 644 673 _c
_cl}_e}_d
/K{656 0 98 0 677 729 _sc
98 729 _m
197 729 _l
197 421 _l
524 729 _l
651 729 _l
289 389 _l
677 0 _l
547 0 _l
197 351 _l
197 0 _l
98 0 _l
98 729 _l
_cl}_d
/M{863 0 98 0 765 729 _sc
98 729 _m
245 729 _l
431 233 _l
618 729 _l
765 729 _l
765 0 _l
669 0 _l
669 640 _l
481 140 _l
382 140 _l
194 640 _l
194 0 _l
98 0 _l
98 729 _l
_cl}_d
/N{748 0 98 0 650 729 _sc
98 729 _m
231 729 _l
554 119 _l
554 729 _l
650 729 _l
650 0 _l
517 0 _l
194 610 _l
194 0 _l
98 0 _l
98 729 _l
_cl}_d
/P{603 0 98 0 569 729 _sc
197 648 _m
197 374 _l
321 374 _l
367 374 402 385 427 409 _c
452 433 465 467 465 511 _c
465 555 452 588 427 612 _c
402 636 367 648 321 648 _c
197 648 _l
98 729 _m
321 729 _l
402 729 464 710 506 673 _c
548 636 569 582 569 511 _c
569 439 548 384 506 348 _c
464 311 402 293 321 293 _c
197 293 _l
197 0 _l
98 0 _l
98 729 _l
_cl}_d
/S{{635 0 66 -13 579 742 _sc
535 705 _m
535 609 _l
497 627 462 640 429 649 _c
395 657 363 662 333 662 _c
279 662 237 651 208 631 _c
179 610 165 580 165 542 _c
165 510 174 485 194 469 _c
213 452 250 439 304 429 _c
364 417 _l
437 403 491 378 526 343 _c
561 307 579 260 579 201 _c
579 130 555 77 508 41 _c
460 5 391 -13 300 -13 _c
265 -13 228 -9 189 -2 _c
}_e{150 5 110 16 69 32 _c
69 134 _l
109 111 148 94 186 83 _c
224 71 262 66 300 66 _c
356 66 399 77 430 99 _c
460 121 476 152 476 194 _c
476 230 465 258 443 278 _c
421 298 385 313 335 323 _c
275 335 _l
201 349 148 372 115 404 _c
82 435 66 478 66 534 _c
66 598 88 649 134 686 _c
179 723 242 742 322 742 _c
356 742 390 739 426 733 _c
461 727 497 717 535 705 _c
}_e{_cl}_e}_d
/U{732 0 87 -13 645 729 _sc
87 729 _m
186 729 _l
186 286 _l
186 208 200 151 228 117 _c
256 83 302 66 366 66 _c
429 66 475 83 503 117 _c
531 151 546 208 546 286 _c
546 729 _l
645 729 _l
645 274 _l
645 178 621 107 574 59 _c
527 11 458 -13 366 -13 _c
274 -13 204 11 157 59 _c
110 107 87 178 87 274 _c
87 729 _l
_cl}_d
/underscore{500 0 -9 -235 510 -165 _sc
510 -165 _m
510 -235 _l
-9 -235 _l
-9 -165 _l
510 -165 _l
_cl}_d
/a{{613 0 60 -13 522 560 _sc
343 275 _m
270 275 220 266 192 250 _c
164 233 150 205 150 165 _c
150 133 160 107 181 89 _c
202 70 231 61 267 61 _c
317 61 357 78 387 114 _c
417 149 432 196 432 255 _c
432 275 _l
343 275 _l
522 312 _m
522 0 _l
432 0 _l
432 83 _l
411 49 385 25 355 10 _c
325 -5 287 -13 243 -13 _c
187 -13 142 2 109 33 _c
76 64 60 106 60 159 _c
}_e{60 220 80 266 122 298 _c
163 329 224 345 306 345 _c
432 345 _l
432 354 _l
432 395 418 427 391 450 _c
364 472 326 484 277 484 _c
245 484 215 480 185 472 _c
155 464 127 453 100 439 _c
100 522 _l
132 534 164 544 195 550 _c
226 556 256 560 286 560 _c
365 560 424 539 463 498 _c
502 457 522 395 522 312 _c
_cl}_e}_d
/c{{550 0 55 -13 488 560 _sc
488 526 _m
488 442 _l
462 456 437 466 411 473 _c
385 480 360 484 334 484 _c
276 484 230 465 198 428 _c
166 391 150 339 150 273 _c
150 206 166 154 198 117 _c
230 80 276 62 334 62 _c
360 62 385 65 411 72 _c
437 79 462 90 488 104 _c
488 21 _l
462 9 436 0 410 -5 _c
383 -10 354 -13 324 -13 _c
242 -13 176 12 128 64 _c
}_e{79 115 55 185 55 273 _c
55 362 79 432 128 483 _c
177 534 244 560 330 560 _c
358 560 385 557 411 551 _c
437 545 463 537 488 526 _c
_cl}_e}_d
/d{{635 0 55 -13 544 760 _sc
454 464 _m
454 760 _l
544 760 _l
544 0 _l
454 0 _l
454 82 _l
435 49 411 25 382 10 _c
353 -5 319 -13 279 -13 _c
213 -13 159 13 117 65 _c
75 117 55 187 55 273 _c
55 359 75 428 117 481 _c
159 533 213 560 279 560 _c
319 560 353 552 382 536 _c
411 520 435 496 454 464 _c
148 273 _m
148 207 161 155 188 117 _c
215 79 253 61 301 61 _c
}_e{348 61 385 79 413 117 _c
440 155 454 207 454 273 _c
454 339 440 390 413 428 _c
385 466 348 485 301 485 _c
253 485 215 466 188 428 _c
161 390 148 339 148 273 _c
_cl}_e}_d
/e{{615 0 55 -13 562 560 _sc
562 296 _m
562 252 _l
149 252 _l
153 190 171 142 205 110 _c
238 78 284 62 344 62 _c
378 62 412 66 444 74 _c
476 82 509 95 541 113 _c
541 28 _l
509 14 476 3 442 -3 _c
408 -9 373 -13 339 -13 _c
251 -13 182 12 131 62 _c
80 112 55 181 55 268 _c
55 357 79 428 127 481 _c
175 533 241 560 323 560 _c
397 560 455 536 498 489 _c
}_e{540 441 562 377 562 296 _c
472 322 _m
471 371 457 410 431 440 _c
404 469 368 484 324 484 _c
274 484 234 469 204 441 _c
174 413 156 373 152 322 _c
472 322 _l
_cl}_e}_d
/f{352 0 23 0 371 760 _sc
371 760 _m
371 685 _l
285 685 _l
253 685 230 678 218 665 _c
205 652 199 629 199 595 _c
199 547 _l
347 547 _l
347 477 _l
199 477 _l
199 0 _l
109 0 _l
109 477 _l
23 477 _l
23 547 _l
109 547 _l
109 585 _l
109 645 123 690 151 718 _c
179 746 224 760 286 760 _c
371 760 _l
_cl}_d
/g{{635 0 55 -207 544 560 _sc
454 280 _m
454 344 440 395 414 431 _c
387 467 349 485 301 485 _c
253 485 215 467 188 431 _c
161 395 148 344 148 280 _c
148 215 161 165 188 129 _c
215 93 253 75 301 75 _c
349 75 387 93 414 129 _c
440 165 454 215 454 280 _c
544 68 _m
544 -24 523 -93 482 -139 _c
440 -184 377 -207 292 -207 _c
260 -207 231 -204 203 -200 _c
175 -195 147 -188 121 -178 _c
}_e{121 -91 _l
147 -105 173 -115 199 -122 _c
225 -129 251 -133 278 -133 _c
336 -133 380 -117 410 -87 _c
439 -56 454 -10 454 52 _c
454 96 _l
435 64 411 40 382 24 _c
353 8 319 0 279 0 _c
211 0 157 25 116 76 _c
75 127 55 195 55 280 _c
55 364 75 432 116 483 _c
157 534 211 560 279 560 _c
319 560 353 552 382 536 _c
411 520 435 496 454 464 _c
454 547 _l
544 547 _l
}_e{544 68 _l
_cl}_e}_d
/h{634 0 91 0 549 760 _sc
549 330 _m
549 0 _l
459 0 _l
459 327 _l
459 379 448 417 428 443 _c
408 469 378 482 338 482 _c
289 482 251 466 223 435 _c
195 404 181 362 181 309 _c
181 0 _l
91 0 _l
91 760 _l
181 760 _l
181 462 _l
202 494 227 519 257 535 _c
286 551 320 560 358 560 _c
420 560 468 540 500 501 _c
532 462 549 405 549 330 _c
_cl}_d
/i{278 0 94 0 184 760 _sc
94 547 _m
184 547 _l
184 0 _l
94 0 _l
94 547 _l
94 760 _m
184 760 _l
184 646 _l
94 646 _l
94 760 _l
_cl}_d
/k{579 0 91 0 576 760 _sc
91 760 _m
181 760 _l
181 311 _l
449 547 _l
564 547 _l
274 291 _l
576 0 _l
459 0 _l
181 267 _l
181 0 _l
91 0 _l
91 760 _l
_cl}_d
/l{278 0 94 0 184 760 _sc
94 760 _m
184 760 _l
184 0 _l
94 0 _l
94 760 _l
_cl}_d
/m{{974 0 91 0 889 560 _sc
520 442 _m
542 482 569 511 600 531 _c
631 550 668 560 711 560 _c
767 560 811 540 842 500 _c
873 460 889 403 889 330 _c
889 0 _l
799 0 _l
799 327 _l
799 379 789 418 771 444 _c
752 469 724 482 686 482 _c
639 482 602 466 575 435 _c
548 404 535 362 535 309 _c
535 0 _l
445 0 _l
445 327 _l
445 379 435 418 417 444 _c
398 469 369 482 331 482 _c
}_e{285 482 248 466 221 435 _c
194 404 181 362 181 309 _c
181 0 _l
91 0 _l
91 547 _l
181 547 _l
181 462 _l
201 495 226 520 255 536 _c
283 552 317 560 357 560 _c
397 560 430 550 458 530 _c
486 510 506 480 520 442 _c
_cl}_e}_d
/n{634 0 91 0 549 560 _sc
549 330 _m
549 0 _l
459 0 _l
459 327 _l
459 379 448 417 428 443 _c
408 469 378 482 338 482 _c
289 482 251 466 223 435 _c
195 404 181 362 181 309 _c
181 0 _l
91 0 _l
91 547 _l
181 547 _l
181 462 _l
202 494 227 519 257 535 _c
286 551 320 560 358 560 _c
420 560 468 540 500 501 _c
532 462 549 405 549 330 _c
_cl}_d
/o{612 0 55 -13 557 560 _sc
306 484 _m
258 484 220 465 192 427 _c
164 389 150 338 150 273 _c
150 207 163 156 191 118 _c
219 80 257 62 306 62 _c
354 62 392 80 420 118 _c
448 156 462 207 462 273 _c
462 337 448 389 420 427 _c
392 465 354 484 306 484 _c
306 560 _m
384 560 445 534 490 484 _c
534 433 557 363 557 273 _c
557 183 534 113 490 63 _c
445 12 384 -13 306 -13 _c
227 -13 165 12 121 63 _c
77 113 55 183 55 273 _c
55 363 77 433 121 484 _c
165 534 227 560 306 560 _c
_cl}_d
/p{{635 0 91 -207 580 560 _sc
181 82 _m
181 -207 _l
91 -207 _l
91 547 _l
181 547 _l
181 464 _l
199 496 223 520 252 536 _c
281 552 316 560 356 560 _c
422 560 476 533 518 481 _c
559 428 580 359 580 273 _c
580 187 559 117 518 65 _c
476 13 422 -13 356 -13 _c
316 -13 281 -5 252 10 _c
223 25 199 49 181 82 _c
487 273 _m
487 339 473 390 446 428 _c
418 466 381 485 334 485 _c
}_e{286 485 249 466 222 428 _c
194 390 181 339 181 273 _c
181 207 194 155 222 117 _c
249 79 286 61 334 61 _c
381 61 418 79 446 117 _c
473 155 487 207 487 273 _c
_cl}_e}_d
/r{411 0 91 0 411 560 _sc
411 463 _m
401 469 390 473 378 476 _c
366 478 353 480 339 480 _c
288 480 249 463 222 430 _c
194 397 181 350 181 288 _c
181 0 _l
91 0 _l
91 547 _l
181 547 _l
181 462 _l
199 495 224 520 254 536 _c
284 552 321 560 365 560 _c
371 560 378 559 386 559 _c
393 558 401 557 411 555 _c
411 463 _l
_cl}_d
/s{{521 0 54 -13 472 560 _sc
443 531 _m
443 446 _l
417 458 391 468 364 475 _c
336 481 308 485 279 485 _c
234 485 200 478 178 464 _c
156 450 145 430 145 403 _c
145 382 153 366 169 354 _c
185 342 217 330 265 320 _c
296 313 _l
360 299 405 279 432 255 _c
458 230 472 195 472 151 _c
472 100 452 60 412 31 _c
372 1 316 -13 246 -13 _c
216 -13 186 -10 154 -5 _c
}_e{122 0 89 8 54 20 _c
54 113 _l
87 95 120 82 152 74 _c
184 65 216 61 248 61 _c
290 61 323 68 346 82 _c
368 96 380 117 380 144 _c
380 168 371 187 355 200 _c
339 213 303 226 247 238 _c
216 245 _l
160 257 119 275 95 299 _c
70 323 58 356 58 399 _c
58 450 76 490 112 518 _c
148 546 200 560 268 560 _c
301 560 332 557 362 552 _c
391 547 418 540 443 531 _c
}_e{_cl}_e}_d
/t{392 0 27 0 368 702 _sc
183 702 _m
183 547 _l
368 547 _l
368 477 _l
183 477 _l
183 180 _l
183 135 189 106 201 94 _c
213 81 238 75 276 75 _c
368 75 _l
368 0 _l
276 0 _l
206 0 158 13 132 39 _c
106 65 93 112 93 180 _c
93 477 _l
27 477 _l
27 547 _l
93 547 _l
93 702 _l
183 702 _l
_cl}_d
/u{634 0 85 -13 543 560 _sc
85 216 _m
85 547 _l
175 547 _l
175 219 _l
175 167 185 129 205 103 _c
225 77 255 64 296 64 _c
344 64 383 79 411 110 _c
439 141 453 183 453 237 _c
453 547 _l
543 547 _l
543 0 _l
453 0 _l
453 84 _l
431 50 405 26 377 10 _c
348 -5 315 -13 277 -13 _c
214 -13 166 6 134 45 _c
101 83 85 140 85 216 _c
311 560 _m
311 560 _l
_cl}_d
/v{592 0 30 0 562 547 _sc
30 547 _m
125 547 _l
296 88 _l
467 547 _l
562 547 _l
357 0 _l
235 0 _l
30 547 _l
_cl}_d
/bar{337 0 127 -235 210 764 _sc
210 764 _m
210 -235 _l
127 -235 _l
127 764 _l
210 764 _l
_cl}_d
end readonly def

/BuildGlyph
 {exch begin
 CharStrings exch
 2 copy known not{pop /.notdef}if
 true 3 1 roll get exec
 end}_d

/BuildChar {
 1 index /Encoding get exch get
 1 index /BuildGlyph get exec
}_d

FontName currentdict end definefont pop
end
%%EndProlog
mpldict begin
18 180 translate
576 432 0 0 clipbox
gsave
0 0 m
576 0 l
576 432 l
0 432 l
cl
1.000 setgray
fill
grestore
gsave
72 43.2 m
518.4 43.2 l
518.4 388.8 l
72 388.8 l
cl
1.000 setgray
fill
grestore
1.000 setlinewidth
1 setlinejoin
2 setlinecap
[] 0 setdash
0.000 0.000 1.000 setrgbcolor
gsave
446.4 345.6 72 43.2 clipbox
72 386.986 m
72.4464 58.2196 l
stroke
grestore
0.000 0.500 0.000 setrgbcolor
gsave
446.4 345.6 72 43.2 clipbox
72 386.986 m
72.4464 60.1834 l
stroke
grestore
1.000 0.000 0.000 setrgbcolor
gsave
446.4 345.6 72 43.2 clipbox
72 386.986 m
72.4464 375.517 l
72.8928 370.533 l
73.3392 367.461 l
74.232 363.558 l
75.1248 360.99 l
76.0176 359.077 l
77.3568 356.893 l
78.696 355.203 l
80.0352 353.824 l
81.8208 352.308 l
84.0528 350.763 l
86.2848 349.482 l
88.9632 348.188 l
92.088 346.916 l
96.1056 345.545 l
100.57 344.268 l
105.926 342.977 l
112.176 341.708 l
119.765 340.41 l
128.693 339.126 l
138.96 337.878 l
151.013 336.639 l
165.298 335.395 l
182.261 334.145 l
202.349 332.895 l
226.008 331.649 l
254.131 330.398 l
287.165 329.156 l
326.448 327.907 l
372.874 326.661 l
427.781 325.417 l
492.509 324.178 l
518.4 323.735 l
518.4 323.735 l
stroke
grestore
0.000 0.750 0.750 setrgbcolor
gsave
446.4 345.6 72 43.2 clipbox
72 386.986 m
72.4464 380.076 l
72.8928 376.152 l
73.3392 374.466 l
73.7856 373.907 l
74.232 371.346 l
74.6784 371.137 l
75.1248 369.157 l
75.5712 368.871 l
76.0176 367.4 l
76.464 367.018 l
76.9104 365.91 l
77.3568 365.464 l
77.8032 364.61 l
78.2496 364.131 l
79.1424 362.965 l
80.4816 361.468 l
81.8208 360.135 l
83.16 359.049 l
83.6064 358.614 l
84.0528 358.352 l
84.4992 357.932 l
84.9456 357.7 l
85.392 357.295 l
85.8384 357.088 l
86.2848 356.696 l
86.7312 356.512 l
87.1776 356.133 l
87.624 355.967 l
88.0704 355.602 l
88.5168 355.45 l
88.9632 355.097 l
89.4096 354.959 l
89.856 354.618 l
90.3024 354.491 l
90.7488 354.162 l
91.1952 354.043 l
91.6416 353.726 l
92.088 353.615 l
92.5344 353.309 l
92.9808 353.205 l
93.4272 352.909 l
93.8736 352.811 l
94.32 352.525 l
94.7664 352.432 l
95.2128 352.156 l
95.6592 352.067 l
96.1056 351.8 l
96.552 351.715 l
96.9984 351.456 l
97.4448 351.375 l
97.8912 351.125 l
98.3376 351.046 l
98.784 350.804 l
99.2304 350.728 l
99.6768 350.494 l
100.123 350.42 l
100.57 350.193 l
101.016 350.122 l
101.462 349.901 l
101.909 349.832 l
102.355 349.617 l
102.802 349.55 l
103.248 349.342 l
103.694 349.277 l
104.141 349.074 l
104.587 349.01 l
105.034 348.814 l
105.48 348.751 l
105.926 348.56 l
106.373 348.499 l
106.819 348.313 l
107.266 348.253 l
107.712 348.072 l
108.158 348.013 l
109.051 347.779 l
109.944 347.55 l
111.283 347.163 l
112.622 346.895 l
113.962 346.535 l
115.301 346.282 l
116.64 345.945 l
117.979 345.706 l
119.318 345.389 l
120.658 345.163 l
121.997 344.865 l
123.336 344.65 l
124.675 344.368 l
126.014 344.163 l
127.354 343.895 l
128.693 343.7 l
130.032 343.446 l
131.371 343.259 l
132.71 343.017 l
134.942 342.701 l
137.174 342.344 l
139.406 342.049 l
141.638 341.717 l
143.87 341.44 l
146.102 341.13 l
148.334 340.869 l
150.566 340.579 l
153.691 340.229 l
156.816 339.86 l
159.941 339.536 l
163.066 339.195 l
167.083 338.806 l
171.101 338.409 l
176.011 337.972 l
180.475 337.585 l
185.386 337.17 l
192.082 336.655 l
197.885 336.222 l
207.259 335.586 l
214.848 335.1 l
230.472 334.363 l
230.918 334.496 l
231.365 334.77 l
231.811 335.241 l
232.258 336.004 l
232.704 337.101 l
233.597 340.251 l
234.49 343.385 l
234.936 344.051 l
235.382 343.744 l
236.275 341.54 l
236.722 341.032 l
237.168 341.492 l
237.614 342.525 l
238.061 343.139 l
238.507 342.585 l
239.4 339.824 l
239.846 339.654 l
240.293 340.386 l
240.739 340.805 l
241.186 340.14 l
241.632 339.079 l
242.078 338.9 l
242.525 339.697 l
242.971 340.204 l
243.418 339.486 l
243.864 338.442 l
244.31 338.366 l
244.757 338.995 l
245.203 338.881 l
245.65 337.904 l
246.096 337.495 l
246.542 338.158 l
246.989 338.51 l
247.882 337.163 l
248.328 337.586 l
248.774 337.821 l
249.221 337.002 l
249.667 336.419 l
250.114 336.924 l
250.56 337.183 l
251.006 336.481 l
251.453 336.207 l
251.899 336.767 l
252.346 336.628 l
252.792 335.77 l
253.238 335.742 l
253.685 336.202 l
254.578 335.247 l
255.024 335.714 l
255.47 335.828 l
255.917 335.073 l
256.363 335.003 l
256.81 335.388 l
257.702 334.473 l
258.149 334.965 l
258.595 334.881 l
259.042 334.241 l
259.934 334.596 l
260.381 333.936 l
260.827 333.932 l
261.274 334.335 l
261.72 333.847 l
262.166 333.591 l
262.613 333.974 l
263.506 333.169 l
263.952 333.589 l
264.398 333.411 l
264.845 332.959 l
265.291 333.302 l
265.738 333.134 l
266.184 332.597 l
266.63 332.901 l
267.077 332.872 l
267.523 332.387 l
267.97 332.68 l
268.416 332.609 l
268.862 332.075 l
269.309 332.336 l
269.755 332.305 l
270.202 331.845 l
270.648 332.141 l
271.094 332.02 l
271.541 331.55 l
271.987 331.844 l
272.434 331.705 l
272.88 331.342 l
273.326 331.672 l
274.219 331.07 l
274.666 331.383 l
275.112 331.066 l
275.558 330.908 l
276.005 331.196 l
276.451 330.741 l
276.898 330.685 l
277.344 330.879 l
277.79 330.442 l
278.683 330.613 l
279.13 330.148 l
279.576 330.376 l
280.022 330.253 l
280.469 329.952 l
280.915 330.234 l
281.362 329.906 l
281.808 329.746 l
282.254 329.982 l
282.701 329.581 l
283.594 329.697 l
284.04 329.275 l
284.486 329.5 l
285.379 329.113 l
285.826 329.356 l
286.272 328.968 l
286.718 328.958 l
287.165 329.075 l
287.611 328.695 l
288.058 328.88 l
288.95 328.463 l
289.397 328.715 l
289.843 328.371 l
290.736 328.422 l
291.182 328.056 l
291.629 328.279 l
292.522 327.908 l
292.968 328.077 l
293.414 327.7 l
293.861 327.829 l
294.307 327.777 l
294.754 327.485 l
295.2 327.684 l
295.646 327.378 l
296.539 327.443 l
296.986 327.088 l
297.432 327.28 l
297.878 327.05 l
298.325 326.968 l
298.771 327.077 l
299.218 326.713 l
299.664 326.871 l
300.557 326.589 l
301.003 326.622 l
301.45 326.371 l
301.896 326.491 l
302.789 326.213 l
303.235 326.314 l
303.682 326.025 l
304.128 326.1 l
304.574 326.041 l
305.021 325.792 l
305.467 325.982 l
305.914 325.627 l
306.36 325.777 l
307.253 325.459 l
307.699 325.583 l
308.146 325.3 l
308.592 325.395 l
309.485 325.091 l
309.931 325.247 l
310.378 324.926 l
310.824 325.065 l
311.717 324.785 l
312.163 324.876 l
312.61 324.581 l
313.056 324.716 l
313.502 324.513 l
314.395 324.512 l
314.842 324.23 l
315.288 324.398 l
315.734 324.148 l
316.627 324.124 l
317.074 323.919 l
317.52 324.072 l
317.966 323.792 l
318.413 323.876 l
319.306 323.636 l
319.752 323.729 l
320.198 323.444 l
320.645 323.584 l
321.091 323.381 l
321.984 323.356 l
322.43 323.135 l
322.877 323.287 l
323.323 323.025 l
323.77 323.099 l
324.662 322.876 l
325.109 322.956 l
325.555 322.691 l
326.002 322.826 l
326.448 322.617 l
327.341 322.585 l
327.787 322.409 l
328.234 322.537 l
328.68 322.276 l
329.126 322.381 l
329.573 322.211 l
330.466 322.191 l
330.912 321.979 l
331.358 322.108 l
331.805 321.873 l
332.251 321.954 l
333.144 321.747 l
333.59 321.795 l
334.037 321.571 l
334.483 321.696 l
334.93 321.469 l
335.376 321.545 l
336.269 321.338 l
336.715 321.392 l
337.162 321.18 l
337.608 321.294 l
338.054 321.073 l
338.501 321.145 l
339.394 320.947 l
339.84 320.995 l
340.286 320.794 l
340.733 320.911 l
341.179 320.682 l
341.626 320.765 l
342.518 320.579 l
342.965 320.6 l
343.411 320.423 l
343.858 320.531 l
344.304 320.304 l
344.75 320.395 l
345.643 320.225 l
346.09 320.213 l
346.536 320.061 l
346.982 320.16 l
347.429 319.934 l
347.875 320.041 l
348.322 319.872 l
349.214 319.825 l
349.661 319.721 l
350.107 319.786 l
350.554 319.582 l
351 319.689 l
351.446 319.5 l
351.893 319.559 l
352.786 319.395 l
353.232 319.413 l
353.678 319.246 l
354.125 319.34 l
354.571 319.139 l
355.018 319.237 l
355.464 319.067 l
356.357 319.034 l
356.803 318.935 l
357.25 318.98 l
357.696 318.808 l
358.142 318.908 l
358.589 318.71 l
359.035 318.786 l
359.928 318.641 l
361.267 318.568 l
361.714 318.376 l
362.16 318.482 l
362.606 318.302 l
363.053 318.359 l
363.946 318.224 l
364.392 318.208 l
364.838 318.08 l
365.285 318.154 l
365.731 317.976 l
366.178 318.066 l
366.624 317.894 l
367.07 317.954 l
367.963 317.813 l
368.41 317.808 l
368.856 317.687 l
369.302 317.75 l
369.749 317.577 l
370.195 317.676 l
370.642 317.498 l
371.088 317.561 l
371.981 317.436 l
373.32 317.361 l
373.766 317.196 l
374.213 317.287 l
374.659 317.12 l
375.106 317.187 l
375.552 317.058 l
376.445 317.02 l
377.784 316.836 l
378.23 316.912 l
378.677 316.743 l
379.123 316.833 l
379.57 316.679 l
380.016 316.721 l
380.909 316.605 l
382.248 316.546 l
382.694 316.389 l
383.141 316.476 l
383.587 316.319 l
384.034 316.383 l
384.48 316.261 l
385.373 316.221 l
386.712 316.06 l
387.158 316.125 l
387.605 315.972 l
388.051 316.057 l
388.498 315.901 l
388.944 315.963 l
389.837 315.852 l
392.069 315.582 l
392.515 315.332 l
392.962 315.257 l
394.301 314.13 l
395.194 313.047 l
396.086 311.94 l
396.533 311.469 l
397.426 311.278 l
397.872 311.553 l
398.765 311.677 l
399.211 311.287 l
399.658 310.708 l
400.55 309.173 l
400.997 308.839 l
401.443 308.844 l
402.336 309.693 l
402.782 310.025 l
403.675 309.764 l
404.122 309.66 l
405.014 310.338 l
405.461 310.452 l
405.907 310.085 l
406.354 309.346 l
406.8 308.837 l
407.246 308.636 l
407.693 308.993 l
408.586 309.098 l
409.032 308.74 l
409.478 308.802 l
410.371 309.45 l
410.818 309.302 l
411.71 308.29 l
412.157 308.219 l
412.603 308.525 l
413.05 308.425 l
413.942 307.859 l
414.835 308.43 l
415.282 308.418 l
415.728 307.907 l
416.174 307.699 l
417.067 308.038 l
417.514 307.788 l
417.96 307.293 l
418.406 307.337 l
419.299 307.582 l
419.746 307.107 l
420.192 307.079 l
421.085 307.537 l
421.978 306.739 l
422.87 306.887 l
423.763 306.297 l
424.656 306.806 l
425.102 306.703 l
425.549 306.168 l
426.442 306.269 l
426.888 306.11 l
427.334 305.695 l
428.227 306.139 l
428.674 305.933 l
429.12 305.572 l
429.566 305.623 l
430.013 305.809 l
430.459 305.407 l
430.906 305.183 l
431.798 305.455 l
432.245 305.013 l
432.691 304.97 l
433.138 305.162 l
433.584 305.175 l
434.03 304.682 l
434.477 304.638 l
434.923 304.787 l
435.816 304.318 l
436.709 304.716 l
437.155 304.257 l
437.602 304.15 l
438.048 304.252 l
438.494 304.19 l
438.941 303.804 l
439.387 304.057 l
439.834 304.136 l
440.726 303.668 l
441.173 303.923 l
441.619 303.753 l
442.066 303.42 l
442.958 303.673 l
443.405 303.402 l
443.851 303.286 l
444.298 303.572 l
444.744 303.242 l
445.19 303.054 l
446.083 303.221 l
446.53 302.857 l
446.976 303.068 l
447.422 303.127 l
447.869 302.754 l
448.315 302.603 l
448.762 302.84 l
449.654 302.463 l
450.101 302.734 l
451.44 302.321 l
451.886 302.442 l
452.333 302.048 l
453.226 302.239 l
454.118 301.884 l
454.565 302.075 l
455.011 301.742 l
455.458 301.64 l
455.904 301.873 l
456.797 301.487 l
457.243 301.604 l
457.69 301.466 l
458.136 301.143 l
458.582 301.447 l
459.029 301.33 l
459.475 301.084 l
460.368 301.148 l
460.814 300.742 l
461.261 300.947 l
461.707 300.931 l
462.154 300.638 l
463.046 300.754 l
463.493 300.388 l
464.386 300.536 l
464.832 300.192 l
465.725 300.287 l
466.171 299.975 l
466.618 299.924 l
467.064 300.118 l
467.51 299.751 l
467.957 299.849 l
468.403 299.807 l
468.85 299.512 l
469.296 299.496 l
469.742 299.633 l
470.189 299.286 l
471.082 299.361 l
471.528 299.026 l
472.421 299.081 l
472.867 298.82 l
473.76 298.901 l
474.206 298.507 l
474.653 298.672 l
475.546 298.368 l
475.992 298.445 l
476.438 298.343 l
476.885 298.011 l
477.331 298.227 l
478.224 297.882 l
478.67 297.982 l
479.563 297.599 l
480.01 297.722 l
480.456 297.459 l
480.902 297.394 l
481.349 297.51 l
481.795 297.135 l
482.242 297.193 l
482.688 297.137 l
483.134 296.926 l
484.027 296.935 l
484.474 296.563 l
484.92 296.755 l
485.813 296.43 l
486.259 296.498 l
487.152 296.12 l
487.598 296.248 l
488.045 295.949 l
488.938 295.963 l
489.384 295.621 l
489.83 295.726 l
490.723 295.417 l
491.17 295.49 l
492.062 295.076 l
492.509 295.26 l
492.955 294.935 l
493.848 294.9 l
494.294 294.645 l
495.187 294.638 l
495.634 294.355 l
496.08 294.486 l
496.526 294.227 l
496.973 294.118 l
497.419 294.203 l
497.866 293.906 l
498.312 293.939 l
498.758 293.854 l
499.205 293.59 l
499.651 293.665 l
500.098 293.562 l
500.544 293.324 l
500.99 293.46 l
501.437 293.095 l
502.33 293.111 l
502.776 292.86 l
503.669 292.773 l
504.115 292.529 l
504.562 292.688 l
505.008 292.373 l
505.901 292.322 l
506.347 292.036 l
506.794 292.14 l
507.686 291.785 l
508.133 291.841 l
508.579 291.598 l
509.472 291.586 l
509.918 291.219 l
510.365 291.365 l
510.811 291.138 l
513.043 290.755 l
513.49 290.465 l
513.936 290.611 l
514.382 290.312 l
515.275 290.264 l
515.722 290.012 l
516.168 290.058 l
517.061 289.709 l
517.507 289.799 l
517.954 289.551 l
518.4 289.501 l
518.4 289.501 l
stroke
grestore
0.750 0.000 0.750 setrgbcolor
gsave
446.4 345.6 72 43.2 clipbox
72 386.986 m
72.4464 378.954 l
72.8928 373.892 l
73.3392 370.703 l
74.6784 364.694 l
75.5712 361.633 l
76.464 359.108 l
77.8032 355.975 l
79.1424 353.417 l
80.928 350.566 l
82.7136 348.173 l
84.9456 345.638 l
85.392 345.174 l
87.624 343.911 l
89.856 342.393 l
92.5344 340.285 l
96.552 337.083 l
97.8912 336.252 l
98.784 335.855 l
101.016 335.319 l
104.141 334.082 l
109.051 332.161 l
112.622 331.047 l
118.872 329.556 l
124.229 328.368 l
131.371 327.231 l
139.406 325.88 l
151.906 324.237 l
159.941 323.392 l
172.44 322.103 l
185.386 321.051 l
206.366 319.52 l
214.402 319.028 l
234.936 317.863 l
260.381 316.625 l
272.434 316.101 l
285.379 315.572 l
301.896 314.958 l
321.984 314.303 l
368.856 312.957 l
418.406 311.809 l
516.614 310.163 l
518.4 310.139 l
518.4 310.139 l
stroke
grestore
0.500 setlinewidth
0 setlinecap
[1 3] 0 setdash
0.000 setgray
gsave
446.4 345.6 72 43.2 clipbox
72 43.2 m
72 388.8 l
stroke
grestore
[] 0 setdash
gsave
/o {
gsave
newpath
translate
0.5 setlinewidth
1 setlinejoin
0 setlinecap
0 0 m
0 4 l
gsave
0.000 setgray
fill
grestore
stroke
grestore
} bind def
72 43.2 o
grestore
gsave
/o {
gsave
newpath
translate
0.5 setlinewidth
1 setlinejoin
0 setlinecap
0 0 m
0 -4 l
gsave
0.000 setgray
fill
grestore
stroke
grestore
} bind def
72 388.8 o
grestore
/DejaVuSans findfont
12.000 scalefont
setfont
gsave
68.976562 30.121875 translate
0.000000 rotate
0.000000 0.171875 m /zero glyphshow
grestore
[1 3] 0 setdash
gsave
446.4 345.6 72 43.2 clipbox
161.28 43.2 m
161.28 388.8 l
stroke
grestore
[] 0 setdash
gsave
/o {
gsave
newpath
translate
0.5 setlinewidth
1 setlinejoin
0 setlinecap
0 0 m
0 4 l
gsave
0.000 setgray
fill
grestore
stroke
grestore
} bind def
161.28 43.2 o
grestore
gsave
/o {
gsave
newpath
translate
0.5 setlinewidth
1 setlinejoin
0 setlinecap
0 0 m
0 -4 l
gsave
0.000 setgray
fill
grestore
stroke
grestore
} bind def
161.28 388.8 o
grestore
gsave
150.655000 30.121875 translate
0.000000 rotate
0.000000 0.171875 m /two glyphshow
7.634766 0.171875 m /zero glyphshow
15.269531 0.171875 m /zero glyphshow
grestore
[1 3] 0 setdash
gsave
446.4 345.6 72 43.2 clipbox
250.56 43.2 m
250.56 388.8 l
stroke
grestore
[] 0 setdash
gsave
/o {
gsave
newpath
translate
0.5 setlinewidth
1 setlinejoin
0 setlinecap
0 0 m
0 4 l
gsave
0.000 setgray
fill
grestore
stroke
grestore
} bind def
250.56 43.2 o
grestore
gsave
/o {
gsave
newpath
translate
0.5 setlinewidth
1 setlinejoin
0 setlinecap
0 0 m
0 -4 l
gsave
0.000 setgray
fill
grestore
stroke
grestore
} bind def
250.56 388.8 o
grestore
gsave
239.794375 30.121875 translate
0.000000 rotate
0.000000 0.171875 m /four glyphshow
7.634766 0.171875 m /zero glyphshow
15.269531 0.171875 m /zero glyphshow
grestore
[1 3] 0 setdash
gsave
446.4 345.6 72 43.2 clipbox
339.84 43.2 m
339.84 388.8 l
stroke
grestore
[] 0 setdash
gsave
/o {
gsave
newpath
translate
0.5 setlinewidth
1 setlinejoin
0 setlinecap
0 0 m
0 4 l
gsave
0.000 setgray
fill
grestore
stroke
grestore
} bind def
339.84 43.2 o
grestore
gsave
/o {
gsave
newpath
translate
0.5 setlinewidth
1 setlinejoin
0 setlinecap
0 0 m
0 -4 l
gsave
0.000 setgray
fill
grestore
stroke
grestore
} bind def
339.84 388.8 o
grestore
gsave
329.199375 30.121875 translate
0.000000 rotate
0.000000 0.171875 m /six glyphshow
7.634766 0.171875 m /zero glyphshow
15.269531 0.171875 m /zero glyphshow
grestore
[1 3] 0 setdash
gsave
446.4 345.6 72 43.2 clipbox
429.12 43.2 m
429.12 388.8 l
stroke
grestore
[] 0 setdash
gsave
/o {
gsave
newpath
translate
0.5 setlinewidth
1 setlinejoin
0 setlinecap
0 0 m
0 4 l
gsave
0.000 setgray
fill
grestore
stroke
grestore
} bind def
429.12 43.2 o
grestore
gsave
/o {
gsave
newpath
translate
0.5 setlinewidth
1 setlinejoin
0 setlinecap
0 0 m
0 -4 l
gsave
0.000 setgray
fill
grestore
stroke
grestore
} bind def
429.12 388.8 o
grestore
gsave
418.463750 30.121875 translate
0.000000 rotate
0.000000 0.171875 m /eight glyphshow
7.634766 0.171875 m /zero glyphshow
15.269531 0.171875 m /zero glyphshow
grestore
[1 3] 0 setdash
gsave
446.4 345.6 72 43.2 clipbox
518.4 43.2 m
518.4 388.8 l
stroke
grestore
[] 0 setdash
gsave
/o {
gsave
newpath
translate
0.5 setlinewidth
1 setlinejoin
0 setlinecap
0 0 m
0 4 l
gsave
0.000 setgray
fill
grestore
stroke
grestore
} bind def
518.4 43.2 o
grestore
gsave
/o {
gsave
newpath
translate
0.5 setlinewidth
1 setlinejoin
0 setlinecap
0 0 m
0 -4 l
gsave
0.000 setgray
fill
grestore
stroke
grestore
} bind def
518.4 388.8 o
grestore
gsave
504.173437 30.121875 translate
0.000000 rotate
0.000000 0.171875 m /one glyphshow
7.634766 0.171875 m /zero glyphshow
15.269531 0.171875 m /zero glyphshow
22.904297 0.171875 m /zero glyphshow
grestore
gsave
253.739062 15.825000 translate
0.000000 rotate
0.000000 0.171875 m /K glyphshow
7.869141 0.171875 m /S glyphshow
15.486328 0.171875 m /P glyphshow
22.722656 0.171875 m /space glyphshow
26.537109 0.171875 m /i glyphshow
29.871094 0.171875 m /t glyphshow
34.576172 0.171875 m /e glyphshow
41.958984 0.171875 m /r glyphshow
46.892578 0.171875 m /a glyphshow
54.246094 0.171875 m /t glyphshow
58.951172 0.171875 m /i glyphshow
62.285156 0.171875 m /o glyphshow
69.626953 0.171875 m /n glyphshow
77.232422 0.171875 m /s glyphshow
grestore
[1 3] 0 setdash
gsave
446.4 345.6 72 43.2 clipbox
72 43.2 m
518.4 43.2 l
stroke
grestore
[] 0 setdash
gsave
/o {
gsave
newpath
translate
0.5 setlinewidth
1 setlinejoin
0 setlinecap
0 0 m
4 0 l
gsave
0.000 setgray
fill
grestore
stroke
grestore
} bind def
72 43.2 o
grestore
gsave
/o {
gsave
newpath
translate
0.5 setlinewidth
1 setlinejoin
0 setlinecap
0 0 m
-4 0 l
gsave
0.000 setgray
fill
grestore
stroke
grestore
} bind def
518.4 43.2 o
grestore
gsave
37.000000 35.700000 translate
0.000000 rotate
/DejaVuSans findfont
12.0 scalefont
setfont
0.000000 1.828125 moveto
/one glyphshow

7.634766 1.828125 moveto
/zero glyphshow

/DejaVuSans findfont
8.4 scalefont
setfont
15.269531 8.765625 moveto
/hyphen glyphshow

18.300586 8.765625 moveto
/one glyphshow

23.644922 8.765625 moveto
/three glyphshow


grestore
[1 3] 0 setdash
gsave
446.4 345.6 72 43.2 clipbox
72 66.24 m
518.4 66.24 l
stroke
grestore
[] 0 setdash
gsave
/o {
gsave
newpath
translate
0.5 setlinewidth
1 setlinejoin
0 setlinecap
0 0 m
4 0 l
gsave
0.000 setgray
fill
grestore
stroke
grestore
} bind def
72 66.24 o
grestore
gsave
/o {
gsave
newpath
translate
0.5 setlinewidth
1 setlinejoin
0 setlinecap
0 0 m
-4 0 l
gsave
0.000 setgray
fill
grestore
stroke
grestore
} bind def
518.4 66.24 o
grestore
gsave
37.000000 58.740000 translate
0.000000 rotate
/DejaVuSans findfont
12.0 scalefont
setfont
0.000000 1.828125 moveto
/one glyphshow

7.634766 1.828125 moveto
/zero glyphshow

/DejaVuSans findfont
8.4 scalefont
setfont
15.269531 8.765625 moveto
/hyphen glyphshow

18.300586 8.765625 moveto
/one glyphshow

23.644922 8.765625 moveto
/two glyphshow


grestore
[1 3] 0 setdash
gsave
446.4 345.6 72 43.2 clipbox
72 89.28 m
518.4 89.28 l
stroke
grestore
[] 0 setdash
gsave
/o {
gsave
newpath
translate
0.5 setlinewidth
1 setlinejoin
0 setlinecap
0 0 m
4 0 l
gsave
0.000 setgray
fill
grestore
stroke
grestore
} bind def
72 89.28 o
grestore
gsave
/o {
gsave
newpath
translate
0.5 setlinewidth
1 setlinejoin
0 setlinecap
0 0 m
-4 0 l
gsave
0.000 setgray
fill
grestore
stroke
grestore
} bind def
518.4 89.28 o
grestore
gsave
37.000000 81.780000 translate
0.000000 rotate
/DejaVuSans findfont
12.0 scalefont
setfont
0.000000 1.937500 moveto
/one glyphshow

7.634766 1.937500 moveto
/zero glyphshow

/DejaVuSans findfont
8.4 scalefont
setfont
15.269531 8.875000 moveto
/hyphen glyphshow

18.300586 8.875000 moveto
/one glyphshow

23.644922 8.875000 moveto
/one glyphshow


grestore
[1 3] 0 setdash
gsave
446.4 345.6 72 43.2 clipbox
72 112.32 m
518.4 112.32 l
stroke
grestore
[] 0 setdash
gsave
/o {
gsave
newpath
translate
0.5 setlinewidth
1 setlinejoin
0 setlinecap
0 0 m
4 0 l
gsave
0.000 setgray
fill
grestore
stroke
grestore
} bind def
72 112.32 o
grestore
gsave
/o {
gsave
newpath
translate
0.5 setlinewidth
1 setlinejoin
0 setlinecap
0 0 m
-4 0 l
gsave
0.000 setgray
fill
grestore
stroke
grestore
} bind def
518.4 112.32 o
grestore
gsave
37.000000 104.820000 translate
0.000000 rotate
/DejaVuSans findfont
12.0 scalefont
setfont
0.000000 1.828125 moveto
/one glyphshow

7.634766 1.828125 moveto
/zero glyphshow

/DejaVuSans findfont
8.4 scalefont
setfont
15.269531 8.765625 moveto
/hyphen glyphshow

18.300586 8.765625 moveto
/one glyphshow

23.644922 8.765625 moveto
/zero glyphshow


grestore
[1 3] 0 setdash
gsave
446.4 345.6 72 43.2 clipbox
72 135.36 m
518.4 135.36 l
stroke
grestore
[] 0 setdash
gsave
/o {
gsave
newpath
translate
0.5 setlinewidth
1 setlinejoin
0 setlinecap
0 0 m
4 0 l
gsave
0.000 setgray
fill
grestore
stroke
grestore
} bind def
72 135.36 o
grestore
gsave
/o {
gsave
newpath
translate
0.5 setlinewidth
1 setlinejoin
0 setlinecap
0 0 m
-4 0 l
gsave
0.000 setgray
fill
grestore
stroke
grestore
} bind def
518.4 135.36 o
grestore
gsave
43.000000 127.860000 translate
0.000000 rotate
/DejaVuSans findfont
12.0 scalefont
setfont
0.000000 1.828125 moveto
/one glyphshow

7.634766 1.828125 moveto
/zero glyphshow

/DejaVuSans findfont
8.4 scalefont
setfont
15.269531 8.765625 moveto
/hyphen glyphshow

18.300586 8.765625 moveto
/nine glyphshow


grestore
[1 3] 0 setdash
gsave
446.4 345.6 72 43.2 clipbox
72 158.4 m
518.4 158.4 l
stroke
grestore
[] 0 setdash
gsave
/o {
gsave
newpath
translate
0.5 setlinewidth
1 setlinejoin
0 setlinecap
0 0 m
4 0 l
gsave
0.000 setgray
fill
grestore
stroke
grestore
} bind def
72 158.4 o
grestore
gsave
/o {
gsave
newpath
translate
0.5 setlinewidth
1 setlinejoin
0 setlinecap
0 0 m
-4 0 l
gsave
0.000 setgray
fill
grestore
stroke
grestore
} bind def
518.4 158.4 o
grestore
gsave
43.000000 150.900000 translate
0.000000 rotate
/DejaVuSans findfont
12.0 scalefont
setfont
0.000000 1.828125 moveto
/one glyphshow

7.634766 1.828125 moveto
/zero glyphshow

/DejaVuSans findfont
8.4 scalefont
setfont
15.269531 8.765625 moveto
/hyphen glyphshow

18.300586 8.765625 moveto
/eight glyphshow


grestore
[1 3] 0 setdash
gsave
446.4 345.6 72 43.2 clipbox
72 181.44 m
518.4 181.44 l
stroke
grestore
[] 0 setdash
gsave
/o {
gsave
newpath
translate
0.5 setlinewidth
1 setlinejoin
0 setlinecap
0 0 m
4 0 l
gsave
0.000 setgray
fill
grestore
stroke
grestore
} bind def
72 181.44 o
grestore
gsave
/o {
gsave
newpath
translate
0.5 setlinewidth
1 setlinejoin
0 setlinecap
0 0 m
-4 0 l
gsave
0.000 setgray
fill
grestore
stroke
grestore
} bind def
518.4 181.44 o
grestore
gsave
43.000000 173.940000 translate
0.000000 rotate
/DejaVuSans findfont
12.0 scalefont
setfont
0.000000 1.937500 moveto
/one glyphshow

7.634766 1.937500 moveto
/zero glyphshow

/DejaVuSans findfont
8.4 scalefont
setfont
15.269531 8.875000 moveto
/hyphen glyphshow

18.300586 8.875000 moveto
/seven glyphshow


grestore
[1 3] 0 setdash
gsave
446.4 345.6 72 43.2 clipbox
72 204.48 m
518.4 204.48 l
stroke
grestore
[] 0 setdash
gsave
/o {
gsave
newpath
translate
0.5 setlinewidth
1 setlinejoin
0 setlinecap
0 0 m
4 0 l
gsave
0.000 setgray
fill
grestore
stroke
grestore
} bind def
72 204.48 o
grestore
gsave
/o {
gsave
newpath
translate
0.5 setlinewidth
1 setlinejoin
0 setlinecap
0 0 m
-4 0 l
gsave
0.000 setgray
fill
grestore
stroke
grestore
} bind def
518.4 204.48 o
grestore
gsave
43.000000 196.980000 translate
0.000000 rotate
/DejaVuSans findfont
12.0 scalefont
setfont
0.000000 1.828125 moveto
/one glyphshow

7.634766 1.828125 moveto
/zero glyphshow

/DejaVuSans findfont
8.4 scalefont
setfont
15.269531 8.765625 moveto
/hyphen glyphshow

18.300586 8.765625 moveto
/six glyphshow


grestore
[1 3] 0 setdash
gsave
446.4 345.6 72 43.2 clipbox
72 227.52 m
518.4 227.52 l
stroke
grestore
[] 0 setdash
gsave
/o {
gsave
newpath
translate
0.5 setlinewidth
1 setlinejoin
0 setlinecap
0 0 m
4 0 l
gsave
0.000 setgray
fill
grestore
stroke
grestore
} bind def
72 227.52 o
grestore
gsave
/o {
gsave
newpath
translate
0.5 setlinewidth
1 setlinejoin
0 setlinecap
0 0 m
-4 0 l
gsave
0.000 setgray
fill
grestore
stroke
grestore
} bind def
518.4 227.52 o
grestore
gsave
43.000000 220.020000 translate
0.000000 rotate
/DejaVuSans findfont
12.0 scalefont
setfont
0.000000 1.937500 moveto
/one glyphshow

7.634766 1.937500 moveto
/zero glyphshow

/DejaVuSans findfont
8.4 scalefont
setfont
15.269531 8.875000 moveto
/hyphen glyphshow

18.300586 8.875000 moveto
/five glyphshow


grestore
[1 3] 0 setdash
gsave
446.4 345.6 72 43.2 clipbox
72 250.56 m
518.4 250.56 l
stroke
grestore
[] 0 setdash
gsave
/o {
gsave
newpath
translate
0.5 setlinewidth
1 setlinejoin
0 setlinecap
0 0 m
4 0 l
gsave
0.000 setgray
fill
grestore
stroke
grestore
} bind def
72 250.56 o
grestore
gsave
/o {
gsave
newpath
translate
0.5 setlinewidth
1 setlinejoin
0 setlinecap
0 0 m
-4 0 l
gsave
0.000 setgray
fill
grestore
stroke
grestore
} bind def
518.4 250.56 o
grestore
gsave
43.000000 243.060000 translate
0.000000 rotate
/DejaVuSans findfont
12.0 scalefont
setfont
0.000000 1.937500 moveto
/one glyphshow

7.634766 1.937500 moveto
/zero glyphshow

/DejaVuSans findfont
8.4 scalefont
setfont
15.269531 8.875000 moveto
/hyphen glyphshow

18.300586 8.875000 moveto
/four glyphshow


grestore
[1 3] 0 setdash
gsave
446.4 345.6 72 43.2 clipbox
72 273.6 m
518.4 273.6 l
stroke
grestore
[] 0 setdash
gsave
/o {
gsave
newpath
translate
0.5 setlinewidth
1 setlinejoin
0 setlinecap
0 0 m
4 0 l
gsave
0.000 setgray
fill
grestore
stroke
grestore
} bind def
72 273.6 o
grestore
gsave
/o {
gsave
newpath
translate
0.5 setlinewidth
1 setlinejoin
0 setlinecap
0 0 m
-4 0 l
gsave
0.000 setgray
fill
grestore
stroke
grestore
} bind def
518.4 273.6 o
grestore
gsave
43.000000 266.100000 translate
0.000000 rotate
/DejaVuSans findfont
12.0 scalefont
setfont
0.000000 1.828125 moveto
/one glyphshow

7.634766 1.828125 moveto
/zero glyphshow

/DejaVuSans findfont
8.4 scalefont
setfont
15.269531 8.765625 moveto
/hyphen glyphshow

18.300586 8.765625 moveto
/three glyphshow


grestore
[1 3] 0 setdash
gsave
446.4 345.6 72 43.2 clipbox
72 296.64 m
518.4 296.64 l
stroke
grestore
[] 0 setdash
gsave
/o {
gsave
newpath
translate
0.5 setlinewidth
1 setlinejoin
0 setlinecap
0 0 m
4 0 l
gsave
0.000 setgray
fill
grestore
stroke
grestore
} bind def
72 296.64 o
grestore
gsave
/o {
gsave
newpath
translate
0.5 setlinewidth
1 setlinejoin
0 setlinecap
0 0 m
-4 0 l
gsave
0.000 setgray
fill
grestore
stroke
grestore
} bind def
518.4 296.64 o
grestore
gsave
43.000000 289.140000 translate
0.000000 rotate
/DejaVuSans findfont
12.0 scalefont
setfont
0.000000 1.828125 moveto
/one glyphshow

7.634766 1.828125 moveto
/zero glyphshow

/DejaVuSans findfont
8.4 scalefont
setfont
15.269531 8.765625 moveto
/hyphen glyphshow

18.300586 8.765625 moveto
/two glyphshow


grestore
[1 3] 0 setdash
gsave
446.4 345.6 72 43.2 clipbox
72 319.68 m
518.4 319.68 l
stroke
grestore
[] 0 setdash
gsave
/o {
gsave
newpath
translate
0.5 setlinewidth
1 setlinejoin
0 setlinecap
0 0 m
4 0 l
gsave
0.000 setgray
fill
grestore
stroke
grestore
} bind def
72 319.68 o
grestore
gsave
/o {
gsave
newpath
translate
0.5 setlinewidth
1 setlinejoin
0 setlinecap
0 0 m
-4 0 l
gsave
0.000 setgray
fill
grestore
stroke
grestore
} bind def
518.4 319.68 o
grestore
gsave
43.000000 312.180000 translate
0.000000 rotate
/DejaVuSans findfont
12.0 scalefont
setfont
0.000000 1.937500 moveto
/one glyphshow

7.634766 1.937500 moveto
/zero glyphshow

/DejaVuSans findfont
8.4 scalefont
setfont
15.269531 8.875000 moveto
/hyphen glyphshow

18.300586 8.875000 moveto
/one glyphshow


grestore
[1 3] 0 setdash
gsave
446.4 345.6 72 43.2 clipbox
72 342.72 m
518.4 342.72 l
stroke
grestore
[] 0 setdash
gsave
/o {
gsave
newpath
translate
0.5 setlinewidth
1 setlinejoin
0 setlinecap
0 0 m
4 0 l
gsave
0.000 setgray
fill
grestore
stroke
grestore
} bind def
72 342.72 o
grestore
gsave
/o {
gsave
newpath
translate
0.5 setlinewidth
1 setlinejoin
0 setlinecap
0 0 m
-4 0 l
gsave
0.000 setgray
fill
grestore
stroke
grestore
} bind def
518.4 342.72 o
grestore
gsave
46.000000 335.220000 translate
0.000000 rotate
/DejaVuSans findfont
12.0 scalefont
setfont
0.000000 1.828125 moveto
/one glyphshow

7.634766 1.828125 moveto
/zero glyphshow

/DejaVuSans findfont
8.4 scalefont
setfont
15.269531 8.765625 moveto
/zero glyphshow


grestore
[1 3] 0 setdash
gsave
446.4 345.6 72 43.2 clipbox
72 365.76 m
518.4 365.76 l
stroke
grestore
[] 0 setdash
gsave
/o {
gsave
newpath
translate
0.5 setlinewidth
1 setlinejoin
0 setlinecap
0 0 m
4 0 l
gsave
0.000 setgray
fill
grestore
stroke
grestore
} bind def
72 365.76 o
grestore
gsave
/o {
gsave
newpath
translate
0.5 setlinewidth
1 setlinejoin
0 setlinecap
0 0 m
-4 0 l
gsave
0.000 setgray
fill
grestore
stroke
grestore
} bind def
518.4 365.76 o
grestore
gsave
46.000000 358.260000 translate
0.000000 rotate
/DejaVuSans findfont
12.0 scalefont
setfont
0.000000 1.937500 moveto
/one glyphshow

7.634766 1.937500 moveto
/zero glyphshow

/DejaVuSans findfont
8.4 scalefont
setfont
15.269531 8.875000 moveto
/one glyphshow


grestore
[1 3] 0 setdash
gsave
446.4 345.6 72 43.2 clipbox
72 388.8 m
518.4 388.8 l
stroke
grestore
[] 0 setdash
gsave
/o {
gsave
newpath
translate
0.5 setlinewidth
1 setlinejoin
0 setlinecap
0 0 m
4 0 l
gsave
0.000 setgray
fill
grestore
stroke
grestore
} bind def
72 388.8 o
grestore
gsave
/o {
gsave
newpath
translate
0.5 setlinewidth
1 setlinejoin
0 setlinecap
0 0 m
-4 0 l
gsave
0.000 setgray
fill
grestore
stroke
grestore
} bind def
518.4 388.8 o
grestore
gsave
46.000000 381.300000 translate
0.000000 rotate
/DejaVuSans findfont
12.0 scalefont
setfont
0.000000 1.828125 moveto
/one glyphshow

7.634766 1.828125 moveto
/zero glyphshow

/DejaVuSans findfont
8.4 scalefont
setfont
15.269531 8.765625 moveto
/two glyphshow


grestore
gsave
/o {
gsave
newpath
translate
0.5 setlinewidth
1 setlinejoin
0 setlinecap
0 0 m
2 0 l
gsave
0.000 setgray
fill
grestore
stroke
grestore
} bind def
72 43.2 o
grestore
gsave
/o {
gsave
newpath
translate
0.5 setlinewidth
1 setlinejoin
0 setlinecap
0 0 m
-2 0 l
gsave
0.000 setgray
fill
grestore
stroke
grestore
} bind def
518.4 43.2 o
grestore
gsave
/o {
gsave
newpath
translate
0.5 setlinewidth
1 setlinejoin
0 setlinecap
0 0 m
2 0 l
gsave
0.000 setgray
fill
grestore
stroke
grestore
} bind def
72 66.24 o
grestore
gsave
/o {
gsave
newpath
translate
0.5 setlinewidth
1 setlinejoin
0 setlinecap
0 0 m
-2 0 l
gsave
0.000 setgray
fill
grestore
stroke
grestore
} bind def
518.4 66.24 o
grestore
gsave
/o {
gsave
newpath
translate
0.5 setlinewidth
1 setlinejoin
0 setlinecap
0 0 m
2 0 l
gsave
0.000 setgray
fill
grestore
stroke
grestore
} bind def
72 89.28 o
grestore
gsave
/o {
gsave
newpath
translate
0.5 setlinewidth
1 setlinejoin
0 setlinecap
0 0 m
-2 0 l
gsave
0.000 setgray
fill
grestore
stroke
grestore
} bind def
518.4 89.28 o
grestore
gsave
/o {
gsave
newpath
translate
0.5 setlinewidth
1 setlinejoin
0 setlinecap
0 0 m
2 0 l
gsave
0.000 setgray
fill
grestore
stroke
grestore
} bind def
72 112.32 o
grestore
gsave
/o {
gsave
newpath
translate
0.5 setlinewidth
1 setlinejoin
0 setlinecap
0 0 m
-2 0 l
gsave
0.000 setgray
fill
grestore
stroke
grestore
} bind def
518.4 112.32 o
grestore
gsave
/o {
gsave
newpath
translate
0.5 setlinewidth
1 setlinejoin
0 setlinecap
0 0 m
2 0 l
gsave
0.000 setgray
fill
grestore
stroke
grestore
} bind def
72 135.36 o
grestore
gsave
/o {
gsave
newpath
translate
0.5 setlinewidth
1 setlinejoin
0 setlinecap
0 0 m
-2 0 l
gsave
0.000 setgray
fill
grestore
stroke
grestore
} bind def
518.4 135.36 o
grestore
gsave
/o {
gsave
newpath
translate
0.5 setlinewidth
1 setlinejoin
0 setlinecap
0 0 m
2 0 l
gsave
0.000 setgray
fill
grestore
stroke
grestore
} bind def
72 158.4 o
grestore
gsave
/o {
gsave
newpath
translate
0.5 setlinewidth
1 setlinejoin
0 setlinecap
0 0 m
-2 0 l
gsave
0.000 setgray
fill
grestore
stroke
grestore
} bind def
518.4 158.4 o
grestore
gsave
/o {
gsave
newpath
translate
0.5 setlinewidth
1 setlinejoin
0 setlinecap
0 0 m
2 0 l
gsave
0.000 setgray
fill
grestore
stroke
grestore
} bind def
72 181.44 o
grestore
gsave
/o {
gsave
newpath
translate
0.5 setlinewidth
1 setlinejoin
0 setlinecap
0 0 m
-2 0 l
gsave
0.000 setgray
fill
grestore
stroke
grestore
} bind def
518.4 181.44 o
grestore
gsave
/o {
gsave
newpath
translate
0.5 setlinewidth
1 setlinejoin
0 setlinecap
0 0 m
2 0 l
gsave
0.000 setgray
fill
grestore
stroke
grestore
} bind def
72 204.48 o
grestore
gsave
/o {
gsave
newpath
translate
0.5 setlinewidth
1 setlinejoin
0 setlinecap
0 0 m
-2 0 l
gsave
0.000 setgray
fill
grestore
stroke
grestore
} bind def
518.4 204.48 o
grestore
gsave
/o {
gsave
newpath
translate
0.5 setlinewidth
1 setlinejoin
0 setlinecap
0 0 m
2 0 l
gsave
0.000 setgray
fill
grestore
stroke
grestore
} bind def
72 227.52 o
grestore
gsave
/o {
gsave
newpath
translate
0.5 setlinewidth
1 setlinejoin
0 setlinecap
0 0 m
-2 0 l
gsave
0.000 setgray
fill
grestore
stroke
grestore
} bind def
518.4 227.52 o
grestore
gsave
/o {
gsave
newpath
translate
0.5 setlinewidth
1 setlinejoin
0 setlinecap
0 0 m
2 0 l
gsave
0.000 setgray
fill
grestore
stroke
grestore
} bind def
72 250.56 o
grestore
gsave
/o {
gsave
newpath
translate
0.5 setlinewidth
1 setlinejoin
0 setlinecap
0 0 m
-2 0 l
gsave
0.000 setgray
fill
grestore
stroke
grestore
} bind def
518.4 250.56 o
grestore
gsave
/o {
gsave
newpath
translate
0.5 setlinewidth
1 setlinejoin
0 setlinecap
0 0 m
2 0 l
gsave
0.000 setgray
fill
grestore
stroke
grestore
} bind def
72 273.6 o
grestore
gsave
/o {
gsave
newpath
translate
0.5 setlinewidth
1 setlinejoin
0 setlinecap
0 0 m
-2 0 l
gsave
0.000 setgray
fill
grestore
stroke
grestore
} bind def
518.4 273.6 o
grestore
gsave
/o {
gsave
newpath
translate
0.5 setlinewidth
1 setlinejoin
0 setlinecap
0 0 m
2 0 l
gsave
0.000 setgray
fill
grestore
stroke
grestore
} bind def
72 296.64 o
grestore
gsave
/o {
gsave
newpath
translate
0.5 setlinewidth
1 setlinejoin
0 setlinecap
0 0 m
-2 0 l
gsave
0.000 setgray
fill
grestore
stroke
grestore
} bind def
518.4 296.64 o
grestore
gsave
/o {
gsave
newpath
translate
0.5 setlinewidth
1 setlinejoin
0 setlinecap
0 0 m
2 0 l
gsave
0.000 setgray
fill
grestore
stroke
grestore
} bind def
72 319.68 o
grestore
gsave
/o {
gsave
newpath
translate
0.5 setlinewidth
1 setlinejoin
0 setlinecap
0 0 m
-2 0 l
gsave
0.000 setgray
fill
grestore
stroke
grestore
} bind def
518.4 319.68 o
grestore
gsave
/o {
gsave
newpath
translate
0.5 setlinewidth
1 setlinejoin
0 setlinecap
0 0 m
2 0 l
gsave
0.000 setgray
fill
grestore
stroke
grestore
} bind def
72 342.72 o
grestore
gsave
/o {
gsave
newpath
translate
0.5 setlinewidth
1 setlinejoin
0 setlinecap
0 0 m
-2 0 l
gsave
0.000 setgray
fill
grestore
stroke
grestore
} bind def
518.4 342.72 o
grestore
gsave
/o {
gsave
newpath
translate
0.5 setlinewidth
1 setlinejoin
0 setlinecap
0 0 m
2 0 l
gsave
0.000 setgray
fill
grestore
stroke
grestore
} bind def
72 365.76 o
grestore
gsave
/o {
gsave
newpath
translate
0.5 setlinewidth
1 setlinejoin
0 setlinecap
0 0 m
-2 0 l
gsave
0.000 setgray
fill
grestore
stroke
grestore
} bind def
518.4 365.76 o
grestore
gsave
/o {
gsave
newpath
translate
0.5 setlinewidth
1 setlinejoin
0 setlinecap
0 0 m
2 0 l
gsave
0.000 setgray
fill
grestore
stroke
grestore
} bind def
72 388.8 o
grestore
gsave
/o {
gsave
newpath
translate
0.5 setlinewidth
1 setlinejoin
0 setlinecap
0 0 m
-2 0 l
gsave
0.000 setgray
fill
grestore
stroke
grestore
} bind def
518.4 388.8 o
grestore
gsave
32.000000 199.984375 translate
90.000000 rotate
0.000000 2.828125 m /bar glyphshow
4.042969 2.828125 m /bar glyphshow
8.085938 2.828125 m /r glyphshow
13.019531 2.828125 m /bar glyphshow
17.062500 2.828125 m /bar glyphshow
21.105469 2.828125 m /underscore glyphshow
27.105469 2.828125 m /two glyphshow
grestore
1.000 setlinewidth
2 setlinecap
gsave
72 388.8 m
518.4 388.8 l
stroke
grestore
gsave
518.4 43.2 m
518.4 388.8 l
stroke
grestore
gsave
72 43.2 m
518.4 43.2 l
stroke
grestore
gsave
72 43.2 m
72 388.8 l
stroke
grestore
/DejaVuSans findfont
14.400 scalefont
setfont
gsave
152.918750 390.893750 translate
0.000000 rotate
0.000000 2.906250 m /space glyphshow
4.574356 2.906250 m /p glyphshow
13.709030 2.906250 m /o glyphshow
22.513443 2.906250 m /i glyphshow
26.511612 2.906250 m /s glyphshow
34.009064 2.906250 m /s glyphshow
41.506516 2.906250 m /o glyphshow
50.310928 2.906250 m /n glyphshow
59.431549 2.906250 m /space glyphshow
64.005905 2.906250 m /s glyphshow
71.503357 2.906250 m /o glyphshow
80.307770 2.906250 m /l glyphshow
84.305939 2.906250 m /v glyphshow
92.822266 2.906250 m /e glyphshow
101.675873 2.906250 m /r glyphshow
107.592331 2.906250 m /space glyphshow
112.166687 2.906250 m /C glyphshow
122.214828 2.906250 m /o glyphshow
131.019241 2.906250 m /n glyphshow
140.139862 2.906250 m /v glyphshow
148.656189 2.906250 m /e glyphshow
157.509796 2.906250 m /r glyphshow
163.176254 2.906250 m /g glyphshow
172.310928 2.906250 m /e glyphshow
181.164536 2.906250 m /n glyphshow
190.285156 2.906250 m /c glyphshow
198.197189 2.906250 m /e glyphshow
207.050797 2.906250 m /space glyphshow
211.625153 2.906250 m /f glyphshow
216.691376 2.906250 m /o glyphshow
225.495789 2.906250 m /r glyphshow
231.412247 2.906250 m /space glyphshow
235.986603 2.906250 m /N glyphshow
246.751465 2.906250 m /equal glyphshow
258.809235 2.906250 m /five glyphshow
267.964981 2.906250 m /one glyphshow
277.120728 2.906250 m /two glyphshow
grestore
gsave
79.2 50.4 m
297.134 50.4 l
297.134 158.454 l
79.2 158.454 l
79.2 50.4 l
cl
gsave
1.000 setgray
fill
grestore
stroke
grestore
0.000 0.000 1.000 setrgbcolor
gsave
89.28 147.094 m
109.44 147.094 l
stroke
grestore
0.000 setgray
gsave
125.280000 139.147500 translate
0.000000 rotate
0.000000 2.906250 m /parenleft glyphshow
5.614304 2.906250 m /r glyphshow
11.530762 2.906250 m /i glyphshow
15.528931 2.906250 m /c glyphshow
23.440964 2.906250 m /h glyphshow
32.561584 2.906250 m /a glyphshow
41.380051 2.906250 m /r glyphshow
47.046509 2.906250 m /d glyphshow
56.181183 2.906250 m /s glyphshow
63.678635 2.906250 m /o glyphshow
72.483047 2.906250 m /n glyphshow
81.603668 2.906250 m /comma glyphshow
86.178024 2.906250 m /l glyphshow
90.176193 2.906250 m /u glyphshow
99.296814 2.906250 m /U glyphshow
109.829788 2.906250 m /m glyphshow
123.847992 2.906250 m /f glyphshow
128.914215 2.906250 m /p glyphshow
138.048889 2.906250 m /a glyphshow
146.867355 2.906250 m /c glyphshow
154.779388 2.906250 m /k glyphshow
163.113022 2.906250 m /parenright glyphshow
grestore
0.000 0.500 0.000 setrgbcolor
gsave
89.28 126.347 m
109.44 126.347 l
stroke
grestore
0.000 setgray
gsave
125.280000 118.400625 translate
0.000000 rotate
0.000000 2.906250 m /parenleft glyphshow
5.614304 2.906250 m /r glyphshow
11.530762 2.906250 m /i glyphshow
15.528931 2.906250 m /c glyphshow
23.440964 2.906250 m /h glyphshow
32.561584 2.906250 m /a glyphshow
41.380051 2.906250 m /r glyphshow
47.046509 2.906250 m /d glyphshow
56.181183 2.906250 m /s glyphshow
63.678635 2.906250 m /o glyphshow
72.483047 2.906250 m /n glyphshow
81.603668 2.906250 m /comma glyphshow
86.178024 2.906250 m /l glyphshow
90.176193 2.906250 m /u glyphshow
99.296814 2.906250 m /M glyphshow
111.712936 2.906250 m /u glyphshow
120.833557 2.906250 m /m glyphshow
134.851761 2.906250 m /p glyphshow
143.986435 2.906250 m /s glyphshow
151.483887 2.906250 m /parenright glyphshow
grestore
1.000 0.000 0.000 setrgbcolor
gsave
89.28 105.6 m
109.44 105.6 l
stroke
grestore
0.000 setgray
gsave
125.280000 98.716250 translate
0.000000 rotate
0.000000 1.843750 m /parenleft glyphshow
5.614304 1.843750 m /r glyphshow
11.530762 1.843750 m /i glyphshow
15.528931 1.843750 m /c glyphshow
23.440964 1.843750 m /h glyphshow
32.561584 1.843750 m /a glyphshow
41.380051 1.843750 m /r glyphshow
47.046509 1.843750 m /d glyphshow
56.181183 1.843750 m /s glyphshow
63.678635 1.843750 m /o glyphshow
72.483047 1.843750 m /n glyphshow
81.603668 1.843750 m /comma glyphshow
86.178024 1.843750 m /s glyphshow
93.675476 1.843750 m /o glyphshow
102.479889 1.843750 m /r glyphshow
108.396347 1.843750 m /parenright glyphshow
grestore
0.000 0.750 0.750 setrgbcolor
gsave
89.28 84.8531 m
109.44 84.8531 l
stroke
grestore
0.000 setgray
gsave
125.280000 76.906875 translate
0.000000 rotate
0.000000 2.906250 m /parenleft glyphshow
5.614304 2.906250 m /c glyphshow
13.526337 2.906250 m /g glyphshow
22.661011 2.906250 m /comma glyphshow
27.235367 2.906250 m /n glyphshow
36.355988 2.906250 m /o glyphshow
45.160400 2.906250 m /n glyphshow
54.281021 2.906250 m /e glyphshow
63.134628 2.906250 m /parenright glyphshow
grestore
0.750 0.000 0.750 setrgbcolor
gsave
89.28 64.1062 m
109.44 64.1062 l
stroke
grestore
0.000 setgray
gsave
125.280000 56.160000 translate
0.000000 rotate
0.000000 2.906250 m /parenleft glyphshow
5.614304 2.906250 m /g glyphshow
14.748978 2.906250 m /m glyphshow
28.767181 2.906250 m /r glyphshow
34.308640 2.906250 m /e glyphshow
43.162247 2.906250 m /s glyphshow
50.659698 2.906250 m /comma glyphshow
55.234055 2.906250 m /n glyphshow
64.354675 2.906250 m /o glyphshow
73.159088 2.906250 m /n glyphshow
82.279709 2.906250 m /e glyphshow
91.133316 2.906250 m /parenright glyphshow
grestore

end
showpage
