%!PS-Adobe-3.0 EPSF-3.0
%%Title: poisson_ksp_convergence2.eps
%%Creator: matplotlib version 1.2.1, http://matplotlib.org/
%%CreationDate: Thu Nov  7 23:33:45 2013
%%Orientation: portrait
%%BoundingBox: 18 180 594 612
%%EndComments
%%BeginProlog
/mpldict 8 dict def
mpldict begin
/m { moveto } bind def
/l { lineto } bind def
/r { rlineto } bind def
/c { curveto } bind def
/cl { closepath } bind def
/box {
m
1 index 0 r
0 exch r
neg 0 r
cl
} bind def
/clipbox {
box
clip
newpath
} bind def
%!PS-Adobe-3.0 Resource-Font
%%Title: DejaVu Sans
%%Copyright: Copyright (c) 2003 by Bitstream, Inc. All Rights Reserved. Copyright (c) 2006 by Tavmjong Bah. All Rights Reserved. DejaVu changes are in public domain 
%%Creator: Converted from TrueType to type 3 by PPR
25 dict begin
/_d{bind def}bind def
/_m{moveto}_d
/_l{lineto}_d
/_cl{closepath eofill}_d
/_c{curveto}_d
/_sc{7 -1 roll{setcachedevice}{pop pop pop pop pop pop}ifelse}_d
/_e{exec}_d
/FontName /DejaVuSans def
/PaintType 0 def
/FontMatrix[.001 0 0 .001 0 0]def
/FontBBox[-1021 -415 1681 1167]def
/FontType 3 def
/Encoding [ /space /parenleft /parenright /comma /hyphen /zero /one /two /three /four /five /six /seven /eight /nine /equal /C /K /N /P /S /underscore /a /c /d /e /f /g /h /i /l /m /n /o /p /r /s /t /u /v /y /bar ] def
/FontInfo 10 dict dup begin
/FamilyName (DejaVu Sans) def
/FullName (DejaVu Sans) def
/Notice (Copyright (c) 2003 by Bitstream, Inc. All Rights Reserved. Copyright (c) 2006 by Tavmjong Bah. All Rights Reserved. DejaVu changes are in public domain ) def
/Weight (Book) def
/Version (Version 2.33) def
/ItalicAngle 0.0 def
/isFixedPitch false def
/UnderlinePosition -130 def
/UnderlineThickness 90 def
end readonly def
/CharStrings 42 dict dup begin
/space{318 0 0 0 0 0 _sc
}_d
/parenleft{390 0 86 -131 310 759 _sc
310 759 _m
266 683 234 609 213 536 _c
191 463 181 389 181 314 _c
181 238 191 164 213 91 _c
234 17 266 -56 310 -131 _c
232 -131 _l
183 -54 146 20 122 94 _c
98 168 86 241 86 314 _c
86 386 98 459 122 533 _c
146 607 182 682 232 759 _c
310 759 _l
_cl}_d
/parenright{390 0 80 -131 304 759 _sc
80 759 _m
158 759 _l
206 682 243 607 267 533 _c
291 459 304 386 304 314 _c
304 241 291 168 267 94 _c
243 20 206 -54 158 -131 _c
80 -131 _l
123 -56 155 17 177 91 _c
198 164 209 238 209 314 _c
209 389 198 463 177 536 _c
155 609 123 683 80 759 _c
_cl}_d
/comma{318 0 77 -115 220 124 _sc
117 124 _m
220 124 _l
220 40 _l
140 -115 _l
77 -115 _l
117 40 _l
117 124 _l
_cl}_d
/hyphen{361 0 49 234 312 314 _sc
49 314 _m
312 314 _l
312 234 _l
49 234 _l
49 314 _l
_cl}_d
/zero{636 0 66 -13 570 742 _sc
318 664 _m
267 664 229 639 203 589 _c
177 539 165 464 165 364 _c
165 264 177 189 203 139 _c
229 89 267 64 318 64 _c
369 64 407 89 433 139 _c
458 189 471 264 471 364 _c
471 464 458 539 433 589 _c
407 639 369 664 318 664 _c
318 742 _m
399 742 461 709 505 645 _c
548 580 570 486 570 364 _c
570 241 548 147 505 83 _c
461 19 399 -13 318 -13 _c
236 -13 173 19 130 83 _c
87 147 66 241 66 364 _c
66 486 87 580 130 645 _c
173 709 236 742 318 742 _c
_cl}_d
/one{636 0 110 0 544 729 _sc
124 83 _m
285 83 _l
285 639 _l
110 604 _l
110 694 _l
284 729 _l
383 729 _l
383 83 _l
544 83 _l
544 0 _l
124 0 _l
124 83 _l
_cl}_d
/two{{636 0 73 0 536 742 _sc
192 83 _m
536 83 _l
536 0 _l
73 0 _l
73 83 _l
110 121 161 173 226 239 _c
290 304 331 346 348 365 _c
380 400 402 430 414 455 _c
426 479 433 504 433 528 _c
433 566 419 598 392 622 _c
365 646 330 659 286 659 _c
255 659 222 653 188 643 _c
154 632 117 616 78 594 _c
78 694 _l
118 710 155 722 189 730 _c
223 738 255 742 284 742 _c
}_e{359 742 419 723 464 685 _c
509 647 532 597 532 534 _c
532 504 526 475 515 449 _c
504 422 484 390 454 354 _c
446 344 420 317 376 272 _c
332 227 271 164 192 83 _c
_cl}_e}_d
/three{{636 0 76 -13 556 742 _sc
406 393 _m
453 383 490 362 516 330 _c
542 298 556 258 556 212 _c
556 140 531 84 482 45 _c
432 6 362 -13 271 -13 _c
240 -13 208 -10 176 -4 _c
144 1 110 10 76 22 _c
76 117 _l
103 101 133 89 166 81 _c
198 73 232 69 268 69 _c
330 69 377 81 409 105 _c
441 129 458 165 458 212 _c
458 254 443 288 413 312 _c
383 336 341 349 287 349 _c
}_e{202 349 _l
202 430 _l
291 430 _l
339 430 376 439 402 459 _c
428 478 441 506 441 543 _c
441 580 427 609 401 629 _c
374 649 336 659 287 659 _c
260 659 231 656 200 650 _c
169 644 135 635 98 623 _c
98 711 _l
135 721 170 729 203 734 _c
235 739 266 742 296 742 _c
370 742 429 725 473 691 _c
517 657 539 611 539 553 _c
539 513 527 479 504 451 _c
481 423 448 403 406 393 _c
_cl}_e}_d
/four{636 0 49 0 580 729 _sc
378 643 _m
129 254 _l
378 254 _l
378 643 _l
352 729 _m
476 729 _l
476 254 _l
580 254 _l
580 172 _l
476 172 _l
476 0 _l
378 0 _l
378 172 _l
49 172 _l
49 267 _l
352 729 _l
_cl}_d
/five{{636 0 77 -13 549 729 _sc
108 729 _m
495 729 _l
495 646 _l
198 646 _l
198 467 _l
212 472 227 476 241 478 _c
255 480 270 482 284 482 _c
365 482 429 459 477 415 _c
525 370 549 310 549 234 _c
549 155 524 94 475 51 _c
426 8 357 -13 269 -13 _c
238 -13 207 -10 175 -6 _c
143 -1 111 6 77 17 _c
77 116 _l
106 100 136 88 168 80 _c
199 72 232 69 267 69 _c
}_e{323 69 368 83 401 113 _c
433 143 450 183 450 234 _c
450 284 433 324 401 354 _c
368 384 323 399 267 399 _c
241 399 214 396 188 390 _c
162 384 135 375 108 363 _c
108 729 _l
_cl}_e}_d
/six{{636 0 70 -13 573 742 _sc
330 404 _m
286 404 251 388 225 358 _c
199 328 186 286 186 234 _c
186 181 199 139 225 109 _c
251 79 286 64 330 64 _c
374 64 409 79 435 109 _c
461 139 474 181 474 234 _c
474 286 461 328 435 358 _c
409 388 374 404 330 404 _c
526 713 _m
526 623 _l
501 635 476 644 451 650 _c
425 656 400 659 376 659 _c
310 659 260 637 226 593 _c
}_e{192 549 172 482 168 394 _c
187 422 211 444 240 459 _c
269 474 301 482 336 482 _c
409 482 467 459 509 415 _c
551 371 573 310 573 234 _c
573 159 550 99 506 54 _c
462 9 403 -13 330 -13 _c
246 -13 181 19 137 83 _c
92 147 70 241 70 364 _c
70 479 97 571 152 639 _c
206 707 280 742 372 742 _c
396 742 421 739 447 735 _c
472 730 498 723 526 713 _c
_cl}_e}_d
/seven{636 0 82 0 551 729 _sc
82 729 _m
551 729 _l
551 687 _l
286 0 _l
183 0 _l
432 646 _l
82 646 _l
82 729 _l
_cl}_d
/eight{{636 0 68 -13 568 742 _sc
318 346 _m
271 346 234 333 207 308 _c
180 283 167 249 167 205 _c
167 161 180 126 207 101 _c
234 76 271 64 318 64 _c
364 64 401 76 428 102 _c
455 127 469 161 469 205 _c
469 249 455 283 429 308 _c
402 333 365 346 318 346 _c
219 388 _m
177 398 144 418 120 447 _c
96 476 85 511 85 553 _c
85 611 105 657 147 691 _c
188 725 245 742 318 742 _c
}_e{390 742 447 725 489 691 _c
530 657 551 611 551 553 _c
551 511 539 476 515 447 _c
491 418 459 398 417 388 _c
464 377 501 355 528 323 _c
554 291 568 251 568 205 _c
568 134 546 80 503 43 _c
459 5 398 -13 318 -13 _c
237 -13 175 5 132 43 _c
89 80 68 134 68 205 _c
68 251 81 291 108 323 _c
134 355 171 377 219 388 _c
183 544 _m
183 506 194 476 218 455 _c
}_e{242 434 275 424 318 424 _c
360 424 393 434 417 455 _c
441 476 453 506 453 544 _c
453 582 441 611 417 632 _c
393 653 360 664 318 664 _c
275 664 242 653 218 632 _c
194 611 183 582 183 544 _c
_cl}_e}_d
/nine{{636 0 63 -13 566 742 _sc
110 15 _m
110 105 _l
134 93 159 84 185 78 _c
210 72 235 69 260 69 _c
324 69 374 90 408 134 _c
442 178 462 244 468 334 _c
448 306 424 284 396 269 _c
367 254 335 247 300 247 _c
226 247 168 269 126 313 _c
84 357 63 417 63 494 _c
63 568 85 628 129 674 _c
173 719 232 742 306 742 _c
390 742 455 709 499 645 _c
543 580 566 486 566 364 _c
}_e{566 248 538 157 484 89 _c
429 21 356 -13 264 -13 _c
239 -13 214 -10 189 -6 _c
163 -2 137 5 110 15 _c
306 324 _m
350 324 385 339 411 369 _c
437 399 450 441 450 494 _c
450 546 437 588 411 618 _c
385 648 350 664 306 664 _c
262 664 227 648 201 618 _c
175 588 162 546 162 494 _c
162 441 175 399 201 369 _c
227 339 262 324 306 324 _c
_cl}_e}_d
/equal{838 0 106 172 732 454 _sc
106 454 _m
732 454 _l
732 372 _l
106 372 _l
106 454 _l
106 255 _m
732 255 _l
732 172 _l
106 172 _l
106 255 _l
_cl}_d
/C{{698 0 56 -13 644 742 _sc
644 673 _m
644 569 _l
610 599 575 622 537 638 _c
499 653 460 661 418 661 _c
334 661 270 635 226 584 _c
182 533 160 460 160 364 _c
160 268 182 194 226 143 _c
270 92 334 67 418 67 _c
460 67 499 74 537 90 _c
575 105 610 128 644 159 _c
644 56 _l
609 32 572 15 534 4 _c
496 -7 455 -13 412 -13 _c
302 -13 215 20 151 87 _c
}_e{87 154 56 246 56 364 _c
56 481 87 573 151 641 _c
215 708 302 742 412 742 _c
456 742 497 736 535 725 _c
573 713 610 696 644 673 _c
_cl}_e}_d
/K{656 0 98 0 677 729 _sc
98 729 _m
197 729 _l
197 421 _l
524 729 _l
651 729 _l
289 389 _l
677 0 _l
547 0 _l
197 351 _l
197 0 _l
98 0 _l
98 729 _l
_cl}_d
/N{748 0 98 0 650 729 _sc
98 729 _m
231 729 _l
554 119 _l
554 729 _l
650 729 _l
650 0 _l
517 0 _l
194 610 _l
194 0 _l
98 0 _l
98 729 _l
_cl}_d
/P{603 0 98 0 569 729 _sc
197 648 _m
197 374 _l
321 374 _l
367 374 402 385 427 409 _c
452 433 465 467 465 511 _c
465 555 452 588 427 612 _c
402 636 367 648 321 648 _c
197 648 _l
98 729 _m
321 729 _l
402 729 464 710 506 673 _c
548 636 569 582 569 511 _c
569 439 548 384 506 348 _c
464 311 402 293 321 293 _c
197 293 _l
197 0 _l
98 0 _l
98 729 _l
_cl}_d
/S{{635 0 66 -13 579 742 _sc
535 705 _m
535 609 _l
497 627 462 640 429 649 _c
395 657 363 662 333 662 _c
279 662 237 651 208 631 _c
179 610 165 580 165 542 _c
165 510 174 485 194 469 _c
213 452 250 439 304 429 _c
364 417 _l
437 403 491 378 526 343 _c
561 307 579 260 579 201 _c
579 130 555 77 508 41 _c
460 5 391 -13 300 -13 _c
265 -13 228 -9 189 -2 _c
}_e{150 5 110 16 69 32 _c
69 134 _l
109 111 148 94 186 83 _c
224 71 262 66 300 66 _c
356 66 399 77 430 99 _c
460 121 476 152 476 194 _c
476 230 465 258 443 278 _c
421 298 385 313 335 323 _c
275 335 _l
201 349 148 372 115 404 _c
82 435 66 478 66 534 _c
66 598 88 649 134 686 _c
179 723 242 742 322 742 _c
356 742 390 739 426 733 _c
461 727 497 717 535 705 _c
}_e{_cl}_e}_d
/underscore{500 0 -9 -235 510 -165 _sc
510 -165 _m
510 -235 _l
-9 -235 _l
-9 -165 _l
510 -165 _l
_cl}_d
/a{{613 0 60 -13 522 560 _sc
343 275 _m
270 275 220 266 192 250 _c
164 233 150 205 150 165 _c
150 133 160 107 181 89 _c
202 70 231 61 267 61 _c
317 61 357 78 387 114 _c
417 149 432 196 432 255 _c
432 275 _l
343 275 _l
522 312 _m
522 0 _l
432 0 _l
432 83 _l
411 49 385 25 355 10 _c
325 -5 287 -13 243 -13 _c
187 -13 142 2 109 33 _c
76 64 60 106 60 159 _c
}_e{60 220 80 266 122 298 _c
163 329 224 345 306 345 _c
432 345 _l
432 354 _l
432 395 418 427 391 450 _c
364 472 326 484 277 484 _c
245 484 215 480 185 472 _c
155 464 127 453 100 439 _c
100 522 _l
132 534 164 544 195 550 _c
226 556 256 560 286 560 _c
365 560 424 539 463 498 _c
502 457 522 395 522 312 _c
_cl}_e}_d
/c{{550 0 55 -13 488 560 _sc
488 526 _m
488 442 _l
462 456 437 466 411 473 _c
385 480 360 484 334 484 _c
276 484 230 465 198 428 _c
166 391 150 339 150 273 _c
150 206 166 154 198 117 _c
230 80 276 62 334 62 _c
360 62 385 65 411 72 _c
437 79 462 90 488 104 _c
488 21 _l
462 9 436 0 410 -5 _c
383 -10 354 -13 324 -13 _c
242 -13 176 12 128 64 _c
}_e{79 115 55 185 55 273 _c
55 362 79 432 128 483 _c
177 534 244 560 330 560 _c
358 560 385 557 411 551 _c
437 545 463 537 488 526 _c
_cl}_e}_d
/d{{635 0 55 -13 544 760 _sc
454 464 _m
454 760 _l
544 760 _l
544 0 _l
454 0 _l
454 82 _l
435 49 411 25 382 10 _c
353 -5 319 -13 279 -13 _c
213 -13 159 13 117 65 _c
75 117 55 187 55 273 _c
55 359 75 428 117 481 _c
159 533 213 560 279 560 _c
319 560 353 552 382 536 _c
411 520 435 496 454 464 _c
148 273 _m
148 207 161 155 188 117 _c
215 79 253 61 301 61 _c
}_e{348 61 385 79 413 117 _c
440 155 454 207 454 273 _c
454 339 440 390 413 428 _c
385 466 348 485 301 485 _c
253 485 215 466 188 428 _c
161 390 148 339 148 273 _c
_cl}_e}_d
/e{{615 0 55 -13 562 560 _sc
562 296 _m
562 252 _l
149 252 _l
153 190 171 142 205 110 _c
238 78 284 62 344 62 _c
378 62 412 66 444 74 _c
476 82 509 95 541 113 _c
541 28 _l
509 14 476 3 442 -3 _c
408 -9 373 -13 339 -13 _c
251 -13 182 12 131 62 _c
80 112 55 181 55 268 _c
55 357 79 428 127 481 _c
175 533 241 560 323 560 _c
397 560 455 536 498 489 _c
}_e{540 441 562 377 562 296 _c
472 322 _m
471 371 457 410 431 440 _c
404 469 368 484 324 484 _c
274 484 234 469 204 441 _c
174 413 156 373 152 322 _c
472 322 _l
_cl}_e}_d
/f{352 0 23 0 371 760 _sc
371 760 _m
371 685 _l
285 685 _l
253 685 230 678 218 665 _c
205 652 199 629 199 595 _c
199 547 _l
347 547 _l
347 477 _l
199 477 _l
199 0 _l
109 0 _l
109 477 _l
23 477 _l
23 547 _l
109 547 _l
109 585 _l
109 645 123 690 151 718 _c
179 746 224 760 286 760 _c
371 760 _l
_cl}_d
/g{{635 0 55 -207 544 560 _sc
454 280 _m
454 344 440 395 414 431 _c
387 467 349 485 301 485 _c
253 485 215 467 188 431 _c
161 395 148 344 148 280 _c
148 215 161 165 188 129 _c
215 93 253 75 301 75 _c
349 75 387 93 414 129 _c
440 165 454 215 454 280 _c
544 68 _m
544 -24 523 -93 482 -139 _c
440 -184 377 -207 292 -207 _c
260 -207 231 -204 203 -200 _c
175 -195 147 -188 121 -178 _c
}_e{121 -91 _l
147 -105 173 -115 199 -122 _c
225 -129 251 -133 278 -133 _c
336 -133 380 -117 410 -87 _c
439 -56 454 -10 454 52 _c
454 96 _l
435 64 411 40 382 24 _c
353 8 319 0 279 0 _c
211 0 157 25 116 76 _c
75 127 55 195 55 280 _c
55 364 75 432 116 483 _c
157 534 211 560 279 560 _c
319 560 353 552 382 536 _c
411 520 435 496 454 464 _c
454 547 _l
544 547 _l
}_e{544 68 _l
_cl}_e}_d
/h{634 0 91 0 549 760 _sc
549 330 _m
549 0 _l
459 0 _l
459 327 _l
459 379 448 417 428 443 _c
408 469 378 482 338 482 _c
289 482 251 466 223 435 _c
195 404 181 362 181 309 _c
181 0 _l
91 0 _l
91 760 _l
181 760 _l
181 462 _l
202 494 227 519 257 535 _c
286 551 320 560 358 560 _c
420 560 468 540 500 501 _c
532 462 549 405 549 330 _c
_cl}_d
/i{278 0 94 0 184 760 _sc
94 547 _m
184 547 _l
184 0 _l
94 0 _l
94 547 _l
94 760 _m
184 760 _l
184 646 _l
94 646 _l
94 760 _l
_cl}_d
/l{278 0 94 0 184 760 _sc
94 760 _m
184 760 _l
184 0 _l
94 0 _l
94 760 _l
_cl}_d
/m{{974 0 91 0 889 560 _sc
520 442 _m
542 482 569 511 600 531 _c
631 550 668 560 711 560 _c
767 560 811 540 842 500 _c
873 460 889 403 889 330 _c
889 0 _l
799 0 _l
799 327 _l
799 379 789 418 771 444 _c
752 469 724 482 686 482 _c
639 482 602 466 575 435 _c
548 404 535 362 535 309 _c
535 0 _l
445 0 _l
445 327 _l
445 379 435 418 417 444 _c
398 469 369 482 331 482 _c
}_e{285 482 248 466 221 435 _c
194 404 181 362 181 309 _c
181 0 _l
91 0 _l
91 547 _l
181 547 _l
181 462 _l
201 495 226 520 255 536 _c
283 552 317 560 357 560 _c
397 560 430 550 458 530 _c
486 510 506 480 520 442 _c
_cl}_e}_d
/n{634 0 91 0 549 560 _sc
549 330 _m
549 0 _l
459 0 _l
459 327 _l
459 379 448 417 428 443 _c
408 469 378 482 338 482 _c
289 482 251 466 223 435 _c
195 404 181 362 181 309 _c
181 0 _l
91 0 _l
91 547 _l
181 547 _l
181 462 _l
202 494 227 519 257 535 _c
286 551 320 560 358 560 _c
420 560 468 540 500 501 _c
532 462 549 405 549 330 _c
_cl}_d
/o{612 0 55 -13 557 560 _sc
306 484 _m
258 484 220 465 192 427 _c
164 389 150 338 150 273 _c
150 207 163 156 191 118 _c
219 80 257 62 306 62 _c
354 62 392 80 420 118 _c
448 156 462 207 462 273 _c
462 337 448 389 420 427 _c
392 465 354 484 306 484 _c
306 560 _m
384 560 445 534 490 484 _c
534 433 557 363 557 273 _c
557 183 534 113 490 63 _c
445 12 384 -13 306 -13 _c
227 -13 165 12 121 63 _c
77 113 55 183 55 273 _c
55 363 77 433 121 484 _c
165 534 227 560 306 560 _c
_cl}_d
/p{{635 0 91 -207 580 560 _sc
181 82 _m
181 -207 _l
91 -207 _l
91 547 _l
181 547 _l
181 464 _l
199 496 223 520 252 536 _c
281 552 316 560 356 560 _c
422 560 476 533 518 481 _c
559 428 580 359 580 273 _c
580 187 559 117 518 65 _c
476 13 422 -13 356 -13 _c
316 -13 281 -5 252 10 _c
223 25 199 49 181 82 _c
487 273 _m
487 339 473 390 446 428 _c
418 466 381 485 334 485 _c
}_e{286 485 249 466 222 428 _c
194 390 181 339 181 273 _c
181 207 194 155 222 117 _c
249 79 286 61 334 61 _c
381 61 418 79 446 117 _c
473 155 487 207 487 273 _c
_cl}_e}_d
/r{411 0 91 0 411 560 _sc
411 463 _m
401 469 390 473 378 476 _c
366 478 353 480 339 480 _c
288 480 249 463 222 430 _c
194 397 181 350 181 288 _c
181 0 _l
91 0 _l
91 547 _l
181 547 _l
181 462 _l
199 495 224 520 254 536 _c
284 552 321 560 365 560 _c
371 560 378 559 386 559 _c
393 558 401 557 411 555 _c
411 463 _l
_cl}_d
/s{{521 0 54 -13 472 560 _sc
443 531 _m
443 446 _l
417 458 391 468 364 475 _c
336 481 308 485 279 485 _c
234 485 200 478 178 464 _c
156 450 145 430 145 403 _c
145 382 153 366 169 354 _c
185 342 217 330 265 320 _c
296 313 _l
360 299 405 279 432 255 _c
458 230 472 195 472 151 _c
472 100 452 60 412 31 _c
372 1 316 -13 246 -13 _c
216 -13 186 -10 154 -5 _c
}_e{122 0 89 8 54 20 _c
54 113 _l
87 95 120 82 152 74 _c
184 65 216 61 248 61 _c
290 61 323 68 346 82 _c
368 96 380 117 380 144 _c
380 168 371 187 355 200 _c
339 213 303 226 247 238 _c
216 245 _l
160 257 119 275 95 299 _c
70 323 58 356 58 399 _c
58 450 76 490 112 518 _c
148 546 200 560 268 560 _c
301 560 332 557 362 552 _c
391 547 418 540 443 531 _c
}_e{_cl}_e}_d
/t{392 0 27 0 368 702 _sc
183 702 _m
183 547 _l
368 547 _l
368 477 _l
183 477 _l
183 180 _l
183 135 189 106 201 94 _c
213 81 238 75 276 75 _c
368 75 _l
368 0 _l
276 0 _l
206 0 158 13 132 39 _c
106 65 93 112 93 180 _c
93 477 _l
27 477 _l
27 547 _l
93 547 _l
93 702 _l
183 702 _l
_cl}_d
/u{634 0 85 -13 543 560 _sc
85 216 _m
85 547 _l
175 547 _l
175 219 _l
175 167 185 129 205 103 _c
225 77 255 64 296 64 _c
344 64 383 79 411 110 _c
439 141 453 183 453 237 _c
453 547 _l
543 547 _l
543 0 _l
453 0 _l
453 84 _l
431 50 405 26 377 10 _c
348 -5 315 -13 277 -13 _c
214 -13 166 6 134 45 _c
101 83 85 140 85 216 _c
311 560 _m
311 560 _l
_cl}_d
/v{592 0 30 0 562 547 _sc
30 547 _m
125 547 _l
296 88 _l
467 547 _l
562 547 _l
357 0 _l
235 0 _l
30 547 _l
_cl}_d
/y{592 0 30 -207 562 547 _sc
322 -50 _m
296 -114 271 -157 247 -177 _c
223 -197 191 -207 151 -207 _c
79 -207 _l
79 -132 _l
132 -132 _l
156 -132 175 -126 189 -114 _c
203 -102 218 -75 235 -31 _c
251 9 _l
30 547 _l
125 547 _l
296 119 _l
467 547 _l
562 547 _l
322 -50 _l
_cl}_d
/bar{337 0 127 -235 210 764 _sc
210 764 _m
210 -235 _l
127 -235 _l
127 764 _l
210 764 _l
_cl}_d
end readonly def

/BuildGlyph
 {exch begin
 CharStrings exch
 2 copy known not{pop /.notdef}if
 true 3 1 roll get exec
 end}_d

/BuildChar {
 1 index /Encoding get exch get
 1 index /BuildGlyph get exec
}_d

FontName currentdict end definefont pop
end
%%EndProlog
mpldict begin
18 180 translate
576 432 0 0 clipbox
gsave
0 0 m
576 0 l
576 432 l
0 432 l
cl
1.000 setgray
fill
grestore
gsave
72 43.2 m
518.4 43.2 l
518.4 388.8 l
72 388.8 l
cl
1.000 setgray
fill
grestore
1.000 setlinewidth
1 setlinejoin
2 setlinecap
[] 0 setdash
0.000 0.000 1.000 setrgbcolor
gsave
446.4 345.6 72 43.2 clipbox
72 386.532 m
72.4464 370.598 l
72.8928 364.162 l
74.232 354.933 l
74.6784 352.727 l
75.1248 351.746 l
75.5712 350.21 l
76.0176 348.247 l
76.464 347.085 l
76.9104 346.426 l
77.8032 343.94 l
80.928 338.899 l
85.392 333.845 l
86.2848 333.226 l
86.7312 332.696 l
88.9632 331.009 l
89.4096 330.77 l
90.3024 329.926 l
91.1952 329.454 l
92.088 328.819 l
92.9808 328.405 l
93.8736 327.852 l
94.7664 327.491 l
95.6592 327.033 l
96.1056 326.882 l
96.9984 326.359 l
97.8912 326.107 l
98.784 325.706 l
99.2304 325.6 l
100.123 325.142 l
101.016 324.913 l
101.909 324.565 l
102.355 324.466 l
103.248 324.041 l
104.141 323.861 l
105.034 323.484 l
105.48 323.401 l
106.373 322.95 l
107.266 322.752 l
107.712 322.493 l
108.605 322.339 l
109.498 321.917 l
110.39 321.791 l
110.837 321.661 l
111.283 321.745 l
111.73 322.154 l
112.176 322.895 l
112.622 324.211 l
113.515 329.13 l
113.962 331.48 l
114.408 332.503 l
114.854 331.364 l
115.747 324.92 l
116.194 323.822 l
117.086 326.153 l
117.533 324.76 l
117.979 322.299 l
118.426 321.622 l
118.872 322.679 l
119.318 322.571 l
119.765 320.676 l
120.211 319.767 l
120.658 320.528 l
121.104 320.235 l
121.55 318.67 l
121.997 318.39 l
122.443 318.814 l
123.336 317.041 l
123.782 317.284 l
124.229 316.798 l
124.675 315.95 l
125.122 315.985 l
125.568 315.609 l
126.014 314.836 l
126.461 314.808 l
126.907 314.43 l
127.354 313.706 l
127.8 313.672 l
128.246 313.274 l
128.693 312.602 l
129.139 312.557 l
130.925 310.889 l
131.818 310.204 l
132.264 309.695 l
132.71 309.618 l
133.603 308.693 l
134.05 308.586 l
134.496 308.027 l
134.942 307.808 l
135.389 307.427 l
136.282 306.879 l
136.728 306.37 l
137.174 306.331 l
137.621 305.885 l
139.406 304.837 l
139.853 304.373 l
140.299 304.323 l
141.638 303.398 l
142.085 303.269 l
143.87 302.268 l
149.674 299.444 l
150.12 299.347 l
152.352 297.911 l
153.245 296.837 l
153.691 295.867 l
155.923 289.353 l
156.37 289.265 l
157.709 290.315 l
158.155 289.811 l
159.048 287.612 l
159.494 287.368 l
160.387 287.62 l
160.834 287.25 l
161.726 285.512 l
162.173 285.294 l
162.619 285.444 l
163.066 285.263 l
163.958 283.779 l
164.405 283.615 l
164.851 283.628 l
165.298 283.384 l
165.744 282.766 l
166.19 282.388 l
167.083 282.259 l
168.422 280.981 l
168.869 281.03 l
169.315 280.623 l
169.762 279.869 l
170.654 279.719 l
171.547 278.412 l
171.994 278.477 l
172.44 278.217 l
172.886 277.322 l
173.333 277.029 l
173.779 276.99 l
174.672 275.705 l
175.118 275.684 l
175.565 275.206 l
176.011 274.464 l
176.458 274.291 l
176.904 273.903 l
177.35 273.237 l
178.243 272.54 l
178.69 271.888 l
179.582 271.151 l
180.029 270.423 l
180.922 269.709 l
181.368 268.983 l
182.261 268.259 l
182.707 267.545 l
184.939 265.271 l
185.832 264.231 l
188.064 261.969 l
188.51 261.692 l
189.403 260.596 l
189.85 260.25 l
191.189 258.77 l
192.082 257.893 l
192.528 257.401 l
193.867 256.633 l
194.314 256.648 l
195.206 257.161 l
195.653 257.51 l
196.546 258.464 l
196.992 258.432 l
197.438 258.228 l
197.885 257.71 l
198.778 256.311 l
199.224 256.003 l
200.117 256.368 l
200.563 256.42 l
201.01 256.285 l
201.902 254.916 l
202.349 254.523 l
203.242 254.343 l
204.134 253.496 l
205.027 252.338 l
205.92 251.909 l
208.152 249.734 l
209.491 248.522 l
209.938 247.935 l
211.277 246.817 l
212.17 245.753 l
213.062 245.018 l
214.848 243.158 l
215.294 242.75 l
216.187 241.622 l
216.634 241.29 l
217.08 240.803 l
217.526 240.05 l
218.866 238.528 l
219.758 237.092 l
220.205 236.572 l
221.544 234.3 l
221.99 233.649 l
222.883 231.863 l
223.33 231.193 l
225.562 226.306 l
228.24 219.578 l
230.472 212.907 l
231.811 209.357 l
232.704 207.746 l
233.15 207.422 l
233.597 207.462 l
234.043 207.812 l
234.936 209.613 l
235.829 211.319 l
236.275 211.745 l
236.722 211.291 l
237.168 210.125 l
238.061 206.258 l
238.507 204.029 l
238.954 202.402 l
239.4 201.672 l
239.846 201.799 l
240.739 203.123 l
241.186 202.975 l
241.632 201.738 l
242.525 198.378 l
242.971 197.439 l
243.418 197.506 l
243.864 198.153 l
244.31 198.37 l
244.757 197.49 l
245.65 194.263 l
246.096 193.439 l
246.542 193.325 l
246.989 193.543 l
247.435 193.236 l
248.328 190.818 l
248.774 190.186 l
249.667 189.932 l
250.114 189.338 l
251.006 187.785 l
251.453 187.397 l
251.899 187.419 l
252.346 187.096 l
253.238 185.621 l
254.578 184.874 l
255.47 183.805 l
255.917 183.504 l
256.363 183.416 l
256.81 183.203 l
257.702 182.243 l
258.595 182.218 l
259.488 181.168 l
260.381 181.08 l
261.72 179.794 l
262.166 179.633 l
263.506 178.091 l
263.952 177.741 l
266.184 174.848 l
267.077 173.435 l
267.97 172.245 l
268.862 170.747 l
269.309 170.187 l
273.326 163.698 l
273.773 163.286 l
274.666 162.859 l
275.112 162.588 l
276.005 162.469 l
276.898 161.79 l
277.344 161.282 l
278.237 159.5 l
280.022 155.756 l
280.469 155.353 l
280.915 155.228 l
281.808 155.306 l
282.254 155.034 l
282.701 154.451 l
284.486 150.173 l
284.933 149.644 l
285.379 149.392 l
285.826 148.938 l
286.272 147.648 l
287.165 144.403 l
287.611 143.114 l
288.058 142.393 l
288.504 142.232 l
288.95 141.777 l
290.29 137.42 l
290.736 136.703 l
291.629 136.253 l
292.075 135.278 l
292.968 132.504 l
293.414 132.059 l
293.861 131.942 l
294.307 131.117 l
295.2 128.338 l
295.646 127.462 l
296.539 126.759 l
297.878 123.952 l
298.325 123.999 l
298.771 123.729 l
299.664 121.993 l
300.11 121.841 l
300.557 121.863 l
301.003 121.664 l
301.896 120.524 l
302.342 120.317 l
302.789 120.393 l
303.235 119.996 l
303.682 119.125 l
304.128 118.629 l
304.574 118.444 l
305.021 118.03 l
305.914 116.062 l
306.806 114.883 l
307.699 112.769 l
309.931 109.115 l
310.824 108.204 l
311.27 107.436 l
311.717 106.968 l
312.61 106.389 l
313.056 105.776 l
313.502 105.381 l
313.949 105.243 l
314.395 104.867 l
315.288 103.54 l
315.734 103.017 l
316.181 102.146 l
317.074 99.9414 l
317.52 99.043 l
318.413 96.5982 l
318.413 96.5982 l
stroke
grestore
0.000 0.500 0.000 setrgbcolor
gsave
446.4 345.6 72 43.2 clipbox
72 386.532 m
72.4464 371.65 l
72.8928 362.732 l
73.3392 357.399 l
74.6784 344.973 l
75.5712 340.76 l
76.464 335.698 l
77.3568 332.806 l
77.8032 330.681 l
78.2496 329.227 l
78.696 328.38 l
79.5888 325.533 l
80.4816 323.725 l
80.928 322.532 l
83.16 318.459 l
85.392 314.76 l
85.8384 313.504 l
86.2848 312.676 l
86.7312 313.147 l
87.1776 312.86 l
87.624 311.942 l
88.0704 311.91 l
88.5168 312.005 l
89.4096 310.51 l
89.856 310.523 l
90.3024 310.218 l
90.7488 309.384 l
91.1952 308.872 l
91.6416 308.695 l
92.088 308.32 l
92.5344 307.472 l
92.9808 307.046 l
93.4272 307.092 l
94.32 305.492 l
94.7664 305.398 l
95.2128 304.806 l
95.6592 303.996 l
96.552 303.277 l
96.9984 302.628 l
98.3376 301.545 l
99.2304 300.917 l
100.123 300.847 l
101.909 300.386 l
103.248 299.752 l
103.694 299.592 l
104.587 298.968 l
105.034 298.847 l
107.266 297.589 l
108.158 297.122 l
110.39 296.105 l
110.837 296.085 l
111.283 295.696 l
111.73 295.568 l
112.176 296.197 l
112.622 295.108 l
113.069 294.945 l
113.515 294.979 l
113.962 294.682 l
114.408 294.554 l
115.301 294.464 l
116.64 294.117 l
117.086 294.073 l
117.979 293.792 l
118.426 293.792 l
119.765 293.502 l
128.246 291.961 l
135.389 290.998 l
137.621 290.703 l
138.067 290.502 l
138.514 290.444 l
138.96 291.172 l
139.406 290.142 l
139.853 289.942 l
140.299 289.98 l
141.192 289.595 l
142.085 289.55 l
142.978 289.277 l
143.87 289.204 l
144.763 289 l
145.21 288.994 l
146.102 288.804 l
147.442 288.626 l
154.584 287.543 l
157.262 287.253 l
158.155 287.078 l
159.494 286.887 l
163.958 286.205 l
164.405 286.357 l
165.298 286.046 l
165.744 287.178 l
166.19 285.798 l
166.637 285.636 l
167.083 285.641 l
167.53 285.357 l
170.208 284.92 l
183.154 283.028 l
184.939 282.816 l
187.171 282.494 l
190.296 282.049 l
190.742 281.958 l
191.189 282.061 l
192.082 281.806 l
192.528 282.984 l
192.974 281.547 l
193.421 281.377 l
193.867 281.369 l
194.314 281.121 l
195.206 280.983 l
196.099 280.844 l
196.992 280.677 l
198.778 280.438 l
199.224 280.285 l
201.01 280.077 l
209.938 278.799 l
210.83 278.739 l
211.277 278.617 l
212.17 278.536 l
212.616 278.405 l
213.509 278.312 l
217.526 277.69 l
217.973 277.787 l
218.866 277.539 l
219.312 278.767 l
219.758 277.294 l
221.544 276.802 l
224.222 276.399 l
225.115 276.225 l
225.562 276.218 l
226.008 276.069 l
226.901 276.016 l
227.794 275.874 l
232.258 275.207 l
234.49 274.888 l
235.382 274.769 l
236.275 274.656 l
242.078 273.864 l
243.864 273.58 l
244.31 273.508 l
244.757 273.572 l
245.65 273.351 l
246.096 274.746 l
246.542 273.088 l
246.989 272.937 l
247.435 272.913 l
248.328 272.592 l
249.667 272.424 l
251.006 272.185 l
252.792 271.868 l
253.685 271.782 l
255.917 271.416 l
257.702 271.155 l
259.042 270.985 l
259.934 270.895 l
260.827 270.723 l
262.613 270.561 l
263.952 270.364 l
264.845 270.226 l
270.202 269.484 l
271.094 269.291 l
271.541 269.348 l
272.434 269.128 l
272.88 270.685 l
273.326 268.866 l
275.112 268.378 l
276.005 268.32 l
276.898 268.128 l
283.147 267.167 l
285.379 266.781 l
286.272 266.739 l
286.718 266.704 l
287.165 266.552 l
289.843 266.269 l
292.522 265.929 l
293.414 265.751 l
299.218 264.911 l
299.664 266.437 l
300.11 264.604 l
301.45 264.287 l
302.342 264.183 l
304.128 263.869 l
305.467 263.621 l
306.806 263.462 l
310.824 262.796 l
311.717 262.666 l
313.056 262.524 l
313.502 262.527 l
313.949 262.357 l
314.842 262.354 l
315.288 262.222 l
316.181 262.196 l
317.074 262.048 l
318.413 261.843 l
321.091 261.445 l
321.984 261.32 l
323.77 261.061 l
324.662 260.871 l
325.555 260.827 l
326.002 260.668 l
326.448 261.936 l
326.894 260.414 l
328.234 260.113 l
329.126 259.977 l
330.019 259.868 l
331.805 259.545 l
333.59 259.31 l
338.947 258.385 l
339.394 258.451 l
339.84 258.324 l
340.286 258.35 l
340.733 258.175 l
342.965 258.01 l
343.858 257.876 l
344.75 257.745 l
349.214 257.084 l
350.554 256.888 l
351.446 256.731 l
352.339 256.638 l
352.786 256.518 l
353.232 257.973 l
353.678 256.252 l
355.018 255.955 l
355.91 255.825 l
356.803 255.709 l
358.142 255.434 l
365.731 254.209 l
366.178 254.268 l
366.624 254.142 l
367.07 254.179 l
367.517 254.006 l
369.749 253.847 l
370.642 253.691 l
371.088 253.7 l
372.427 253.428 l
372.874 253.414 l
373.32 253.247 l
375.998 252.914 l
377.338 252.744 l
377.784 252.576 l
379.57 252.346 l
380.016 254.135 l
380.462 252.097 l
380.909 251.977 l
381.355 252.007 l
381.802 251.767 l
382.248 251.652 l
382.694 251.683 l
384.034 251.403 l
387.158 250.98 l
388.051 250.803 l
390.73 250.318 l
392.069 250.123 l
392.515 250.028 l
392.962 250.089 l
393.408 249.96 l
393.854 249.998 l
394.301 249.821 l
395.64 249.725 l
397.426 249.5 l
397.872 249.518 l
399.211 249.229 l
399.658 249.227 l
400.55 249.003 l
401.443 248.882 l
402.782 248.718 l
403.229 248.696 l
403.675 248.56 l
404.122 248.561 l
405.014 248.329 l
405.461 248.422 l
406.354 248.171 l
406.8 250.214 l
407.246 247.889 l
407.693 247.778 l
408.139 247.796 l
409.032 247.464 l
409.478 247.477 l
412.157 246.976 l
413.942 246.786 l
414.835 246.62 l
416.174 246.354 l
418.853 245.948 l
419.299 245.841 l
419.746 245.883 l
420.192 245.769 l
420.638 245.801 l
421.085 245.614 l
421.978 245.605 l
422.87 245.478 l
424.656 245.323 l
425.995 245.031 l
426.442 245.051 l
427.334 244.792 l
427.781 244.794 l
428.674 244.597 l
429.566 244.51 l
430.459 244.383 l
430.906 244.349 l
431.798 244.138 l
432.245 244.172 l
433.138 243.963 l
433.584 245.53 l
434.03 243.693 l
435.816 243.285 l
437.155 243.178 l
437.602 243.014 l
438.494 242.856 l
442.512 242.326 l
443.405 242.103 l
444.298 241.971 l
446.083 241.637 l
446.53 241.72 l
446.976 241.574 l
447.422 241.621 l
447.869 241.424 l
448.762 241.42 l
449.654 241.298 l
451.44 241.149 l
451.886 240.99 l
453.226 240.861 l
454.118 240.607 l
455.011 240.492 l
456.35 240.31 l
457.243 240.218 l
459.922 239.799 l
460.368 241.238 l
460.814 239.486 l
467.064 238.423 l
467.51 238.454 l
468.403 238.271 l
468.85 238.142 l
469.296 238.147 l
470.189 237.926 l
471.974 237.692 l
472.867 237.452 l
473.314 237.557 l
473.76 237.37 l
474.206 237.467 l
474.653 237.255 l
475.546 237.261 l
476.438 237.123 l
478.224 236.974 l
478.67 236.818 l
480.01 236.702 l
480.456 236.497 l
482.242 236.225 l
483.134 236.151 l
484.474 235.993 l
484.92 235.811 l
486.706 235.587 l
487.152 237.395 l
487.598 235.288 l
488.938 235.018 l
489.384 234.921 l
489.83 234.958 l
493.848 234.245 l
494.294 234.284 l
495.187 234.083 l
496.526 233.812 l
499.651 233.271 l
500.098 233.37 l
500.544 233.179 l
500.99 233.278 l
501.437 233.071 l
502.776 232.96 l
505.008 232.77 l
505.901 232.594 l
509.026 232.042 l
510.811 231.856 l
513.49 231.387 l
513.936 233.195 l
514.382 231.126 l
514.829 231.011 l
515.275 231.083 l
515.722 230.796 l
517.507 230.575 l
518.4 230.388 l
518.4 230.388 l
stroke
grestore
1.000 0.000 0.000 setrgbcolor
gsave
446.4 345.6 72 43.2 clipbox
72 386.532 m
72.4464 330.688 l
72.8928 286.536 l
73.3392 245.798 l
73.7856 208.577 l
74.232 171.35 l
74.6784 133.014 l
stroke
grestore
0.000 0.750 0.750 setrgbcolor
gsave
446.4 345.6 72 43.2 clipbox
72 386.532 m
72.4464 358.755 l
72.8928 346.682 l
73.3392 339.699 l
74.232 331.193 l
75.1248 325.439 l
76.0176 320.948 l
77.3568 315.668 l
78.696 311.546 l
80.0352 308.182 l
81.3744 305.329 l
83.16 302.062 l
84.9456 299.22 l
87.1776 296.083 l
89.856 292.752 l
92.5344 289.765 l
95.6592 286.599 l
99.2304 283.294 l
103.248 279.873 l
108.158 276.003 l
113.515 272.063 l
120.211 267.43 l
128.246 262.167 l
137.621 256.303 l
149.227 249.318 l
163.512 240.998 l
180.922 231.129 l
202.795 218.997 l
231.365 203.42 l
272.88 181.059 l
343.411 143.355 l
498.312 60.854 l
518.4 50.1636 l
518.4 50.1636 l
stroke
grestore
0.500 setlinewidth
0 setlinecap
[1 3] 0 setdash
0.000 setgray
gsave
446.4 345.6 72 43.2 clipbox
72 43.2 m
72 388.8 l
stroke
grestore
[] 0 setdash
gsave
/o {
gsave
newpath
translate
0.5 setlinewidth
1 setlinejoin
0 setlinecap
0 0 m
0 4 l
gsave
0.000 setgray
fill
grestore
stroke
grestore
} bind def
72 43.2 o
grestore
gsave
/o {
gsave
newpath
translate
0.5 setlinewidth
1 setlinejoin
0 setlinecap
0 0 m
0 -4 l
gsave
0.000 setgray
fill
grestore
stroke
grestore
} bind def
72 388.8 o
grestore
/DejaVuSans findfont
12.000 scalefont
setfont
gsave
68.976562 30.121875 translate
0.000000 rotate
0.000000 0.171875 m /zero glyphshow
grestore
[1 3] 0 setdash
gsave
446.4 345.6 72 43.2 clipbox
161.28 43.2 m
161.28 388.8 l
stroke
grestore
[] 0 setdash
gsave
/o {
gsave
newpath
translate
0.5 setlinewidth
1 setlinejoin
0 setlinecap
0 0 m
0 4 l
gsave
0.000 setgray
fill
grestore
stroke
grestore
} bind def
161.28 43.2 o
grestore
gsave
/o {
gsave
newpath
translate
0.5 setlinewidth
1 setlinejoin
0 setlinecap
0 0 m
0 -4 l
gsave
0.000 setgray
fill
grestore
stroke
grestore
} bind def
161.28 388.8 o
grestore
gsave
150.655000 30.121875 translate
0.000000 rotate
0.000000 0.171875 m /two glyphshow
7.634766 0.171875 m /zero glyphshow
15.269531 0.171875 m /zero glyphshow
grestore
[1 3] 0 setdash
gsave
446.4 345.6 72 43.2 clipbox
250.56 43.2 m
250.56 388.8 l
stroke
grestore
[] 0 setdash
gsave
/o {
gsave
newpath
translate
0.5 setlinewidth
1 setlinejoin
0 setlinecap
0 0 m
0 4 l
gsave
0.000 setgray
fill
grestore
stroke
grestore
} bind def
250.56 43.2 o
grestore
gsave
/o {
gsave
newpath
translate
0.5 setlinewidth
1 setlinejoin
0 setlinecap
0 0 m
0 -4 l
gsave
0.000 setgray
fill
grestore
stroke
grestore
} bind def
250.56 388.8 o
grestore
gsave
239.794375 30.121875 translate
0.000000 rotate
0.000000 0.171875 m /four glyphshow
7.634766 0.171875 m /zero glyphshow
15.269531 0.171875 m /zero glyphshow
grestore
[1 3] 0 setdash
gsave
446.4 345.6 72 43.2 clipbox
339.84 43.2 m
339.84 388.8 l
stroke
grestore
[] 0 setdash
gsave
/o {
gsave
newpath
translate
0.5 setlinewidth
1 setlinejoin
0 setlinecap
0 0 m
0 4 l
gsave
0.000 setgray
fill
grestore
stroke
grestore
} bind def
339.84 43.2 o
grestore
gsave
/o {
gsave
newpath
translate
0.5 setlinewidth
1 setlinejoin
0 setlinecap
0 0 m
0 -4 l
gsave
0.000 setgray
fill
grestore
stroke
grestore
} bind def
339.84 388.8 o
grestore
gsave
329.199375 30.121875 translate
0.000000 rotate
0.000000 0.171875 m /six glyphshow
7.634766 0.171875 m /zero glyphshow
15.269531 0.171875 m /zero glyphshow
grestore
[1 3] 0 setdash
gsave
446.4 345.6 72 43.2 clipbox
429.12 43.2 m
429.12 388.8 l
stroke
grestore
[] 0 setdash
gsave
/o {
gsave
newpath
translate
0.5 setlinewidth
1 setlinejoin
0 setlinecap
0 0 m
0 4 l
gsave
0.000 setgray
fill
grestore
stroke
grestore
} bind def
429.12 43.2 o
grestore
gsave
/o {
gsave
newpath
translate
0.5 setlinewidth
1 setlinejoin
0 setlinecap
0 0 m
0 -4 l
gsave
0.000 setgray
fill
grestore
stroke
grestore
} bind def
429.12 388.8 o
grestore
gsave
418.463750 30.121875 translate
0.000000 rotate
0.000000 0.171875 m /eight glyphshow
7.634766 0.171875 m /zero glyphshow
15.269531 0.171875 m /zero glyphshow
grestore
[1 3] 0 setdash
gsave
446.4 345.6 72 43.2 clipbox
518.4 43.2 m
518.4 388.8 l
stroke
grestore
[] 0 setdash
gsave
/o {
gsave
newpath
translate
0.5 setlinewidth
1 setlinejoin
0 setlinecap
0 0 m
0 4 l
gsave
0.000 setgray
fill
grestore
stroke
grestore
} bind def
518.4 43.2 o
grestore
gsave
/o {
gsave
newpath
translate
0.5 setlinewidth
1 setlinejoin
0 setlinecap
0 0 m
0 -4 l
gsave
0.000 setgray
fill
grestore
stroke
grestore
} bind def
518.4 388.8 o
grestore
gsave
504.173437 30.121875 translate
0.000000 rotate
0.000000 0.171875 m /one glyphshow
7.634766 0.171875 m /zero glyphshow
15.269531 0.171875 m /zero glyphshow
22.904297 0.171875 m /zero glyphshow
grestore
gsave
253.739062 15.825000 translate
0.000000 rotate
0.000000 0.171875 m /K glyphshow
7.869141 0.171875 m /S glyphshow
15.486328 0.171875 m /P glyphshow
22.722656 0.171875 m /space glyphshow
26.537109 0.171875 m /i glyphshow
29.871094 0.171875 m /t glyphshow
34.576172 0.171875 m /e glyphshow
41.958984 0.171875 m /r glyphshow
46.892578 0.171875 m /a glyphshow
54.246094 0.171875 m /t glyphshow
58.951172 0.171875 m /i glyphshow
62.285156 0.171875 m /o glyphshow
69.626953 0.171875 m /n glyphshow
77.232422 0.171875 m /s glyphshow
grestore
[1 3] 0 setdash
gsave
446.4 345.6 72 43.2 clipbox
72 43.2 m
518.4 43.2 l
stroke
grestore
[] 0 setdash
gsave
/o {
gsave
newpath
translate
0.5 setlinewidth
1 setlinejoin
0 setlinecap
0 0 m
4 0 l
gsave
0.000 setgray
fill
grestore
stroke
grestore
} bind def
72 43.2 o
grestore
gsave
/o {
gsave
newpath
translate
0.5 setlinewidth
1 setlinejoin
0 setlinecap
0 0 m
-4 0 l
gsave
0.000 setgray
fill
grestore
stroke
grestore
} bind def
518.4 43.2 o
grestore
gsave
37.000000 35.700000 translate
0.000000 rotate
/DejaVuSans findfont
12.0 scalefont
setfont
0.000000 1.828125 moveto
/one glyphshow

7.634766 1.828125 moveto
/zero glyphshow

/DejaVuSans findfont
8.4 scalefont
setfont
15.269531 8.765625 moveto
/hyphen glyphshow

18.300586 8.765625 moveto
/one glyphshow

23.644922 8.765625 moveto
/zero glyphshow


grestore
[1 3] 0 setdash
gsave
446.4 345.6 72 43.2 clipbox
72 72 m
518.4 72 l
stroke
grestore
[] 0 setdash
gsave
/o {
gsave
newpath
translate
0.5 setlinewidth
1 setlinejoin
0 setlinecap
0 0 m
4 0 l
gsave
0.000 setgray
fill
grestore
stroke
grestore
} bind def
72 72 o
grestore
gsave
/o {
gsave
newpath
translate
0.5 setlinewidth
1 setlinejoin
0 setlinecap
0 0 m
-4 0 l
gsave
0.000 setgray
fill
grestore
stroke
grestore
} bind def
518.4 72 o
grestore
gsave
43.000000 64.500000 translate
0.000000 rotate
/DejaVuSans findfont
12.0 scalefont
setfont
0.000000 1.828125 moveto
/one glyphshow

7.634766 1.828125 moveto
/zero glyphshow

/DejaVuSans findfont
8.4 scalefont
setfont
15.269531 8.765625 moveto
/hyphen glyphshow

18.300586 8.765625 moveto
/nine glyphshow


grestore
[1 3] 0 setdash
gsave
446.4 345.6 72 43.2 clipbox
72 100.8 m
518.4 100.8 l
stroke
grestore
[] 0 setdash
gsave
/o {
gsave
newpath
translate
0.5 setlinewidth
1 setlinejoin
0 setlinecap
0 0 m
4 0 l
gsave
0.000 setgray
fill
grestore
stroke
grestore
} bind def
72 100.8 o
grestore
gsave
/o {
gsave
newpath
translate
0.5 setlinewidth
1 setlinejoin
0 setlinecap
0 0 m
-4 0 l
gsave
0.000 setgray
fill
grestore
stroke
grestore
} bind def
518.4 100.8 o
grestore
gsave
43.000000 93.300000 translate
0.000000 rotate
/DejaVuSans findfont
12.0 scalefont
setfont
0.000000 1.828125 moveto
/one glyphshow

7.634766 1.828125 moveto
/zero glyphshow

/DejaVuSans findfont
8.4 scalefont
setfont
15.269531 8.765625 moveto
/hyphen glyphshow

18.300586 8.765625 moveto
/eight glyphshow


grestore
[1 3] 0 setdash
gsave
446.4 345.6 72 43.2 clipbox
72 129.6 m
518.4 129.6 l
stroke
grestore
[] 0 setdash
gsave
/o {
gsave
newpath
translate
0.5 setlinewidth
1 setlinejoin
0 setlinecap
0 0 m
4 0 l
gsave
0.000 setgray
fill
grestore
stroke
grestore
} bind def
72 129.6 o
grestore
gsave
/o {
gsave
newpath
translate
0.5 setlinewidth
1 setlinejoin
0 setlinecap
0 0 m
-4 0 l
gsave
0.000 setgray
fill
grestore
stroke
grestore
} bind def
518.4 129.6 o
grestore
gsave
43.000000 122.100000 translate
0.000000 rotate
/DejaVuSans findfont
12.0 scalefont
setfont
0.000000 1.937500 moveto
/one glyphshow

7.634766 1.937500 moveto
/zero glyphshow

/DejaVuSans findfont
8.4 scalefont
setfont
15.269531 8.875000 moveto
/hyphen glyphshow

18.300586 8.875000 moveto
/seven glyphshow


grestore
[1 3] 0 setdash
gsave
446.4 345.6 72 43.2 clipbox
72 158.4 m
518.4 158.4 l
stroke
grestore
[] 0 setdash
gsave
/o {
gsave
newpath
translate
0.5 setlinewidth
1 setlinejoin
0 setlinecap
0 0 m
4 0 l
gsave
0.000 setgray
fill
grestore
stroke
grestore
} bind def
72 158.4 o
grestore
gsave
/o {
gsave
newpath
translate
0.5 setlinewidth
1 setlinejoin
0 setlinecap
0 0 m
-4 0 l
gsave
0.000 setgray
fill
grestore
stroke
grestore
} bind def
518.4 158.4 o
grestore
gsave
43.000000 150.900000 translate
0.000000 rotate
/DejaVuSans findfont
12.0 scalefont
setfont
0.000000 1.828125 moveto
/one glyphshow

7.634766 1.828125 moveto
/zero glyphshow

/DejaVuSans findfont
8.4 scalefont
setfont
15.269531 8.765625 moveto
/hyphen glyphshow

18.300586 8.765625 moveto
/six glyphshow


grestore
[1 3] 0 setdash
gsave
446.4 345.6 72 43.2 clipbox
72 187.2 m
518.4 187.2 l
stroke
grestore
[] 0 setdash
gsave
/o {
gsave
newpath
translate
0.5 setlinewidth
1 setlinejoin
0 setlinecap
0 0 m
4 0 l
gsave
0.000 setgray
fill
grestore
stroke
grestore
} bind def
72 187.2 o
grestore
gsave
/o {
gsave
newpath
translate
0.5 setlinewidth
1 setlinejoin
0 setlinecap
0 0 m
-4 0 l
gsave
0.000 setgray
fill
grestore
stroke
grestore
} bind def
518.4 187.2 o
grestore
gsave
43.000000 179.700000 translate
0.000000 rotate
/DejaVuSans findfont
12.0 scalefont
setfont
0.000000 1.937500 moveto
/one glyphshow

7.634766 1.937500 moveto
/zero glyphshow

/DejaVuSans findfont
8.4 scalefont
setfont
15.269531 8.875000 moveto
/hyphen glyphshow

18.300586 8.875000 moveto
/five glyphshow


grestore
[1 3] 0 setdash
gsave
446.4 345.6 72 43.2 clipbox
72 216 m
518.4 216 l
stroke
grestore
[] 0 setdash
gsave
/o {
gsave
newpath
translate
0.5 setlinewidth
1 setlinejoin
0 setlinecap
0 0 m
4 0 l
gsave
0.000 setgray
fill
grestore
stroke
grestore
} bind def
72 216 o
grestore
gsave
/o {
gsave
newpath
translate
0.5 setlinewidth
1 setlinejoin
0 setlinecap
0 0 m
-4 0 l
gsave
0.000 setgray
fill
grestore
stroke
grestore
} bind def
518.4 216 o
grestore
gsave
43.000000 208.500000 translate
0.000000 rotate
/DejaVuSans findfont
12.0 scalefont
setfont
0.000000 1.937500 moveto
/one glyphshow

7.634766 1.937500 moveto
/zero glyphshow

/DejaVuSans findfont
8.4 scalefont
setfont
15.269531 8.875000 moveto
/hyphen glyphshow

18.300586 8.875000 moveto
/four glyphshow


grestore
[1 3] 0 setdash
gsave
446.4 345.6 72 43.2 clipbox
72 244.8 m
518.4 244.8 l
stroke
grestore
[] 0 setdash
gsave
/o {
gsave
newpath
translate
0.5 setlinewidth
1 setlinejoin
0 setlinecap
0 0 m
4 0 l
gsave
0.000 setgray
fill
grestore
stroke
grestore
} bind def
72 244.8 o
grestore
gsave
/o {
gsave
newpath
translate
0.5 setlinewidth
1 setlinejoin
0 setlinecap
0 0 m
-4 0 l
gsave
0.000 setgray
fill
grestore
stroke
grestore
} bind def
518.4 244.8 o
grestore
gsave
43.000000 237.300000 translate
0.000000 rotate
/DejaVuSans findfont
12.0 scalefont
setfont
0.000000 1.828125 moveto
/one glyphshow

7.634766 1.828125 moveto
/zero glyphshow

/DejaVuSans findfont
8.4 scalefont
setfont
15.269531 8.765625 moveto
/hyphen glyphshow

18.300586 8.765625 moveto
/three glyphshow


grestore
[1 3] 0 setdash
gsave
446.4 345.6 72 43.2 clipbox
72 273.6 m
518.4 273.6 l
stroke
grestore
[] 0 setdash
gsave
/o {
gsave
newpath
translate
0.5 setlinewidth
1 setlinejoin
0 setlinecap
0 0 m
4 0 l
gsave
0.000 setgray
fill
grestore
stroke
grestore
} bind def
72 273.6 o
grestore
gsave
/o {
gsave
newpath
translate
0.5 setlinewidth
1 setlinejoin
0 setlinecap
0 0 m
-4 0 l
gsave
0.000 setgray
fill
grestore
stroke
grestore
} bind def
518.4 273.6 o
grestore
gsave
43.000000 266.100000 translate
0.000000 rotate
/DejaVuSans findfont
12.0 scalefont
setfont
0.000000 1.828125 moveto
/one glyphshow

7.634766 1.828125 moveto
/zero glyphshow

/DejaVuSans findfont
8.4 scalefont
setfont
15.269531 8.765625 moveto
/hyphen glyphshow

18.300586 8.765625 moveto
/two glyphshow


grestore
[1 3] 0 setdash
gsave
446.4 345.6 72 43.2 clipbox
72 302.4 m
518.4 302.4 l
stroke
grestore
[] 0 setdash
gsave
/o {
gsave
newpath
translate
0.5 setlinewidth
1 setlinejoin
0 setlinecap
0 0 m
4 0 l
gsave
0.000 setgray
fill
grestore
stroke
grestore
} bind def
72 302.4 o
grestore
gsave
/o {
gsave
newpath
translate
0.5 setlinewidth
1 setlinejoin
0 setlinecap
0 0 m
-4 0 l
gsave
0.000 setgray
fill
grestore
stroke
grestore
} bind def
518.4 302.4 o
grestore
gsave
43.000000 294.900000 translate
0.000000 rotate
/DejaVuSans findfont
12.0 scalefont
setfont
0.000000 1.937500 moveto
/one glyphshow

7.634766 1.937500 moveto
/zero glyphshow

/DejaVuSans findfont
8.4 scalefont
setfont
15.269531 8.875000 moveto
/hyphen glyphshow

18.300586 8.875000 moveto
/one glyphshow


grestore
[1 3] 0 setdash
gsave
446.4 345.6 72 43.2 clipbox
72 331.2 m
518.4 331.2 l
stroke
grestore
[] 0 setdash
gsave
/o {
gsave
newpath
translate
0.5 setlinewidth
1 setlinejoin
0 setlinecap
0 0 m
4 0 l
gsave
0.000 setgray
fill
grestore
stroke
grestore
} bind def
72 331.2 o
grestore
gsave
/o {
gsave
newpath
translate
0.5 setlinewidth
1 setlinejoin
0 setlinecap
0 0 m
-4 0 l
gsave
0.000 setgray
fill
grestore
stroke
grestore
} bind def
518.4 331.2 o
grestore
gsave
46.000000 323.700000 translate
0.000000 rotate
/DejaVuSans findfont
12.0 scalefont
setfont
0.000000 1.828125 moveto
/one glyphshow

7.634766 1.828125 moveto
/zero glyphshow

/DejaVuSans findfont
8.4 scalefont
setfont
15.269531 8.765625 moveto
/zero glyphshow


grestore
[1 3] 0 setdash
gsave
446.4 345.6 72 43.2 clipbox
72 360 m
518.4 360 l
stroke
grestore
[] 0 setdash
gsave
/o {
gsave
newpath
translate
0.5 setlinewidth
1 setlinejoin
0 setlinecap
0 0 m
4 0 l
gsave
0.000 setgray
fill
grestore
stroke
grestore
} bind def
72 360 o
grestore
gsave
/o {
gsave
newpath
translate
0.5 setlinewidth
1 setlinejoin
0 setlinecap
0 0 m
-4 0 l
gsave
0.000 setgray
fill
grestore
stroke
grestore
} bind def
518.4 360 o
grestore
gsave
46.000000 352.500000 translate
0.000000 rotate
/DejaVuSans findfont
12.0 scalefont
setfont
0.000000 1.937500 moveto
/one glyphshow

7.634766 1.937500 moveto
/zero glyphshow

/DejaVuSans findfont
8.4 scalefont
setfont
15.269531 8.875000 moveto
/one glyphshow


grestore
[1 3] 0 setdash
gsave
446.4 345.6 72 43.2 clipbox
72 388.8 m
518.4 388.8 l
stroke
grestore
[] 0 setdash
gsave
/o {
gsave
newpath
translate
0.5 setlinewidth
1 setlinejoin
0 setlinecap
0 0 m
4 0 l
gsave
0.000 setgray
fill
grestore
stroke
grestore
} bind def
72 388.8 o
grestore
gsave
/o {
gsave
newpath
translate
0.5 setlinewidth
1 setlinejoin
0 setlinecap
0 0 m
-4 0 l
gsave
0.000 setgray
fill
grestore
stroke
grestore
} bind def
518.4 388.8 o
grestore
gsave
46.000000 381.300000 translate
0.000000 rotate
/DejaVuSans findfont
12.0 scalefont
setfont
0.000000 1.828125 moveto
/one glyphshow

7.634766 1.828125 moveto
/zero glyphshow

/DejaVuSans findfont
8.4 scalefont
setfont
15.269531 8.765625 moveto
/two glyphshow


grestore
gsave
/o {
gsave
newpath
translate
0.5 setlinewidth
1 setlinejoin
0 setlinecap
0 0 m
2 0 l
gsave
0.000 setgray
fill
grestore
stroke
grestore
} bind def
72 43.2 o
grestore
gsave
/o {
gsave
newpath
translate
0.5 setlinewidth
1 setlinejoin
0 setlinecap
0 0 m
-2 0 l
gsave
0.000 setgray
fill
grestore
stroke
grestore
} bind def
518.4 43.2 o
grestore
gsave
/o {
gsave
newpath
translate
0.5 setlinewidth
1 setlinejoin
0 setlinecap
0 0 m
2 0 l
gsave
0.000 setgray
fill
grestore
stroke
grestore
} bind def
72 72 o
grestore
gsave
/o {
gsave
newpath
translate
0.5 setlinewidth
1 setlinejoin
0 setlinecap
0 0 m
-2 0 l
gsave
0.000 setgray
fill
grestore
stroke
grestore
} bind def
518.4 72 o
grestore
gsave
/o {
gsave
newpath
translate
0.5 setlinewidth
1 setlinejoin
0 setlinecap
0 0 m
2 0 l
gsave
0.000 setgray
fill
grestore
stroke
grestore
} bind def
72 100.8 o
grestore
gsave
/o {
gsave
newpath
translate
0.5 setlinewidth
1 setlinejoin
0 setlinecap
0 0 m
-2 0 l
gsave
0.000 setgray
fill
grestore
stroke
grestore
} bind def
518.4 100.8 o
grestore
gsave
/o {
gsave
newpath
translate
0.5 setlinewidth
1 setlinejoin
0 setlinecap
0 0 m
2 0 l
gsave
0.000 setgray
fill
grestore
stroke
grestore
} bind def
72 129.6 o
grestore
gsave
/o {
gsave
newpath
translate
0.5 setlinewidth
1 setlinejoin
0 setlinecap
0 0 m
-2 0 l
gsave
0.000 setgray
fill
grestore
stroke
grestore
} bind def
518.4 129.6 o
grestore
gsave
/o {
gsave
newpath
translate
0.5 setlinewidth
1 setlinejoin
0 setlinecap
0 0 m
2 0 l
gsave
0.000 setgray
fill
grestore
stroke
grestore
} bind def
72 158.4 o
grestore
gsave
/o {
gsave
newpath
translate
0.5 setlinewidth
1 setlinejoin
0 setlinecap
0 0 m
-2 0 l
gsave
0.000 setgray
fill
grestore
stroke
grestore
} bind def
518.4 158.4 o
grestore
gsave
/o {
gsave
newpath
translate
0.5 setlinewidth
1 setlinejoin
0 setlinecap
0 0 m
2 0 l
gsave
0.000 setgray
fill
grestore
stroke
grestore
} bind def
72 187.2 o
grestore
gsave
/o {
gsave
newpath
translate
0.5 setlinewidth
1 setlinejoin
0 setlinecap
0 0 m
-2 0 l
gsave
0.000 setgray
fill
grestore
stroke
grestore
} bind def
518.4 187.2 o
grestore
gsave
/o {
gsave
newpath
translate
0.5 setlinewidth
1 setlinejoin
0 setlinecap
0 0 m
2 0 l
gsave
0.000 setgray
fill
grestore
stroke
grestore
} bind def
72 216 o
grestore
gsave
/o {
gsave
newpath
translate
0.5 setlinewidth
1 setlinejoin
0 setlinecap
0 0 m
-2 0 l
gsave
0.000 setgray
fill
grestore
stroke
grestore
} bind def
518.4 216 o
grestore
gsave
/o {
gsave
newpath
translate
0.5 setlinewidth
1 setlinejoin
0 setlinecap
0 0 m
2 0 l
gsave
0.000 setgray
fill
grestore
stroke
grestore
} bind def
72 244.8 o
grestore
gsave
/o {
gsave
newpath
translate
0.5 setlinewidth
1 setlinejoin
0 setlinecap
0 0 m
-2 0 l
gsave
0.000 setgray
fill
grestore
stroke
grestore
} bind def
518.4 244.8 o
grestore
gsave
/o {
gsave
newpath
translate
0.5 setlinewidth
1 setlinejoin
0 setlinecap
0 0 m
2 0 l
gsave
0.000 setgray
fill
grestore
stroke
grestore
} bind def
72 273.6 o
grestore
gsave
/o {
gsave
newpath
translate
0.5 setlinewidth
1 setlinejoin
0 setlinecap
0 0 m
-2 0 l
gsave
0.000 setgray
fill
grestore
stroke
grestore
} bind def
518.4 273.6 o
grestore
gsave
/o {
gsave
newpath
translate
0.5 setlinewidth
1 setlinejoin
0 setlinecap
0 0 m
2 0 l
gsave
0.000 setgray
fill
grestore
stroke
grestore
} bind def
72 302.4 o
grestore
gsave
/o {
gsave
newpath
translate
0.5 setlinewidth
1 setlinejoin
0 setlinecap
0 0 m
-2 0 l
gsave
0.000 setgray
fill
grestore
stroke
grestore
} bind def
518.4 302.4 o
grestore
gsave
/o {
gsave
newpath
translate
0.5 setlinewidth
1 setlinejoin
0 setlinecap
0 0 m
2 0 l
gsave
0.000 setgray
fill
grestore
stroke
grestore
} bind def
72 331.2 o
grestore
gsave
/o {
gsave
newpath
translate
0.5 setlinewidth
1 setlinejoin
0 setlinecap
0 0 m
-2 0 l
gsave
0.000 setgray
fill
grestore
stroke
grestore
} bind def
518.4 331.2 o
grestore
gsave
/o {
gsave
newpath
translate
0.5 setlinewidth
1 setlinejoin
0 setlinecap
0 0 m
2 0 l
gsave
0.000 setgray
fill
grestore
stroke
grestore
} bind def
72 360 o
grestore
gsave
/o {
gsave
newpath
translate
0.5 setlinewidth
1 setlinejoin
0 setlinecap
0 0 m
-2 0 l
gsave
0.000 setgray
fill
grestore
stroke
grestore
} bind def
518.4 360 o
grestore
gsave
/o {
gsave
newpath
translate
0.5 setlinewidth
1 setlinejoin
0 setlinecap
0 0 m
2 0 l
gsave
0.000 setgray
fill
grestore
stroke
grestore
} bind def
72 388.8 o
grestore
gsave
/o {
gsave
newpath
translate
0.5 setlinewidth
1 setlinejoin
0 setlinecap
0 0 m
-2 0 l
gsave
0.000 setgray
fill
grestore
stroke
grestore
} bind def
518.4 388.8 o
grestore
gsave
32.000000 199.984375 translate
90.000000 rotate
0.000000 2.828125 m /bar glyphshow
4.042969 2.828125 m /bar glyphshow
8.085938 2.828125 m /r glyphshow
13.019531 2.828125 m /bar glyphshow
17.062500 2.828125 m /bar glyphshow
21.105469 2.828125 m /underscore glyphshow
27.105469 2.828125 m /two glyphshow
grestore
1.000 setlinewidth
2 setlinecap
gsave
72 388.8 m
518.4 388.8 l
stroke
grestore
gsave
518.4 43.2 m
518.4 388.8 l
stroke
grestore
gsave
72 43.2 m
518.4 43.2 l
stroke
grestore
gsave
72 43.2 m
72 388.8 l
stroke
grestore
/DejaVuSans findfont
14.400 scalefont
setfont
gsave
152.918750 390.893750 translate
0.000000 rotate
0.000000 2.906250 m /space glyphshow
4.574356 2.906250 m /p glyphshow
13.709030 2.906250 m /o glyphshow
22.513443 2.906250 m /i glyphshow
26.511612 2.906250 m /s glyphshow
34.009064 2.906250 m /s glyphshow
41.506516 2.906250 m /o glyphshow
50.310928 2.906250 m /n glyphshow
59.431549 2.906250 m /space glyphshow
64.005905 2.906250 m /s glyphshow
71.503357 2.906250 m /o glyphshow
80.307770 2.906250 m /l glyphshow
84.305939 2.906250 m /v glyphshow
92.822266 2.906250 m /e glyphshow
101.675873 2.906250 m /r glyphshow
107.592331 2.906250 m /space glyphshow
112.166687 2.906250 m /C glyphshow
122.214828 2.906250 m /o glyphshow
131.019241 2.906250 m /n glyphshow
140.139862 2.906250 m /v glyphshow
148.656189 2.906250 m /e glyphshow
157.509796 2.906250 m /r glyphshow
163.176254 2.906250 m /g glyphshow
172.310928 2.906250 m /e glyphshow
181.164536 2.906250 m /n glyphshow
190.285156 2.906250 m /c glyphshow
198.197189 2.906250 m /e glyphshow
207.050797 2.906250 m /space glyphshow
211.625153 2.906250 m /f glyphshow
216.691376 2.906250 m /o glyphshow
225.495789 2.906250 m /r glyphshow
231.412247 2.906250 m /space glyphshow
235.986603 2.906250 m /N glyphshow
246.751465 2.906250 m /equal glyphshow
258.809235 2.906250 m /five glyphshow
267.964981 2.906250 m /one glyphshow
277.120728 2.906250 m /two glyphshow
grestore
gsave
338.188 294.293 m
511.2 294.293 l
511.2 381.6 l
338.188 381.6 l
338.188 294.293 l
cl
gsave
1.000 setgray
fill
grestore
stroke
grestore
0.000 0.000 1.000 setrgbcolor
gsave
348.268 370.239 m
368.428 370.239 l
stroke
grestore
0.000 setgray
gsave
384.268125 362.293125 translate
0.000000 rotate
0.000000 2.906250 m /parenleft glyphshow
5.614304 2.906250 m /c glyphshow
13.526337 2.906250 m /g glyphshow
22.661011 2.906250 m /comma glyphshow
27.235367 2.906250 m /i glyphshow
31.233536 2.906250 m /l glyphshow
35.231705 2.906250 m /u glyphshow
44.352325 2.906250 m /parenright glyphshow
grestore
0.000 0.500 0.000 setrgbcolor
gsave
348.268 349.493 m
368.428 349.493 l
stroke
grestore
0.000 setgray
gsave
384.268125 341.546250 translate
0.000000 rotate
0.000000 2.906250 m /parenleft glyphshow
5.614304 2.906250 m /g glyphshow
14.748978 2.906250 m /m glyphshow
28.767181 2.906250 m /r glyphshow
34.308640 2.906250 m /e glyphshow
43.162247 2.906250 m /s glyphshow
50.659698 2.906250 m /comma glyphshow
55.234055 2.906250 m /i glyphshow
59.232224 2.906250 m /l glyphshow
63.230392 2.906250 m /u glyphshow
72.351013 2.906250 m /parenright glyphshow
grestore
1.000 0.000 0.000 setrgbcolor
gsave
348.268 328.746 m
368.428 328.746 l
stroke
grestore
0.000 setgray
gsave
384.268125 320.799375 translate
0.000000 rotate
0.000000 2.906250 m /parenleft glyphshow
5.614304 2.906250 m /c glyphshow
13.526337 2.906250 m /g glyphshow
22.661011 2.906250 m /comma glyphshow
27.235367 2.906250 m /h glyphshow
36.355988 2.906250 m /y glyphshow
44.872314 2.906250 m /p glyphshow
54.006989 2.906250 m /r glyphshow
59.548447 2.906250 m /e glyphshow
68.402054 2.906250 m /parenright glyphshow
grestore
0.000 0.750 0.750 setrgbcolor
gsave
348.268 307.999 m
368.428 307.999 l
stroke
grestore
0.000 setgray
gsave
384.268125 300.052500 translate
0.000000 rotate
0.000000 2.906250 m /parenleft glyphshow
5.614304 2.906250 m /r glyphshow
11.530762 2.906250 m /i glyphshow
15.528931 2.906250 m /c glyphshow
23.440964 2.906250 m /h glyphshow
32.561584 2.906250 m /a glyphshow
41.380051 2.906250 m /r glyphshow
47.046509 2.906250 m /d glyphshow
56.181183 2.906250 m /s glyphshow
63.678635 2.906250 m /o glyphshow
72.483047 2.906250 m /n glyphshow
81.603668 2.906250 m /comma glyphshow
86.178024 2.906250 m /a glyphshow
94.996490 2.906250 m /m glyphshow
109.014694 2.906250 m /g glyphshow
118.149368 2.906250 m /parenright glyphshow
grestore

end
showpage
